<?xml version="1.0" encoding="UTF-8" standalone="no"?>
<svg
   xmlns:dc="http://purl.org/dc/elements/1.1/"
   xmlns:cc="http://creativecommons.org/ns#"
   xmlns:rdf="http://www.w3.org/1999/02/22-rdf-syntax-ns#"
   xmlns:svg="http://www.w3.org/2000/svg"
   xmlns="http://www.w3.org/2000/svg"
   xmlns:sodipodi="http://sodipodi.sourceforge.net/DTD/sodipodi-0.dtd"
   xmlns:inkscape="http://www.inkscape.org/namespaces/inkscape"
   sodipodi:docname="gouge-back_plate-cut.svg"
   inkscape:version="0.92.3 (2405546, 2018-03-11)"
   version="1.1"
   id="svg2"
   viewBox="0 0 970.40917 588.54469"
   height="166.10039mm"
   width="273.87103mm">
  <defs
     id="defs4" />
  <sodipodi:namedview
     fit-margin-bottom="0"
     fit-margin-right="0"
     fit-margin-left="0"
     fit-margin-top="0"
     inkscape:document-rotation="0"
     inkscape:measure-end="-476,1008"
     inkscape:measure-start="-400,332"
     inkscape:window-maximized="1"
     inkscape:window-y="27"
     inkscape:window-x="0"
     inkscape:window-height="996"
     inkscape:window-width="1920"
     inkscape:snap-text-baseline="true"
     inkscape:snap-center="true"
     inkscape:snap-object-midpoints="true"
     inkscape:snap-midpoints="true"
     inkscape:snap-smooth-nodes="true"
     inkscape:object-nodes="true"
     inkscape:snap-intersection-paths="true"
     inkscape:object-paths="true"
     inkscape:snap-bbox-midpoints="true"
     inkscape:snap-bbox-edge-midpoints="true"
     inkscape:bbox-nodes="true"
     inkscape:bbox-paths="true"
     inkscape:snap-bbox="true"
     showgrid="false"
     inkscape:current-layer="layer1"
     inkscape:document-units="mm"
     inkscape:cy="332.533"
     inkscape:cx="554.5404"
     inkscape:zoom="1"
     inkscape:pageshadow="2"
     inkscape:pageopacity="0.0"
     borderopacity="1.0"
     bordercolor="#666666"
     pagecolor="#ffffff"
     id="base" />
  <metadata
     id="metadata7">
    <rdf:RDF>
      <cc:Work
         rdf:about="">
        <dc:format>image/svg+xml</dc:format>
        <dc:type
           rdf:resource="http://purl.org/dc/dcmitype/StillImage" />
        <dc:title></dc:title>
      </cc:Work>
    </rdf:RDF>
  </metadata>
  <g
     style="display:inline"
     transform="translate(1.333691e-7,-463.81743)"
     id="layer1"
     inkscape:groupmode="layer"
     inkscape:label="cut in wood 3mm">
    <path
       inkscape:connector-curvature="0"
       id="path3739"
       d="M 276.84567,1009.3713 V 993.42634 H 312.27874 V 1009.3713 Z"
       style="opacity:1;fill:none;fill-opacity:0.07058818;fill-rule:nonzero;stroke:#ff0000;stroke-width:0.35433099;stroke-linecap:butt;stroke-linejoin:miter;stroke-miterlimit:4;stroke-dasharray:none;stroke-opacity:1" />
    <g
       id="text4140"
       style="font-style:normal;font-variant:normal;font-weight:normal;font-stretch:normal;font-size:50px;line-height:125%;font-family:Comfortaa;-inkscape-font-specification:'Comfortaa, Normal';text-align:start;letter-spacing:0px;word-spacing:0px;writing-mode:lr-tb;text-anchor:start;fill:#000000;fill-opacity:1;stroke:#ff0000;stroke-width:0.35433099;stroke-linecap:butt;stroke-linejoin:miter;stroke-miterlimit:4;stroke-dasharray:none;stroke-opacity:1" />
    <g
       id="text4144"
       style="font-style:normal;font-variant:normal;font-weight:normal;font-stretch:normal;font-size:50px;line-height:125%;font-family:Comfortaa;-inkscape-font-specification:'Comfortaa, Normal';text-align:start;letter-spacing:0px;word-spacing:0px;writing-mode:lr-tb;text-anchor:start;fill:#000000;fill-opacity:1;stroke:#ff0000;stroke-width:0.35433099;stroke-linecap:butt;stroke-linejoin:miter;stroke-miterlimit:4;stroke-dasharray:none;stroke-opacity:1" />
    <g
       id="text4156"
       style="font-style:normal;font-variant:normal;font-weight:normal;font-stretch:normal;font-size:50px;line-height:125%;font-family:Comfortaa;-inkscape-font-specification:'Comfortaa, Normal';text-align:start;letter-spacing:0px;word-spacing:0px;writing-mode:lr-tb;text-anchor:start;fill:#000000;fill-opacity:1;stroke:#ff0000;stroke-width:0.35433099;stroke-linecap:butt;stroke-linejoin:miter;stroke-miterlimit:4;stroke-dasharray:none;stroke-opacity:1" />
    <g
       id="text4164"
       style="font-style:normal;font-variant:normal;font-weight:normal;font-stretch:normal;font-size:50px;line-height:125%;font-family:Comfortaa;-inkscape-font-specification:'Comfortaa, Normal';text-align:start;letter-spacing:0px;word-spacing:0px;writing-mode:lr-tb;text-anchor:start;fill:#000000;fill-opacity:1;stroke:#ff0000;stroke-width:0.35433099;stroke-linecap:butt;stroke-linejoin:miter;stroke-miterlimit:4;stroke-dasharray:none;stroke-opacity:1" />
    <g
       id="text4168"
       style="font-style:normal;font-variant:normal;font-weight:normal;font-stretch:normal;font-size:50px;line-height:125%;font-family:Comfortaa;-inkscape-font-specification:'Comfortaa, Normal';text-align:start;letter-spacing:0px;word-spacing:0px;writing-mode:lr-tb;text-anchor:start;fill:#000000;fill-opacity:1;stroke:#ff0000;stroke-width:0.35433099;stroke-linecap:butt;stroke-linejoin:miter;stroke-miterlimit:4;stroke-dasharray:none;stroke-opacity:1" />
    <g
       id="text4172"
       style="font-style:normal;font-variant:normal;font-weight:normal;font-stretch:normal;font-size:50px;line-height:125%;font-family:Comfortaa;-inkscape-font-specification:'Comfortaa, Normal';text-align:start;letter-spacing:0px;word-spacing:0px;writing-mode:lr-tb;text-anchor:start;fill:#000000;fill-opacity:1;stroke:#ff0000;stroke-width:0.35433099;stroke-linecap:butt;stroke-linejoin:miter;stroke-miterlimit:4;stroke-dasharray:none;stroke-opacity:1" />
    <g
       id="text4176"
       style="font-style:normal;font-variant:normal;font-weight:normal;font-stretch:normal;font-size:50px;line-height:125%;font-family:Comfortaa;-inkscape-font-specification:'Comfortaa, Normal';text-align:start;letter-spacing:0px;word-spacing:0px;writing-mode:lr-tb;text-anchor:start;fill:#000000;fill-opacity:1;stroke:#ff0000;stroke-width:0.35433099;stroke-linecap:butt;stroke-linejoin:miter;stroke-miterlimit:4;stroke-dasharray:none;stroke-opacity:1" />
    <g
       id="text4180"
       style="font-style:normal;font-variant:normal;font-weight:normal;font-stretch:normal;font-size:50px;line-height:125%;font-family:Comfortaa;-inkscape-font-specification:'Comfortaa, Normal';text-align:start;letter-spacing:0px;word-spacing:0px;writing-mode:lr-tb;text-anchor:start;fill:#000000;fill-opacity:1;stroke:#ff0000;stroke-width:0.35433099;stroke-linecap:butt;stroke-linejoin:miter;stroke-miterlimit:4;stroke-dasharray:none;stroke-opacity:1" />
    <g
       id="text4184"
       style="font-style:normal;font-variant:normal;font-weight:normal;font-stretch:normal;font-size:50px;line-height:125%;font-family:Comfortaa;-inkscape-font-specification:'Comfortaa, Normal';text-align:start;letter-spacing:0px;word-spacing:0px;writing-mode:lr-tb;text-anchor:start;fill:#000000;fill-opacity:1;stroke:#ff0000;stroke-width:0.35433099;stroke-linecap:butt;stroke-linejoin:miter;stroke-miterlimit:4;stroke-dasharray:none;stroke-opacity:1" />
    <g
       id="text4188"
       style="font-style:normal;font-variant:normal;font-weight:normal;font-stretch:normal;font-size:50px;line-height:125%;font-family:Comfortaa;-inkscape-font-specification:'Comfortaa, Normal';text-align:start;letter-spacing:0px;word-spacing:0px;writing-mode:lr-tb;text-anchor:start;fill:#000000;fill-opacity:1;stroke:#ff0000;stroke-width:0.35433099;stroke-linecap:butt;stroke-linejoin:miter;stroke-miterlimit:4;stroke-dasharray:none;stroke-opacity:1" />
    <g
       id="text4192"
       style="font-style:normal;font-variant:normal;font-weight:normal;font-stretch:normal;font-size:50px;line-height:125%;font-family:Comfortaa;-inkscape-font-specification:'Comfortaa, Normal';text-align:start;letter-spacing:0px;word-spacing:0px;writing-mode:lr-tb;text-anchor:start;fill:#000000;fill-opacity:1;stroke:#ff0000;stroke-width:0.35433099;stroke-linecap:butt;stroke-linejoin:miter;stroke-miterlimit:4;stroke-dasharray:none;stroke-opacity:1" />
    <g
       id="text4200"
       style="font-style:normal;font-variant:normal;font-weight:normal;font-stretch:normal;font-size:50px;line-height:125%;font-family:Comfortaa;-inkscape-font-specification:'Comfortaa, Normal';text-align:start;letter-spacing:0px;word-spacing:0px;writing-mode:lr-tb;text-anchor:start;fill:#000000;fill-opacity:1;stroke:#ff0000;stroke-width:0.35433099;stroke-linecap:butt;stroke-linejoin:miter;stroke-miterlimit:4;stroke-dasharray:none;stroke-opacity:1" />
    <g
       id="text4208"
       style="font-style:normal;font-variant:normal;font-weight:normal;font-stretch:normal;font-size:50px;line-height:125%;font-family:Comfortaa;-inkscape-font-specification:'Comfortaa, Normal';text-align:start;letter-spacing:0px;word-spacing:0px;writing-mode:lr-tb;text-anchor:start;fill:#000000;fill-opacity:1;stroke:#ff0000;stroke-width:0.35433099;stroke-linecap:butt;stroke-linejoin:miter;stroke-miterlimit:4;stroke-dasharray:none;stroke-opacity:1" />
    <g
       id="text4212"
       style="font-style:normal;font-variant:normal;font-weight:normal;font-stretch:normal;font-size:50px;line-height:125%;font-family:Comfortaa;-inkscape-font-specification:'Comfortaa, Normal';text-align:start;letter-spacing:0px;word-spacing:0px;writing-mode:lr-tb;text-anchor:start;fill:#000000;fill-opacity:1;stroke:#ff0000;stroke-width:0.35433099;stroke-linecap:butt;stroke-linejoin:miter;stroke-miterlimit:4;stroke-dasharray:none;stroke-opacity:1" />
    <g
       id="text4216"
       style="font-style:normal;font-variant:normal;font-weight:normal;font-stretch:normal;font-size:50px;line-height:125%;font-family:Comfortaa;-inkscape-font-specification:'Comfortaa, Normal';text-align:start;letter-spacing:0px;word-spacing:0px;writing-mode:lr-tb;text-anchor:start;fill:#000000;fill-opacity:1;stroke:#ff0000;stroke-width:0.35433099;stroke-linecap:butt;stroke-linejoin:miter;stroke-miterlimit:4;stroke-dasharray:none;stroke-opacity:1" />
    <g
       id="text4220"
       style="font-style:normal;font-variant:normal;font-weight:normal;font-stretch:normal;font-size:50px;line-height:125%;font-family:Comfortaa;-inkscape-font-specification:'Comfortaa, Normal';text-align:start;letter-spacing:0px;word-spacing:0px;writing-mode:lr-tb;text-anchor:start;fill:#000000;fill-opacity:1;stroke:#ff0000;stroke-width:0.35433099;stroke-linecap:butt;stroke-linejoin:miter;stroke-miterlimit:4;stroke-dasharray:none;stroke-opacity:1" />
    <g
       id="text4224"
       style="font-style:normal;font-variant:normal;font-weight:normal;font-stretch:normal;font-size:50px;line-height:125%;font-family:Comfortaa;-inkscape-font-specification:'Comfortaa, Normal';text-align:start;letter-spacing:0px;word-spacing:0px;writing-mode:lr-tb;text-anchor:start;fill:#000000;fill-opacity:1;stroke:#ff0000;stroke-width:0.35433099;stroke-linecap:butt;stroke-linejoin:miter;stroke-miterlimit:4;stroke-dasharray:none;stroke-opacity:1" />
    <g
       id="text4228"
       style="font-style:normal;font-variant:normal;font-weight:normal;font-stretch:normal;font-size:50px;line-height:125%;font-family:Comfortaa;-inkscape-font-specification:'Comfortaa, Normal';text-align:start;letter-spacing:0px;word-spacing:0px;writing-mode:lr-tb;text-anchor:start;fill:#000000;fill-opacity:1;stroke:#ff0000;stroke-width:0.35433099;stroke-linecap:butt;stroke-linejoin:miter;stroke-miterlimit:4;stroke-dasharray:none;stroke-opacity:1" />
    <g
       id="text4232"
       style="font-style:normal;font-variant:normal;font-weight:normal;font-stretch:normal;font-size:50px;line-height:125%;font-family:Comfortaa;-inkscape-font-specification:'Comfortaa, Normal';text-align:start;letter-spacing:0px;word-spacing:0px;writing-mode:lr-tb;text-anchor:start;fill:#000000;fill-opacity:1;stroke:#ff0000;stroke-width:0.35433099;stroke-linecap:butt;stroke-linejoin:miter;stroke-miterlimit:4;stroke-dasharray:none;stroke-opacity:1" />
    <g
       id="text4236"
       style="font-style:normal;font-variant:normal;font-weight:normal;font-stretch:normal;font-size:50px;line-height:125%;font-family:Comfortaa;-inkscape-font-specification:'Comfortaa, Normal';text-align:start;letter-spacing:0px;word-spacing:0px;writing-mode:lr-tb;text-anchor:start;fill:#000000;fill-opacity:1;stroke:#ff0000;stroke-width:0.35433099;stroke-linecap:butt;stroke-linejoin:miter;stroke-miterlimit:4;stroke-dasharray:none;stroke-opacity:1" />
    <g
       id="text4240"
       style="font-style:normal;font-variant:normal;font-weight:normal;font-stretch:normal;font-size:50px;line-height:125%;font-family:Comfortaa;-inkscape-font-specification:'Comfortaa, Normal';text-align:start;letter-spacing:0px;word-spacing:0px;writing-mode:lr-tb;text-anchor:start;fill:#000000;fill-opacity:1;stroke:#ff0000;stroke-width:0.35433099;stroke-linecap:butt;stroke-linejoin:miter;stroke-miterlimit:4;stroke-dasharray:none;stroke-opacity:1" />
    <g
       id="text4254"
       style="font-style:normal;font-variant:normal;font-weight:normal;font-stretch:normal;font-size:50px;line-height:125%;font-family:Comfortaa;-inkscape-font-specification:'Comfortaa, Normal';text-align:start;letter-spacing:0px;word-spacing:0px;writing-mode:lr-tb;text-anchor:start;fill:#000000;fill-opacity:1;stroke:#ff0000;stroke-width:0.35433099;stroke-linecap:butt;stroke-linejoin:miter;stroke-miterlimit:4;stroke-dasharray:none;stroke-opacity:1" />
    <g
       style="stroke:#ff0000;stroke-width:0.35433099;stroke-miterlimit:4;stroke-dasharray:none;stroke-opacity:1"
       id="g6379">
      <g
         id="text5398-4"
         style="font-style:normal;font-variant:normal;font-weight:normal;font-stretch:normal;font-size:47.5px;line-height:125%;font-family:Comfortaa;-inkscape-font-specification:'Comfortaa, Normal';text-align:start;letter-spacing:0px;word-spacing:0px;writing-mode:lr-tb;text-anchor:start;fill:#000000;fill-opacity:1;stroke:#ff0000;stroke-width:0.35433099;stroke-linecap:butt;stroke-linejoin:miter;stroke-miterlimit:4;stroke-dasharray:none;stroke-opacity:1" />
    </g>
    <g
       style="stroke:#ff0000;stroke-width:0.35433099;stroke-miterlimit:4;stroke-dasharray:none;stroke-opacity:1"
       transform="translate(6.9789751,123.24321)"
       id="g5826-2">
      <g
         id="text5402-2"
         style="font-style:normal;font-variant:normal;font-weight:normal;font-stretch:normal;font-size:47.5px;line-height:125%;font-family:Comfortaa;-inkscape-font-specification:'Comfortaa, Normal';text-align:start;letter-spacing:0px;word-spacing:0px;writing-mode:lr-tb;text-anchor:start;fill:#000000;fill-opacity:1;stroke:#ff0000;stroke-width:0.35433099;stroke-linecap:butt;stroke-linejoin:miter;stroke-miterlimit:4;stroke-dasharray:none;stroke-opacity:1" />
    </g>
    <g
       style="stroke:#ff0000;stroke-width:0.35433099;stroke-miterlimit:4;stroke-dasharray:none;stroke-opacity:1"
       transform="translate(1450.9598,-255.90663)"
       id="g5831-6">
      <g
         id="text5406-2"
         style="font-style:normal;font-variant:normal;font-weight:normal;font-stretch:normal;font-size:47.5px;line-height:125%;font-family:Comfortaa;-inkscape-font-specification:'Comfortaa, Normal';text-align:start;letter-spacing:0px;word-spacing:0px;writing-mode:lr-tb;text-anchor:start;fill:#000000;fill-opacity:1;stroke:#ff0000;stroke-width:0.35433099;stroke-linecap:butt;stroke-linejoin:miter;stroke-miterlimit:4;stroke-dasharray:none;stroke-opacity:1" />
    </g>
    <g
       style="stroke:#ff0000;stroke-width:0.35433099;stroke-miterlimit:4;stroke-dasharray:none;stroke-opacity:1"
       transform="translate(928.94678,-345.38542)"
       id="g5886-5">
      <g
         id="text5410-8"
         style="font-style:normal;font-variant:normal;font-weight:normal;font-stretch:normal;font-size:47.5px;line-height:125%;font-family:Comfortaa;-inkscape-font-specification:'Comfortaa, Normal';text-align:start;letter-spacing:0px;word-spacing:0px;writing-mode:lr-tb;text-anchor:start;fill:#000000;fill-opacity:1;stroke:#ff0000;stroke-width:0.35433099;stroke-linecap:butt;stroke-linejoin:miter;stroke-miterlimit:4;stroke-dasharray:none;stroke-opacity:1" />
    </g>
    <g
       style="stroke:#ff0000;stroke-width:0.35433099;stroke-miterlimit:4;stroke-dasharray:none;stroke-opacity:1"
       transform="translate(1155.6431,-312.03878)"
       id="g5911-7">
      <g
         id="text5414-6"
         style="font-style:normal;font-variant:normal;font-weight:normal;font-stretch:normal;font-size:47.5px;line-height:125%;font-family:Comfortaa;-inkscape-font-specification:'Comfortaa, Normal';text-align:start;letter-spacing:0px;word-spacing:0px;writing-mode:lr-tb;text-anchor:start;fill:#000000;fill-opacity:1;stroke:#ff0000;stroke-width:0.35433099;stroke-linecap:butt;stroke-linejoin:miter;stroke-miterlimit:4;stroke-dasharray:none;stroke-opacity:1" />
    </g>
    <g
       style="stroke:#ff0000;stroke-width:0.35433099;stroke-miterlimit:4;stroke-dasharray:none;stroke-opacity:1"
       transform="translate(1039.533,-544.25921)"
       id="g5856-0">
      <g
         id="text5418-5"
         style="font-style:normal;font-variant:normal;font-weight:normal;font-stretch:normal;font-size:47.5px;line-height:125%;font-family:Comfortaa;-inkscape-font-specification:'Comfortaa, Normal';text-align:start;letter-spacing:0px;word-spacing:0px;writing-mode:lr-tb;text-anchor:start;fill:#000000;fill-opacity:1;stroke:#ff0000;stroke-width:0.35433099;stroke-linecap:butt;stroke-linejoin:miter;stroke-miterlimit:4;stroke-dasharray:none;stroke-opacity:1" />
    </g>
    <g
       style="stroke:#ff0000;stroke-width:0.35433099;stroke-miterlimit:4;stroke-dasharray:none;stroke-opacity:1"
       transform="translate(1045.0571,-229.27522)"
       id="g5881-3">
      <g
         id="text5422-5"
         style="font-style:normal;font-variant:normal;font-weight:normal;font-stretch:normal;font-size:47.5px;line-height:125%;font-family:Comfortaa;-inkscape-font-specification:'Comfortaa, Normal';text-align:start;letter-spacing:0px;word-spacing:0px;writing-mode:lr-tb;text-anchor:start;fill:#000000;fill-opacity:1;stroke:#ff0000;stroke-width:0.35433099;stroke-linecap:butt;stroke-linejoin:miter;stroke-miterlimit:4;stroke-dasharray:none;stroke-opacity:1" />
    </g>
    <g
       style="stroke:#ff0000;stroke-width:0.35433099;stroke-miterlimit:4;stroke-dasharray:none;stroke-opacity:1"
       transform="translate(1335.4017,-403.40473)"
       id="g5876-8">
      <g
         id="text5426-7"
         style="font-style:normal;font-variant:normal;font-weight:normal;font-stretch:normal;font-size:47.5px;line-height:125%;font-family:Comfortaa;-inkscape-font-specification:'Comfortaa, Normal';text-align:start;letter-spacing:0px;word-spacing:0px;writing-mode:lr-tb;text-anchor:start;fill:#000000;fill-opacity:1;stroke:#ff0000;stroke-width:0.35433099;stroke-linecap:butt;stroke-linejoin:miter;stroke-miterlimit:4;stroke-dasharray:none;stroke-opacity:1" />
    </g>
    <g
       style="stroke:#ff0000;stroke-width:0.35433099;stroke-miterlimit:4;stroke-dasharray:none;stroke-opacity:1"
       transform="translate(1097.588,-486.20408)"
       id="g5861-8">
      <g
         id="text5430-9"
         style="font-style:normal;font-variant:normal;font-weight:normal;font-stretch:normal;font-size:47.5px;line-height:125%;font-family:Comfortaa;-inkscape-font-specification:'Comfortaa, Normal';text-align:start;letter-spacing:0px;word-spacing:0px;writing-mode:lr-tb;text-anchor:start;fill:#000000;fill-opacity:1;stroke:#ff0000;stroke-width:0.35433099;stroke-linecap:butt;stroke-linejoin:miter;stroke-miterlimit:4;stroke-dasharray:none;stroke-opacity:1" />
    </g>
    <g
       style="stroke:#ff0000;stroke-width:0.35433099;stroke-miterlimit:4;stroke-dasharray:none;stroke-opacity:1"
       transform="translate(1504.5266,-446.88122)"
       id="g5851-7">
      <g
         id="text5434-5"
         style="font-style:normal;font-variant:normal;font-weight:normal;font-stretch:normal;font-size:47.5px;line-height:125%;font-family:Comfortaa;-inkscape-font-specification:'Comfortaa, Normal';text-align:start;letter-spacing:0px;word-spacing:0px;writing-mode:lr-tb;text-anchor:start;fill:#000000;fill-opacity:1;stroke:#ff0000;stroke-width:0.35433099;stroke-linecap:butt;stroke-linejoin:miter;stroke-miterlimit:4;stroke-dasharray:none;stroke-opacity:1" />
    </g>
    <g
       style="stroke:#ff0000;stroke-width:0.35433099;stroke-miterlimit:4;stroke-dasharray:none;stroke-opacity:1"
       transform="translate(1274.5848,-582.99379)"
       id="g5866-0">
      <g
         id="text5438-3"
         style="font-style:normal;font-variant:normal;font-weight:normal;font-stretch:normal;font-size:47.5px;line-height:125%;font-family:Comfortaa;-inkscape-font-specification:'Comfortaa, Normal';text-align:start;letter-spacing:0px;word-spacing:0px;writing-mode:lr-tb;text-anchor:start;fill:#000000;fill-opacity:1;stroke:#ff0000;stroke-width:0.35433099;stroke-linecap:butt;stroke-linejoin:miter;stroke-miterlimit:4;stroke-dasharray:none;stroke-opacity:1" />
    </g>
    <g
       style="stroke:#ff0000;stroke-width:0.35433099;stroke-miterlimit:4;stroke-dasharray:none;stroke-opacity:1"
       transform="translate(1158.4052,-350.80911)"
       id="g5901-0">
      <g
         id="text5442-7"
         style="font-style:normal;font-variant:normal;font-weight:normal;font-stretch:normal;font-size:47.5px;line-height:125%;font-family:Comfortaa;-inkscape-font-specification:'Comfortaa, Normal';text-align:start;letter-spacing:0px;word-spacing:0px;writing-mode:lr-tb;text-anchor:start;fill:#000000;fill-opacity:1;stroke:#ff0000;stroke-width:0.35433099;stroke-linecap:butt;stroke-linejoin:miter;stroke-miterlimit:4;stroke-dasharray:none;stroke-opacity:1" />
    </g>
    <g
       style="stroke:#ff0000;stroke-width:0.35433099;stroke-miterlimit:4;stroke-dasharray:none;stroke-opacity:1"
       transform="translate(1040.1543,-679.06585)"
       id="g5846-6">
      <g
         id="text5446-4"
         style="font-style:normal;font-variant:normal;font-weight:normal;font-stretch:normal;font-size:47.5px;line-height:125%;font-family:Comfortaa;-inkscape-font-specification:'Comfortaa, Normal';text-align:start;letter-spacing:0px;word-spacing:0px;writing-mode:lr-tb;text-anchor:start;fill:#000000;fill-opacity:1;stroke:#ff0000;stroke-width:0.35433099;stroke-linecap:butt;stroke-linejoin:miter;stroke-miterlimit:4;stroke-dasharray:none;stroke-opacity:1" />
    </g>
    <g
       style="stroke:#ff0000;stroke-width:0.35433099;stroke-miterlimit:4;stroke-dasharray:none;stroke-opacity:1"
       transform="translate(1158.4052,-292.75404)"
       id="g5906-3">
      <g
         id="text5450-3"
         style="font-style:normal;font-variant:normal;font-weight:normal;font-stretch:normal;font-size:47.5px;line-height:125%;font-family:Comfortaa;-inkscape-font-specification:'Comfortaa, Normal';text-align:start;letter-spacing:0px;word-spacing:0px;writing-mode:lr-tb;text-anchor:start;fill:#000000;fill-opacity:1;stroke:#ff0000;stroke-width:0.35433099;stroke-linecap:butt;stroke-linejoin:miter;stroke-miterlimit:4;stroke-dasharray:none;stroke-opacity:1" />
    </g>
    <g
       style="stroke:#ff0000;stroke-width:0.35433099;stroke-miterlimit:4;stroke-dasharray:none;stroke-opacity:1"
       transform="translate(868.12957,-118.58869)"
       id="g5891-3">
      <g
         id="text5454-7"
         style="font-style:normal;font-variant:normal;font-weight:normal;font-stretch:normal;font-size:47.5px;line-height:125%;font-family:Comfortaa;-inkscape-font-specification:'Comfortaa, Normal';text-align:start;letter-spacing:0px;word-spacing:0px;writing-mode:lr-tb;text-anchor:start;fill:#000000;fill-opacity:1;stroke:#ff0000;stroke-width:0.35433099;stroke-linecap:butt;stroke-linejoin:miter;stroke-miterlimit:4;stroke-dasharray:none;stroke-opacity:1" />
    </g>
    <g
       style="stroke:#ff0000;stroke-width:0.35433099;stroke-miterlimit:4;stroke-dasharray:none;stroke-opacity:1"
       transform="translate(1332.5707,-118.58869)"
       id="g5896-3">
      <g
         id="text5458-3"
         style="font-style:normal;font-variant:normal;font-weight:normal;font-stretch:normal;font-size:47.5px;line-height:125%;font-family:Comfortaa;-inkscape-font-specification:'Comfortaa, Normal';text-align:start;letter-spacing:0px;word-spacing:0px;writing-mode:lr-tb;text-anchor:start;fill:#000000;fill-opacity:1;stroke:#ff0000;stroke-width:0.35433099;stroke-linecap:butt;stroke-linejoin:miter;stroke-miterlimit:4;stroke-dasharray:none;stroke-opacity:1" />
    </g>
    <g
       style="stroke:#ff0000;stroke-width:0.35433099;stroke-miterlimit:4;stroke-dasharray:none;stroke-opacity:1"
       transform="translate(1213.6983,-149.17322)"
       id="g5963-9">
      <g
         id="text5462-6"
         style="font-style:normal;font-variant:normal;font-weight:normal;font-stretch:normal;font-size:47.5px;line-height:125%;font-family:Comfortaa;-inkscape-font-specification:'Comfortaa, Normal';text-align:start;letter-spacing:0px;word-spacing:0px;writing-mode:lr-tb;text-anchor:start;fill:#000000;fill-opacity:1;stroke:#ff0000;stroke-width:0.35433099;stroke-linecap:butt;stroke-linejoin:miter;stroke-miterlimit:4;stroke-dasharray:none;stroke-opacity:1" />
    </g>
    <g
       style="stroke:#ff0000;stroke-width:0.35433099;stroke-miterlimit:4;stroke-dasharray:none;stroke-opacity:1"
       transform="translate(1329.8087,-33.062993)"
       id="g5968-3">
      <g
         id="text5466-3"
         style="font-style:normal;font-variant:normal;font-weight:normal;font-stretch:normal;font-size:47.5px;line-height:125%;font-family:Comfortaa;-inkscape-font-specification:'Comfortaa, Normal';text-align:start;letter-spacing:0px;word-spacing:0px;writing-mode:lr-tb;text-anchor:start;fill:#000000;fill-opacity:1;stroke:#ff0000;stroke-width:0.35433099;stroke-linecap:butt;stroke-linejoin:miter;stroke-miterlimit:4;stroke-dasharray:none;stroke-opacity:1" />
    </g>
    <g
       style="stroke:#ff0000;stroke-width:0.35433099;stroke-miterlimit:4;stroke-dasharray:none;stroke-opacity:1"
       transform="translate(1276.7254,-139.83217)"
       id="g5836-2">
      <g
         id="text5470-1"
         style="font-style:normal;font-variant:normal;font-weight:normal;font-stretch:normal;font-size:47.5px;line-height:125%;font-family:Comfortaa;-inkscape-font-specification:'Comfortaa, Normal';text-align:start;letter-spacing:0px;word-spacing:0px;writing-mode:lr-tb;text-anchor:start;fill:#000000;fill-opacity:1;stroke:#ff0000;stroke-width:0.35433099;stroke-linecap:butt;stroke-linejoin:miter;stroke-miterlimit:4;stroke-dasharray:none;stroke-opacity:1" />
    </g>
    <g
       style="stroke:#ff0000;stroke-width:0.35433099;stroke-miterlimit:4;stroke-dasharray:none;stroke-opacity:1"
       transform="translate(1103.8158,225.57323)"
       id="g5871-2">
      <g
         id="text5474-3"
         style="font-style:normal;font-variant:normal;font-weight:normal;font-stretch:normal;font-size:47.5px;line-height:125%;font-family:Comfortaa;-inkscape-font-specification:'Comfortaa, Normal';text-align:start;letter-spacing:0px;word-spacing:0px;writing-mode:lr-tb;text-anchor:start;fill:#000000;fill-opacity:1;stroke:#ff0000;stroke-width:0.35433099;stroke-linecap:butt;stroke-linejoin:miter;stroke-miterlimit:4;stroke-dasharray:none;stroke-opacity:1" />
    </g>
    <g
       style="stroke:#ff0000;stroke-width:0.35433099;stroke-miterlimit:4;stroke-dasharray:none;stroke-opacity:1"
       transform="translate(1158.7567,282.7245)"
       id="g5958-4">
      <g
         id="text5478-7"
         style="font-style:normal;font-variant:normal;font-weight:normal;font-stretch:normal;font-size:47.5px;line-height:125%;font-family:Comfortaa;-inkscape-font-specification:'Comfortaa, Normal';text-align:start;letter-spacing:0px;word-spacing:0px;writing-mode:lr-tb;text-anchor:start;fill:#000000;fill-opacity:1;stroke:#ff0000;stroke-width:0.35433099;stroke-linecap:butt;stroke-linejoin:miter;stroke-miterlimit:4;stroke-dasharray:none;stroke-opacity:1" />
    </g>
    <g
       style="stroke:#ff0000;stroke-width:0.35433099;stroke-miterlimit:4;stroke-dasharray:none;stroke-opacity:1"
       id="g6008-2"
       transform="translate(647.14097,0.76372421)">
      <g
         style="stroke:#ff0000;stroke-width:0.35433099;stroke-miterlimit:4;stroke-dasharray:none;stroke-opacity:1"
         id="g5841-0"
         transform="translate(627.92688,12.476621)">
        <g
           id="text5394-5"
           style="font-style:normal;font-variant:normal;font-weight:normal;font-stretch:normal;font-size:47.5px;line-height:125%;font-family:Comfortaa;-inkscape-font-specification:'Comfortaa, Normal';text-align:start;letter-spacing:0px;word-spacing:0px;writing-mode:lr-tb;text-anchor:start;fill:#000000;fill-opacity:1;stroke:#ff0000;stroke-width:0.35433099;stroke-linecap:butt;stroke-linejoin:miter;stroke-miterlimit:4;stroke-dasharray:none;stroke-opacity:1" />
      </g>
    </g>
    <g
       style="stroke:#ff0000;stroke-width:0.35433099;stroke-miterlimit:4;stroke-dasharray:none;stroke-opacity:1"
       transform="translate(1157.0941,70.149224)"
       id="g5973-1">
      <g
         id="text5478-8-4"
         style="font-style:normal;font-variant:normal;font-weight:normal;font-stretch:normal;font-size:47.5px;line-height:125%;font-family:Comfortaa;-inkscape-font-specification:'Comfortaa, Normal';text-align:start;letter-spacing:0px;word-spacing:0px;writing-mode:lr-tb;text-anchor:start;fill:#000000;fill-opacity:1;stroke:#ff0000;stroke-width:0.35433099;stroke-linecap:butt;stroke-linejoin:miter;stroke-miterlimit:4;stroke-dasharray:none;stroke-opacity:1" />
    </g>
    <g
       style="stroke:#ff0000;stroke-width:0.35433099;stroke-miterlimit:4;stroke-dasharray:none;stroke-opacity:1"
       id="g4957"
       transform="translate(554.14488,-400.8812)" />
    <g
       style="stroke:#ff0000;stroke-width:0.35433099;stroke-miterlimit:4;stroke-dasharray:none;stroke-opacity:1"
       id="g4953"
       transform="translate(7.5366228,-957.14423)" />
    <g
       style="stroke:#ff0000;stroke-width:0.35433099;stroke-miterlimit:4;stroke-dasharray:none;stroke-opacity:1"
       id="g4949-5"
       transform="translate(0.45000038,463.72274)" />
    <g
       style="stroke:#ff0000;stroke-width:0.35433099;stroke-miterlimit:4;stroke-dasharray:none;stroke-opacity:1"
       id="g4365-6-9"
       transform="matrix(-1,0,0,1,-1428.1688,-1527.7859)" />
    <path
       id="path3739-4"
       d="M 276.55473,993.71945 H 311.98748 V 1009.6642 H 276.55473 Z"
       style="display:inline;opacity:1;fill:none;fill-opacity:0.07058818;fill-rule:nonzero;stroke:#ff0000;stroke-width:0.35433099;stroke-linecap:butt;stroke-linejoin:miter;stroke-miterlimit:4;stroke-dasharray:none;stroke-opacity:1"
       inkscape:connector-curvature="0"
       sodipodi:nodetypes="ccccc" />
    <g
       style="display:inline;stroke:#ff0000;stroke-width:0.35429701;stroke-miterlimit:4;stroke-dasharray:none;stroke-opacity:1"
       id="g4969-9-3"
       transform="matrix(0,1.000188,-1.0000001,0,730.09914,488.79714)">
      <path
         sodipodi:nodetypes="ccccccccccccccccccccccccccccccccccccccccccccccccccccccccccccccccccccccccccccccccccccccccccccccccccccccccccccccccccccccccccccccc"
         inkscape:connector-curvature="0"
         id="polygon4967-8-8"
         d="M 416.33765,0 V 10.62993 H 448.22745 V 0 Z M 384.44786,198.42536 V 187.79543 H 352.55807 V 198.42536 M 320.66828,198.42536 V 187.79543 H 288.77849 V 198.42536 H 256.8887 V 187.79543 H 224.99891 V 198.42536 H 129.32955 V 187.79543 H 97.439763 V 198.42536 H 55.805871 V 187.79543 H 17.716545 V 156.79147 H 7.0866148 M 139.93754,198.42536 V 209.05463 H 18.601703 V 198.42536 H -24.797118 V 247.14607 H -14.168016 V 288.77875 H -24.797118 V 320.67023 H -14.168016 V 416.33917 H -24.797118 V 512.0081 H -14.168016 V 607.67704 H -24.797118 V 639.56669 H -14.168016 V 681.20121 H -24.797118 V 729.9219 H 18.601703 V 719.2908 H 139.93754 V 729.9219 H 221.41696 V 719.2908 H 317.0679 V 729.9219 H 398.55098 V 719.2908 H 519.88492 V 729.9219 H 563.28196 V 681.20121 H 552.65466 V 639.56669 H 563.28196 V 607.67704 H 552.65466 V 512.0081 H 563.28196 V 416.33917 H 552.65466 V 320.67023 H 563.28196 V 288.77875 H 552.65466 V 247.14607 H 563.28196 V 198.42536 H 519.88492 V 209.05463 H 398.55098 V 198.42536 M 193.10912,198.42536 V 187.79543 H 161.21934 V 198.42536 M 7.0866148,115.15758 H 17.716545 V 83.267785 H 7.0866148 M 7.0866148,41.633893 H 17.716545 V 10.62993 H 55.805871 V -10.629536 H 489.86134 V 10.62993 H 527.95275 V 41.633893 H 538.58268 V 83.267785 H 527.95275 V 115.15758 H 538.58268 V 156.79147 H 527.95275 V 187.79543 H 489.86134 V 198.42536 H 448.22745 V 187.79543 H 416.33765 V 198.42536 L 317.0679,198.42536 V 209.05463 H 221.41696 V 198.42536 M 97.439763,0 V 10.62993 H 129.32955 V 0 Z M 224.99891,0 V 10.62993 H 320.66828 V 0 Z"
         style="fill:none;stroke:#ff0000;stroke-width:0.35429701;stroke-miterlimit:4;stroke-dasharray:none;stroke-opacity:1" />
    </g>
    <path
       sodipodi:nodetypes="cccccccccccccccccccccccccccccccccccccccccccccccccccccccccccccccccccccccccccccccccccccccccccccccccccccccccccc"
       inkscape:connector-curvature="0"
       id="path2246"
       d="M 761.98628,586.2554 H 772.61738 V 618.14871 H 761.98628 M 761.98428,618.14871 V 625.23862 H 751.35318 V 618.14871 H 747.63798 C 743.82198,618.14871 740.72848,621.24221 740.72848,625.05821 M 740.72848,706.92653 C 740.72848,710.74253 743.82198,713.83602 747.63798,713.83602 H 751.35318 V 706.75163 H 761.98428 V 713.83602 H 772.61718 V 809.52694 H 761.98428 V 816.61313 H 751.35318 V 809.52694 H 747.63798 C 743.82198,809.52694 740.72848,812.62043 740.72848,816.43632 M 740.72848,898.30474 C 740.72848,902.12074 743.82198,905.21414 747.63798,905.21414 H 751.35318 V 898.12614 H 761.98428 V 905.21414 H 772.61718 V 937.10745 H 761.98428 V 944.19555 H 751.35318 V 937.10745 H 747.63798 C 743.82198,937.10745 740.72848,940.20094 740.72848,944.01694 M 740.72848,971.84178 C 740.72848,975.6578 743.82198,978.75121 747.63798,978.75121 H 772.61718 V 1016.8481 H 803.62058 V 1027.4811 H 845.25328 V 1016.8481 H 877.1448 V 1027.4811 H 918.77749 V 1016.8481 H 949.7827 V 978.75121 H 960.412 V 937.10935 H 949.7827 V 905.21234 H 960.412 V 873.31723 H 949.7827 V 841.42204 H 960.412 V 809.52514 H 949.7827 V 777.62993 H 960.412 V 745.73483 H 949.7827 V 713.83782 H 960.412 V 681.94271 H 949.7827 V 650.04571 H 960.412 V 618.15051 H 949.7827 V 586.2554 H 960.412 V 544.61355 H 949.7827 V 506.51662 H 918.77749 V 495.88552 M 877.1448,495.88552 V 506.51662 H 845.25328 V 495.88552 M 803.62058,495.88552 V 506.51662 H 772.61718 V 544.61355 H 747.63798 C 743.82198,544.61355 740.72848,547.70702 740.72848,551.523 M 740.72848,579.34594 C 740.72848,583.16191 743.82198,586.2554 747.63798,586.2554 H 751.35318 V 579.16739 H 761.98428 V 586.2554 M 751.35318,873.31723 V 841.42204 H 761.98428 V 873.31723 Z M 751.35318,681.94271 V 650.04571 H 761.98428 V 681.94271 Z"
       style="display:inline;fill:none;stroke:#ff0000;stroke-width:0.35433102;stroke-miterlimit:4;stroke-dasharray:none;stroke-opacity:1" />
    <path
       inkscape:connector-curvature="0"
       style="display:inline;opacity:1;fill:none;fill-opacity:1;fill-rule:nonzero;stroke:#ff0000;stroke-width:0.35433102;stroke-linecap:butt;stroke-linejoin:miter;stroke-miterlimit:4;stroke-dasharray:none;stroke-dashoffset:0;stroke-opacity:1;paint-order:normal"
       d="M 835.9148,495.88512 C 834.05573,495.88512 832.54866,494.37805 832.54866,492.51898 V 485.2531 H 808.80257 V 492.51898 C 808.80257,494.37805 807.2955,495.88512 805.43644,495.88512 M 700.89012,495.88512 C 699.03105,495.88512 697.52397,494.37805 697.52397,492.51898 V 485.2531 H 673.77792 V 492.51898 C 673.77791,494.37805 672.27083,495.88512 670.41177,495.88512 M 644.54025,495.88512 C 642.68118,495.88512 641.1741,494.37805 641.1741,492.51898 V 485.2531 H 617.42803 V 492.51898 C 617.42803,494.37805 615.92096,495.88512 614.06189,495.88512 M 573.30768,495.88512 C 571.44861,495.88512 569.94154,494.37805 569.94154,492.51898 V 485.2531 L 536.09441,485.255 V 470.9032 C 536.09441,467.0872 539.18883,463.9946 543.00482,463.9946 H 963.32349 C 967.13945,463.9946 970.23205,467.0872 970.23205,470.9032 V 485.255 L 936.38681,485.2531 V 492.51898 C 936.38681,494.37805 934.87975,495.88512 933.02067,495.88512 Z M 892.26463,495.88512 C 890.40556,495.88512 888.89849,494.37805 888.89849,492.51898 V 485.2531 H 865.1543 V 492.51898 C 865.1543,494.37805 863.64723,495.88512 861.78816,495.88512"
       id="path2457-7"
       sodipodi:nodetypes="ccccccccccccccccccccccssssccccccccccc" />
  </g>
  <g
     transform="translate(1.333691e-7,-899.6442)"
     style="display:inline"
     inkscape:label="engrave"
     id="layer2"
     inkscape:groupmode="layer" />
</svg>
