<?xml version="1.0" encoding="UTF-8" standalone="no"?>
<svg
   xmlns:dc="http://purl.org/dc/elements/1.1/"
   xmlns:cc="http://creativecommons.org/ns#"
   xmlns:rdf="http://www.w3.org/1999/02/22-rdf-syntax-ns#"
   xmlns:svg="http://www.w3.org/2000/svg"
   xmlns="http://www.w3.org/2000/svg"
   xmlns:sodipodi="http://sodipodi.sourceforge.net/DTD/sodipodi-0.dtd"
   xmlns:inkscape="http://www.inkscape.org/namespaces/inkscape"
   width="297mm"
   height="210mm"
   viewBox="0 0 1052.3622 744.0945"
   id="svg2"
   version="1.1"
   inkscape:version="1.0.1 (3bc2e813f5, 2020-09-07)"
   sodipodi:docname="gouge-box.svg">
  <defs
     id="defs4" />
  <sodipodi:namedview
     id="base"
     pagecolor="#ffffff"
     bordercolor="#666666"
     borderopacity="1.0"
     inkscape:pageopacity="0.0"
     inkscape:pageshadow="2"
     inkscape:zoom="7.6589966"
     inkscape:cx="541.26229"
     inkscape:cy="171.4503"
     inkscape:document-units="mm"
     inkscape:current-layer="layer1"
     showgrid="false"
     inkscape:snap-bbox="true"
     inkscape:bbox-paths="true"
     inkscape:bbox-nodes="true"
     inkscape:snap-bbox-edge-midpoints="true"
     inkscape:snap-bbox-midpoints="true"
     inkscape:object-paths="true"
     inkscape:snap-intersection-paths="true"
     inkscape:object-nodes="true"
     inkscape:snap-smooth-nodes="true"
     inkscape:snap-midpoints="true"
     inkscape:snap-object-midpoints="true"
     inkscape:snap-center="true"
     inkscape:snap-text-baseline="true"
     inkscape:window-width="1920"
     inkscape:window-height="1016"
     inkscape:window-x="0"
     inkscape:window-y="0"
     inkscape:window-maximized="1"
     inkscape:measure-start="295.302,45.857"
     inkscape:measure-end="295.571,34.7057"
     showguides="true"
     inkscape:document-rotation="0" />
  <metadata
     id="metadata7">
    <rdf:RDF>
      <cc:Work
         rdf:about="">
        <dc:format>image/svg+xml</dc:format>
        <dc:type
           rdf:resource="http://purl.org/dc/dcmitype/StillImage" />
        <dc:title />
      </cc:Work>
    </rdf:RDF>
  </metadata>
  <g
     inkscape:label="cut in wood 3mm"
     inkscape:groupmode="layer"
     id="layer1"
     transform="translate(0,-308.26772)"
     style="display:inline">
    <path
       style="opacity:1;fill:none;fill-opacity:0.07058824;fill-rule:nonzero;stroke:#000000;stroke-width:0.37795275;stroke-linecap:butt;stroke-linejoin:miter;stroke-miterlimit:4;stroke-dasharray:none;stroke-opacity:1"
       d="M 0.5 165.79688 L 0.5 212.09766 L 11.839844 212.09766 L 11.839844 341.54688 L 0.5 341.54688 L 0.5 428.47461 L 11.839844 428.47461 L 11.839844 530.52148 L 0.5 530.52148 L 0.5 617.45312 L 11.839844 617.45312 L 11.839844 746.90039 L 0.5 746.90039 L 0.5 793.19922 L 52.46875 793.19922 L 52.46875 781.86133 L 96.878906 781.86133 L 96.878906 793.19922 L 130.89453 793.19922 L 130.89453 781.86133 L 232.94141 781.86133 L 232.94141 793.19922 L 334.98828 793.19922 L 334.98828 781.86133 L 437.03516 781.86133 L 437.03516 793.19922 L 471.05273 793.19922 L 471.05273 781.86133 L 515.46094 781.86133 L 515.46094 793.19922 L 567.42969 793.19922 L 567.42969 746.90039 L 556.0918 746.90039 L 556.0918 617.45312 L 567.42969 617.45312 L 567.42969 530.52148 L 556.0918 530.52148 L 556.0918 428.47461 L 567.42969 428.47461 L 567.42969 341.54688 L 556.0918 341.54688 L 556.0918 212.09766 L 567.42969 212.09766 L 567.42969 165.79688 L 515.46094 165.79688 L 515.46094 177.13672 L 471.05273 177.13672 L 471.05273 165.79688 L 437.03516 165.79688 L 437.03516 177.13672 L 334.98828 177.13672 L 334.98828 165.79688 L 232.94141 165.79688 L 232.94141 177.13672 L 130.89453 177.13672 L 130.89453 165.79688 L 96.878906 165.79688 L 96.878906 177.13672 L 52.46875 177.13672 L 52.46875 165.79688 L 0.5 165.79688 z M 295.30273 730.83594 L 333.09766 730.83594 L 333.09766 747.84375 L 295.30273 747.84375 L 295.30273 730.83594 z "
       transform="matrix(0.93750001,0,0,0.93750001,0,308.26772)"
       id="path3739" />
    <g
       style="font-style:normal;font-variant:normal;font-weight:normal;font-stretch:normal;font-size:50px;line-height:125%;font-family:Comfortaa;-inkscape-font-specification:'Comfortaa, Normal';text-align:start;letter-spacing:0px;word-spacing:0px;writing-mode:lr-tb;text-anchor:start;fill:#000000;fill-opacity:1;stroke:none;stroke-width:0.35433072;stroke-linecap:butt;stroke-linejoin:miter;stroke-opacity:1;stroke-miterlimit:4;stroke-dasharray:none"
       id="text4140" />
    <g
       style="font-style:normal;font-variant:normal;font-weight:normal;font-stretch:normal;font-size:50px;line-height:125%;font-family:Comfortaa;-inkscape-font-specification:'Comfortaa, Normal';text-align:start;letter-spacing:0px;word-spacing:0px;writing-mode:lr-tb;text-anchor:start;fill:#000000;fill-opacity:1;stroke:none;stroke-width:0.35433072;stroke-linecap:butt;stroke-linejoin:miter;stroke-opacity:1;stroke-miterlimit:4;stroke-dasharray:none"
       id="text4144" />
    <g
       style="font-style:normal;font-variant:normal;font-weight:normal;font-stretch:normal;font-size:50px;line-height:125%;font-family:Comfortaa;-inkscape-font-specification:'Comfortaa, Normal';text-align:start;letter-spacing:0px;word-spacing:0px;writing-mode:lr-tb;text-anchor:start;fill:#000000;fill-opacity:1;stroke:none;stroke-width:0.35433072;stroke-linecap:butt;stroke-linejoin:miter;stroke-opacity:1;stroke-miterlimit:4;stroke-dasharray:none"
       id="text4156" />
    <g
       style="font-style:normal;font-variant:normal;font-weight:normal;font-stretch:normal;font-size:50px;line-height:125%;font-family:Comfortaa;-inkscape-font-specification:'Comfortaa, Normal';text-align:start;letter-spacing:0px;word-spacing:0px;writing-mode:lr-tb;text-anchor:start;fill:#000000;fill-opacity:1;stroke:none;stroke-width:0.35433072;stroke-linecap:butt;stroke-linejoin:miter;stroke-opacity:1;stroke-miterlimit:4;stroke-dasharray:none"
       id="text4164" />
    <g
       style="font-style:normal;font-variant:normal;font-weight:normal;font-stretch:normal;font-size:50px;line-height:125%;font-family:Comfortaa;-inkscape-font-specification:'Comfortaa, Normal';text-align:start;letter-spacing:0px;word-spacing:0px;writing-mode:lr-tb;text-anchor:start;fill:#000000;fill-opacity:1;stroke:none;stroke-width:0.35433072;stroke-linecap:butt;stroke-linejoin:miter;stroke-opacity:1;stroke-miterlimit:4;stroke-dasharray:none"
       id="text4168" />
    <g
       style="font-style:normal;font-variant:normal;font-weight:normal;font-stretch:normal;font-size:50px;line-height:125%;font-family:Comfortaa;-inkscape-font-specification:'Comfortaa, Normal';text-align:start;letter-spacing:0px;word-spacing:0px;writing-mode:lr-tb;text-anchor:start;fill:#000000;fill-opacity:1;stroke:none;stroke-width:0.35433072;stroke-linecap:butt;stroke-linejoin:miter;stroke-opacity:1;stroke-miterlimit:4;stroke-dasharray:none"
       id="text4172" />
    <g
       style="font-style:normal;font-variant:normal;font-weight:normal;font-stretch:normal;font-size:50px;line-height:125%;font-family:Comfortaa;-inkscape-font-specification:'Comfortaa, Normal';text-align:start;letter-spacing:0px;word-spacing:0px;writing-mode:lr-tb;text-anchor:start;fill:#000000;fill-opacity:1;stroke:none;stroke-width:0.35433072;stroke-linecap:butt;stroke-linejoin:miter;stroke-opacity:1;stroke-miterlimit:4;stroke-dasharray:none"
       id="text4176" />
    <g
       style="font-style:normal;font-variant:normal;font-weight:normal;font-stretch:normal;font-size:50px;line-height:125%;font-family:Comfortaa;-inkscape-font-specification:'Comfortaa, Normal';text-align:start;letter-spacing:0px;word-spacing:0px;writing-mode:lr-tb;text-anchor:start;fill:#000000;fill-opacity:1;stroke:none;stroke-width:0.35433072;stroke-linecap:butt;stroke-linejoin:miter;stroke-opacity:1;stroke-miterlimit:4;stroke-dasharray:none"
       id="text4180" />
    <g
       style="font-style:normal;font-variant:normal;font-weight:normal;font-stretch:normal;font-size:50px;line-height:125%;font-family:Comfortaa;-inkscape-font-specification:'Comfortaa, Normal';text-align:start;letter-spacing:0px;word-spacing:0px;writing-mode:lr-tb;text-anchor:start;fill:#000000;fill-opacity:1;stroke:none;stroke-width:0.35433072;stroke-linecap:butt;stroke-linejoin:miter;stroke-opacity:1;stroke-miterlimit:4;stroke-dasharray:none"
       id="text4184" />
    <g
       style="font-style:normal;font-variant:normal;font-weight:normal;font-stretch:normal;font-size:50px;line-height:125%;font-family:Comfortaa;-inkscape-font-specification:'Comfortaa, Normal';text-align:start;letter-spacing:0px;word-spacing:0px;writing-mode:lr-tb;text-anchor:start;fill:#000000;fill-opacity:1;stroke:none;stroke-width:0.35433072;stroke-linecap:butt;stroke-linejoin:miter;stroke-opacity:1;stroke-miterlimit:4;stroke-dasharray:none"
       id="text4188" />
    <g
       style="font-style:normal;font-variant:normal;font-weight:normal;font-stretch:normal;font-size:50px;line-height:125%;font-family:Comfortaa;-inkscape-font-specification:'Comfortaa, Normal';text-align:start;letter-spacing:0px;word-spacing:0px;writing-mode:lr-tb;text-anchor:start;fill:#000000;fill-opacity:1;stroke:none;stroke-width:0.35433072;stroke-linecap:butt;stroke-linejoin:miter;stroke-opacity:1;stroke-miterlimit:4;stroke-dasharray:none"
       id="text4192" />
    <g
       style="font-style:normal;font-variant:normal;font-weight:normal;font-stretch:normal;font-size:50px;line-height:125%;font-family:Comfortaa;-inkscape-font-specification:'Comfortaa, Normal';text-align:start;letter-spacing:0px;word-spacing:0px;writing-mode:lr-tb;text-anchor:start;fill:#000000;fill-opacity:1;stroke:none;stroke-width:0.35433072;stroke-linecap:butt;stroke-linejoin:miter;stroke-opacity:1;stroke-miterlimit:4;stroke-dasharray:none"
       id="text4200" />
    <g
       style="font-style:normal;font-variant:normal;font-weight:normal;font-stretch:normal;font-size:50px;line-height:125%;font-family:Comfortaa;-inkscape-font-specification:'Comfortaa, Normal';text-align:start;letter-spacing:0px;word-spacing:0px;writing-mode:lr-tb;text-anchor:start;fill:#000000;fill-opacity:1;stroke:none;stroke-width:0.35433072;stroke-linecap:butt;stroke-linejoin:miter;stroke-opacity:1;stroke-miterlimit:4;stroke-dasharray:none"
       id="text4208" />
    <g
       style="font-style:normal;font-variant:normal;font-weight:normal;font-stretch:normal;font-size:50px;line-height:125%;font-family:Comfortaa;-inkscape-font-specification:'Comfortaa, Normal';text-align:start;letter-spacing:0px;word-spacing:0px;writing-mode:lr-tb;text-anchor:start;fill:#000000;fill-opacity:1;stroke:none;stroke-width:0.35433072;stroke-linecap:butt;stroke-linejoin:miter;stroke-opacity:1;stroke-miterlimit:4;stroke-dasharray:none"
       id="text4212" />
    <g
       style="font-style:normal;font-variant:normal;font-weight:normal;font-stretch:normal;font-size:50px;line-height:125%;font-family:Comfortaa;-inkscape-font-specification:'Comfortaa, Normal';text-align:start;letter-spacing:0px;word-spacing:0px;writing-mode:lr-tb;text-anchor:start;fill:#000000;fill-opacity:1;stroke:none;stroke-width:0.35433072;stroke-linecap:butt;stroke-linejoin:miter;stroke-opacity:1;stroke-miterlimit:4;stroke-dasharray:none"
       id="text4216" />
    <g
       style="font-style:normal;font-variant:normal;font-weight:normal;font-stretch:normal;font-size:50px;line-height:125%;font-family:Comfortaa;-inkscape-font-specification:'Comfortaa, Normal';text-align:start;letter-spacing:0px;word-spacing:0px;writing-mode:lr-tb;text-anchor:start;fill:#000000;fill-opacity:1;stroke:none;stroke-width:0.35433072;stroke-linecap:butt;stroke-linejoin:miter;stroke-opacity:1;stroke-miterlimit:4;stroke-dasharray:none"
       id="text4220" />
    <g
       style="font-style:normal;font-variant:normal;font-weight:normal;font-stretch:normal;font-size:50px;line-height:125%;font-family:Comfortaa;-inkscape-font-specification:'Comfortaa, Normal';text-align:start;letter-spacing:0px;word-spacing:0px;writing-mode:lr-tb;text-anchor:start;fill:#000000;fill-opacity:1;stroke:none;stroke-width:0.35433072;stroke-linecap:butt;stroke-linejoin:miter;stroke-opacity:1;stroke-miterlimit:4;stroke-dasharray:none"
       id="text4224" />
    <g
       style="font-style:normal;font-variant:normal;font-weight:normal;font-stretch:normal;font-size:50px;line-height:125%;font-family:Comfortaa;-inkscape-font-specification:'Comfortaa, Normal';text-align:start;letter-spacing:0px;word-spacing:0px;writing-mode:lr-tb;text-anchor:start;fill:#000000;fill-opacity:1;stroke:none;stroke-width:0.35433072;stroke-linecap:butt;stroke-linejoin:miter;stroke-opacity:1;stroke-miterlimit:4;stroke-dasharray:none"
       id="text4228" />
    <g
       style="font-style:normal;font-variant:normal;font-weight:normal;font-stretch:normal;font-size:50px;line-height:125%;font-family:Comfortaa;-inkscape-font-specification:'Comfortaa, Normal';text-align:start;letter-spacing:0px;word-spacing:0px;writing-mode:lr-tb;text-anchor:start;fill:#000000;fill-opacity:1;stroke:none;stroke-width:0.35433072;stroke-linecap:butt;stroke-linejoin:miter;stroke-opacity:1;stroke-miterlimit:4;stroke-dasharray:none"
       id="text4232" />
    <g
       style="font-style:normal;font-variant:normal;font-weight:normal;font-stretch:normal;font-size:50px;line-height:125%;font-family:Comfortaa;-inkscape-font-specification:'Comfortaa, Normal';text-align:start;letter-spacing:0px;word-spacing:0px;writing-mode:lr-tb;text-anchor:start;fill:#000000;fill-opacity:1;stroke:none;stroke-width:0.35433072;stroke-linecap:butt;stroke-linejoin:miter;stroke-opacity:1;stroke-miterlimit:4;stroke-dasharray:none"
       id="text4236" />
    <g
       style="font-style:normal;font-variant:normal;font-weight:normal;font-stretch:normal;font-size:50px;line-height:125%;font-family:Comfortaa;-inkscape-font-specification:'Comfortaa, Normal';text-align:start;letter-spacing:0px;word-spacing:0px;writing-mode:lr-tb;text-anchor:start;fill:#000000;fill-opacity:1;stroke:none;stroke-width:0.35433072;stroke-linecap:butt;stroke-linejoin:miter;stroke-opacity:1;stroke-miterlimit:4;stroke-dasharray:none"
       id="text4240" />
    <g
       style="font-style:normal;font-variant:normal;font-weight:normal;font-stretch:normal;font-size:50px;line-height:125%;font-family:Comfortaa;-inkscape-font-specification:'Comfortaa, Normal';text-align:start;letter-spacing:0px;word-spacing:0px;writing-mode:lr-tb;text-anchor:start;fill:#000000;fill-opacity:1;stroke:none;stroke-width:0.35433072;stroke-linecap:butt;stroke-linejoin:miter;stroke-opacity:1;stroke-miterlimit:4;stroke-dasharray:none"
       id="text4254" />
    <g
       id="g6379"
       style="stroke-width:0.35433072;stroke-miterlimit:4;stroke-dasharray:none">
      <g
         style="font-style:normal;font-variant:normal;font-weight:normal;font-stretch:normal;font-size:47.5px;line-height:125%;font-family:Comfortaa;-inkscape-font-specification:'Comfortaa, Normal';text-align:start;letter-spacing:0px;word-spacing:0px;writing-mode:lr-tb;text-anchor:start;fill:#000000;fill-opacity:1;stroke:none;stroke-width:0.35433072;stroke-linecap:butt;stroke-linejoin:miter;stroke-opacity:1;stroke-miterlimit:4;stroke-dasharray:none"
         id="text5398-4" />
    </g>
    <g
       id="g5826-2"
       transform="translate(6.9789751,123.24321)"
       style="stroke-width:0.35433072;stroke-miterlimit:4;stroke-dasharray:none">
      <g
         style="font-style:normal;font-variant:normal;font-weight:normal;font-stretch:normal;font-size:47.5px;line-height:125%;font-family:Comfortaa;-inkscape-font-specification:'Comfortaa, Normal';text-align:start;letter-spacing:0px;word-spacing:0px;writing-mode:lr-tb;text-anchor:start;fill:#000000;fill-opacity:1;stroke:none;stroke-width:0.35433072;stroke-linecap:butt;stroke-linejoin:miter;stroke-opacity:1;stroke-miterlimit:4;stroke-dasharray:none"
         id="text5402-2" />
    </g>
    <g
       id="g5831-6"
       transform="translate(1450.9598,-255.90663)"
       style="stroke-width:0.35433072;stroke-miterlimit:4;stroke-dasharray:none">
      <g
         style="font-style:normal;font-variant:normal;font-weight:normal;font-stretch:normal;font-size:47.5px;line-height:125%;font-family:Comfortaa;-inkscape-font-specification:'Comfortaa, Normal';text-align:start;letter-spacing:0px;word-spacing:0px;writing-mode:lr-tb;text-anchor:start;fill:#000000;fill-opacity:1;stroke:none;stroke-width:0.35433072;stroke-linecap:butt;stroke-linejoin:miter;stroke-opacity:1;stroke-miterlimit:4;stroke-dasharray:none"
         id="text5406-2" />
    </g>
    <g
       id="g5886-5"
       transform="translate(928.94678,-345.38542)"
       style="stroke-width:0.35433072;stroke-miterlimit:4;stroke-dasharray:none">
      <g
         style="font-style:normal;font-variant:normal;font-weight:normal;font-stretch:normal;font-size:47.5px;line-height:125%;font-family:Comfortaa;-inkscape-font-specification:'Comfortaa, Normal';text-align:start;letter-spacing:0px;word-spacing:0px;writing-mode:lr-tb;text-anchor:start;fill:#000000;fill-opacity:1;stroke:none;stroke-width:0.35433072;stroke-linecap:butt;stroke-linejoin:miter;stroke-opacity:1;stroke-miterlimit:4;stroke-dasharray:none"
         id="text5410-8" />
    </g>
    <g
       id="g5911-7"
       transform="translate(1155.6431,-312.03878)"
       style="stroke-width:0.35433072;stroke-miterlimit:4;stroke-dasharray:none">
      <g
         style="font-style:normal;font-variant:normal;font-weight:normal;font-stretch:normal;font-size:47.5px;line-height:125%;font-family:Comfortaa;-inkscape-font-specification:'Comfortaa, Normal';text-align:start;letter-spacing:0px;word-spacing:0px;writing-mode:lr-tb;text-anchor:start;fill:#000000;fill-opacity:1;stroke:none;stroke-width:0.35433072;stroke-linecap:butt;stroke-linejoin:miter;stroke-opacity:1;stroke-miterlimit:4;stroke-dasharray:none"
         id="text5414-6" />
    </g>
    <g
       id="g5856-0"
       transform="translate(1039.533,-544.25921)"
       style="stroke-width:0.35433072;stroke-miterlimit:4;stroke-dasharray:none">
      <g
         style="font-style:normal;font-variant:normal;font-weight:normal;font-stretch:normal;font-size:47.5px;line-height:125%;font-family:Comfortaa;-inkscape-font-specification:'Comfortaa, Normal';text-align:start;letter-spacing:0px;word-spacing:0px;writing-mode:lr-tb;text-anchor:start;fill:#000000;fill-opacity:1;stroke:none;stroke-width:0.35433072;stroke-linecap:butt;stroke-linejoin:miter;stroke-opacity:1;stroke-miterlimit:4;stroke-dasharray:none"
         id="text5418-5" />
    </g>
    <g
       id="g5881-3"
       transform="translate(1045.0571,-229.27522)"
       style="stroke-width:0.35433072;stroke-miterlimit:4;stroke-dasharray:none">
      <g
         style="font-style:normal;font-variant:normal;font-weight:normal;font-stretch:normal;font-size:47.5px;line-height:125%;font-family:Comfortaa;-inkscape-font-specification:'Comfortaa, Normal';text-align:start;letter-spacing:0px;word-spacing:0px;writing-mode:lr-tb;text-anchor:start;fill:#000000;fill-opacity:1;stroke:none;stroke-width:0.35433072;stroke-linecap:butt;stroke-linejoin:miter;stroke-opacity:1;stroke-miterlimit:4;stroke-dasharray:none"
         id="text5422-5" />
    </g>
    <g
       id="g5876-8"
       transform="translate(1335.4017,-403.40473)"
       style="stroke-width:0.35433072;stroke-miterlimit:4;stroke-dasharray:none">
      <g
         style="font-style:normal;font-variant:normal;font-weight:normal;font-stretch:normal;font-size:47.5px;line-height:125%;font-family:Comfortaa;-inkscape-font-specification:'Comfortaa, Normal';text-align:start;letter-spacing:0px;word-spacing:0px;writing-mode:lr-tb;text-anchor:start;fill:#000000;fill-opacity:1;stroke:none;stroke-width:0.35433072;stroke-linecap:butt;stroke-linejoin:miter;stroke-opacity:1;stroke-miterlimit:4;stroke-dasharray:none"
         id="text5426-7" />
    </g>
    <g
       id="g5861-8"
       transform="translate(1097.588,-486.20408)"
       style="stroke-width:0.35433072;stroke-miterlimit:4;stroke-dasharray:none">
      <g
         style="font-style:normal;font-variant:normal;font-weight:normal;font-stretch:normal;font-size:47.5px;line-height:125%;font-family:Comfortaa;-inkscape-font-specification:'Comfortaa, Normal';text-align:start;letter-spacing:0px;word-spacing:0px;writing-mode:lr-tb;text-anchor:start;fill:#000000;fill-opacity:1;stroke:none;stroke-width:0.35433072;stroke-linecap:butt;stroke-linejoin:miter;stroke-opacity:1;stroke-miterlimit:4;stroke-dasharray:none"
         id="text5430-9" />
    </g>
    <g
       id="g5851-7"
       transform="translate(1504.5266,-446.88122)"
       style="stroke-width:0.35433072;stroke-miterlimit:4;stroke-dasharray:none">
      <g
         style="font-style:normal;font-variant:normal;font-weight:normal;font-stretch:normal;font-size:47.5px;line-height:125%;font-family:Comfortaa;-inkscape-font-specification:'Comfortaa, Normal';text-align:start;letter-spacing:0px;word-spacing:0px;writing-mode:lr-tb;text-anchor:start;fill:#000000;fill-opacity:1;stroke:none;stroke-width:0.35433072;stroke-linecap:butt;stroke-linejoin:miter;stroke-opacity:1;stroke-miterlimit:4;stroke-dasharray:none"
         id="text5434-5" />
    </g>
    <g
       id="g5866-0"
       transform="translate(1274.5848,-582.99379)"
       style="stroke-width:0.35433072;stroke-miterlimit:4;stroke-dasharray:none">
      <g
         style="font-style:normal;font-variant:normal;font-weight:normal;font-stretch:normal;font-size:47.5px;line-height:125%;font-family:Comfortaa;-inkscape-font-specification:'Comfortaa, Normal';text-align:start;letter-spacing:0px;word-spacing:0px;writing-mode:lr-tb;text-anchor:start;fill:#000000;fill-opacity:1;stroke:none;stroke-width:0.35433072;stroke-linecap:butt;stroke-linejoin:miter;stroke-opacity:1;stroke-miterlimit:4;stroke-dasharray:none"
         id="text5438-3" />
    </g>
    <g
       id="g5901-0"
       transform="translate(1158.4052,-350.80911)"
       style="stroke-width:0.35433072;stroke-miterlimit:4;stroke-dasharray:none">
      <g
         style="font-style:normal;font-variant:normal;font-weight:normal;font-stretch:normal;font-size:47.5px;line-height:125%;font-family:Comfortaa;-inkscape-font-specification:'Comfortaa, Normal';text-align:start;letter-spacing:0px;word-spacing:0px;writing-mode:lr-tb;text-anchor:start;fill:#000000;fill-opacity:1;stroke:none;stroke-width:0.35433072;stroke-linecap:butt;stroke-linejoin:miter;stroke-opacity:1;stroke-miterlimit:4;stroke-dasharray:none"
         id="text5442-7" />
    </g>
    <g
       id="g5846-6"
       transform="translate(1040.1543,-679.06585)"
       style="stroke-width:0.35433072;stroke-miterlimit:4;stroke-dasharray:none">
      <g
         style="font-style:normal;font-variant:normal;font-weight:normal;font-stretch:normal;font-size:47.5px;line-height:125%;font-family:Comfortaa;-inkscape-font-specification:'Comfortaa, Normal';text-align:start;letter-spacing:0px;word-spacing:0px;writing-mode:lr-tb;text-anchor:start;fill:#000000;fill-opacity:1;stroke:none;stroke-width:0.35433072;stroke-linecap:butt;stroke-linejoin:miter;stroke-opacity:1;stroke-miterlimit:4;stroke-dasharray:none"
         id="text5446-4" />
    </g>
    <g
       id="g5906-3"
       transform="translate(1158.4052,-292.75404)"
       style="stroke-width:0.35433072;stroke-miterlimit:4;stroke-dasharray:none">
      <g
         style="font-style:normal;font-variant:normal;font-weight:normal;font-stretch:normal;font-size:47.5px;line-height:125%;font-family:Comfortaa;-inkscape-font-specification:'Comfortaa, Normal';text-align:start;letter-spacing:0px;word-spacing:0px;writing-mode:lr-tb;text-anchor:start;fill:#000000;fill-opacity:1;stroke:none;stroke-width:0.35433072;stroke-linecap:butt;stroke-linejoin:miter;stroke-opacity:1;stroke-miterlimit:4;stroke-dasharray:none"
         id="text5450-3" />
    </g>
    <g
       id="g5891-3"
       transform="translate(868.12957,-118.58869)"
       style="stroke-width:0.35433072;stroke-miterlimit:4;stroke-dasharray:none">
      <g
         style="font-style:normal;font-variant:normal;font-weight:normal;font-stretch:normal;font-size:47.5px;line-height:125%;font-family:Comfortaa;-inkscape-font-specification:'Comfortaa, Normal';text-align:start;letter-spacing:0px;word-spacing:0px;writing-mode:lr-tb;text-anchor:start;fill:#000000;fill-opacity:1;stroke:none;stroke-width:0.35433072;stroke-linecap:butt;stroke-linejoin:miter;stroke-opacity:1;stroke-miterlimit:4;stroke-dasharray:none"
         id="text5454-7" />
    </g>
    <g
       id="g5896-3"
       transform="translate(1332.5707,-118.58869)"
       style="stroke-width:0.35433072;stroke-miterlimit:4;stroke-dasharray:none">
      <g
         style="font-style:normal;font-variant:normal;font-weight:normal;font-stretch:normal;font-size:47.5px;line-height:125%;font-family:Comfortaa;-inkscape-font-specification:'Comfortaa, Normal';text-align:start;letter-spacing:0px;word-spacing:0px;writing-mode:lr-tb;text-anchor:start;fill:#000000;fill-opacity:1;stroke:none;stroke-width:0.35433072;stroke-linecap:butt;stroke-linejoin:miter;stroke-opacity:1;stroke-miterlimit:4;stroke-dasharray:none"
         id="text5458-3" />
    </g>
    <g
       id="g5963-9"
       transform="translate(1213.6983,-149.17322)"
       style="stroke-width:0.35433072;stroke-miterlimit:4;stroke-dasharray:none">
      <g
         style="font-style:normal;font-variant:normal;font-weight:normal;font-stretch:normal;font-size:47.5px;line-height:125%;font-family:Comfortaa;-inkscape-font-specification:'Comfortaa, Normal';text-align:start;letter-spacing:0px;word-spacing:0px;writing-mode:lr-tb;text-anchor:start;fill:#000000;fill-opacity:1;stroke:none;stroke-width:0.35433072;stroke-linecap:butt;stroke-linejoin:miter;stroke-opacity:1;stroke-miterlimit:4;stroke-dasharray:none"
         id="text5462-6" />
    </g>
    <g
       id="g5968-3"
       transform="translate(1329.8087,-33.062993)"
       style="stroke-width:0.35433072;stroke-miterlimit:4;stroke-dasharray:none">
      <g
         style="font-style:normal;font-variant:normal;font-weight:normal;font-stretch:normal;font-size:47.5px;line-height:125%;font-family:Comfortaa;-inkscape-font-specification:'Comfortaa, Normal';text-align:start;letter-spacing:0px;word-spacing:0px;writing-mode:lr-tb;text-anchor:start;fill:#000000;fill-opacity:1;stroke:none;stroke-width:0.35433072;stroke-linecap:butt;stroke-linejoin:miter;stroke-opacity:1;stroke-miterlimit:4;stroke-dasharray:none"
         id="text5466-3" />
    </g>
    <g
       id="g5836-2"
       transform="translate(1276.7254,-139.83217)"
       style="stroke-width:0.35433072;stroke-miterlimit:4;stroke-dasharray:none">
      <g
         style="font-style:normal;font-variant:normal;font-weight:normal;font-stretch:normal;font-size:47.5px;line-height:125%;font-family:Comfortaa;-inkscape-font-specification:'Comfortaa, Normal';text-align:start;letter-spacing:0px;word-spacing:0px;writing-mode:lr-tb;text-anchor:start;fill:#000000;fill-opacity:1;stroke:none;stroke-width:0.35433072;stroke-linecap:butt;stroke-linejoin:miter;stroke-opacity:1;stroke-miterlimit:4;stroke-dasharray:none"
         id="text5470-1" />
    </g>
    <g
       id="g5871-2"
       transform="translate(1103.8158,225.57323)"
       style="stroke-width:0.35433072;stroke-miterlimit:4;stroke-dasharray:none">
      <g
         style="font-style:normal;font-variant:normal;font-weight:normal;font-stretch:normal;font-size:47.5px;line-height:125%;font-family:Comfortaa;-inkscape-font-specification:'Comfortaa, Normal';text-align:start;letter-spacing:0px;word-spacing:0px;writing-mode:lr-tb;text-anchor:start;fill:#000000;fill-opacity:1;stroke:none;stroke-width:0.35433072;stroke-linecap:butt;stroke-linejoin:miter;stroke-opacity:1;stroke-miterlimit:4;stroke-dasharray:none"
         id="text5474-3" />
    </g>
    <g
       id="g5958-4"
       transform="translate(1158.7567,282.7245)"
       style="stroke-width:0.35433072;stroke-miterlimit:4;stroke-dasharray:none">
      <g
         style="font-style:normal;font-variant:normal;font-weight:normal;font-stretch:normal;font-size:47.5px;line-height:125%;font-family:Comfortaa;-inkscape-font-specification:'Comfortaa, Normal';text-align:start;letter-spacing:0px;word-spacing:0px;writing-mode:lr-tb;text-anchor:start;fill:#000000;fill-opacity:1;stroke:none;stroke-width:0.35433072;stroke-linecap:butt;stroke-linejoin:miter;stroke-opacity:1;stroke-miterlimit:4;stroke-dasharray:none"
         id="text5478-7" />
    </g>
    <g
       transform="translate(647.14097,0.76372421)"
       id="g6008-2"
       style="stroke-width:0.35433072;stroke-miterlimit:4;stroke-dasharray:none">
      <g
         transform="translate(627.92688,12.476621)"
         id="g5841-0"
         style="stroke-width:0.35433072;stroke-miterlimit:4;stroke-dasharray:none">
        <g
           style="font-style:normal;font-variant:normal;font-weight:normal;font-stretch:normal;font-size:47.5px;line-height:125%;font-family:Comfortaa;-inkscape-font-specification:'Comfortaa, Normal';text-align:start;letter-spacing:0px;word-spacing:0px;writing-mode:lr-tb;text-anchor:start;fill:#000000;fill-opacity:1;stroke:none;stroke-width:0.35433072;stroke-linecap:butt;stroke-linejoin:miter;stroke-opacity:1;stroke-miterlimit:4;stroke-dasharray:none"
           id="text5394-5" />
      </g>
    </g>
    <g
       id="g5973-1"
       transform="translate(1157.0941,70.149224)"
       style="stroke-width:0.35433072;stroke-miterlimit:4;stroke-dasharray:none">
      <g
         style="font-style:normal;font-variant:normal;font-weight:normal;font-stretch:normal;font-size:47.5px;line-height:125%;font-family:Comfortaa;-inkscape-font-specification:'Comfortaa, Normal';text-align:start;letter-spacing:0px;word-spacing:0px;writing-mode:lr-tb;text-anchor:start;fill:#000000;fill-opacity:1;stroke:none;stroke-width:0.35433072;stroke-linecap:butt;stroke-linejoin:miter;stroke-opacity:1;stroke-miterlimit:4;stroke-dasharray:none"
         id="text5478-8-4" />
    </g>
    <g
       transform="translate(554.14488,-400.8812)"
       id="g4957"
       style="stroke-width:0.35433072;stroke-miterlimit:4;stroke-dasharray:none" />
    <g
       transform="translate(7.5366228,-957.14423)"
       id="g4953"
       style="stroke-width:0.35433072;stroke-miterlimit:4;stroke-dasharray:none" />
    <g
       transform="translate(0.45000038,463.72274)"
       id="g4949-5"
       style="stroke-width:0.35433072;stroke-miterlimit:4;stroke-dasharray:none" />
    <path
       id="rect9034-8"
       style="fill:none;stroke:#000000;stroke-width:0.35433072;stroke-miterlimit:4;stroke-dasharray:none;stroke-opacity:1"
       d="M 1160.9481,582.40484 H 1171.5781 V 614.29463 H 1160.9481 V 646.18442 H 1171.5781 V 678.07421 H 1160.9481 V 709.964 H 1171.5781 V 741.85379 H 1160.9481 V 773.74359 H 1171.5781 V 805.63337 H 1160.9481 V 837.52317 H 1171.5781 V 869.41295 H 1160.9481 V 901.30275 H 1171.5781 V 933.19253 H 1160.9481 V 965.08232 H 1171.5781 V 1008.4879 H 1160.9481 V 1051.8934 H 1129.9442 V 1041.2635 H 1088.3102 V 1051.8934 H 1056.4204 V 1041.2635 H 1014.7865 V 1051.8934 H 983.78247 V 1008.4879 H 973.15257 L 973.15158,887.13123 H 983.78247 V 805.63337 H 973.15257 V 709.964 H 983.78247 V 628.46627 H 973.15158 L 973.15257,507.10947 H 983.78247 V 463.70397 H 1014.7865 V 474.33387 H 1056.4204 V 463.70397 H 1088.3102 V 474.33387 H 1129.9442 V 463.70397 H 1160.9481 V 507.10947 H 1171.5781 V 550.51507 H 1160.9481 Z"
       inkscape:connector-curvature="0"
       sodipodi:nodetypes="ccccccccccccccccccccccccccccccccccccccccccccccccccccccccccccccccc" />
    <path
       inkscape:connector-curvature="0"
       id="rect9034-8-3"
       style="fill:none;stroke:#000000;stroke-width:0.35433072;stroke-miterlimit:4;stroke-dasharray:none;stroke-opacity:1"
       d="M 1182.208,582.4048 H 1171.5781 V 614.29459 H 1182.208 V 646.18437 H 1171.5781 V 678.07417 H 1182.208 V 709.96394 H 1171.5781 V 741.85375 H 1182.208 V 773.74355 H 1171.5781 V 805.63333 H 1182.208 V 837.52313 H 1171.5781 V 869.41291 H 1182.208 V 901.30271 H 1171.5781 V 933.19249 H 1182.208 V 965.08227 H 1171.5781 V 1008.4878 H 1182.208 V 1051.8934 H 1213.212 V 1041.2634 H 1254.8458 V 1051.8934 H 1286.7357 V 1041.2634 H 1328.3695 V 1051.8934 H 1359.3735 V 1008.4878 H 1370.0034 L 1370.0045,887.13119 H 1359.3735 V 805.63333 H 1370.0034 V 709.96394 H 1359.3735 V 628.46623 H 1370.0045 L 1370.0034,507.10947 H 1359.3735 V 463.7039 H 1328.3695 V 474.33385 H 1286.7357 V 463.7039 H 1254.8458 V 474.33385 H 1213.212 V 463.7039 H 1182.208 V 507.10947 H 1171.5781 V 550.51501 H 1182.208 Z"
       sodipodi:nodetypes="ccccccccccccccccccccccccccccccccccccccccccccccccccccccccccccccccc" />
    <g
       transform="matrix(-1,0,0,1,-1428.1688,-1527.7859)"
       id="g4365-6-9"
       style="stroke-width:0.35433072;stroke-miterlimit:4;stroke-dasharray:none" />
    <g
       transform="matrix(0,1.000188,-1,0,950.42832,456.61461)"
       id="g4969-9-3"
       style="display:inline;stroke-width:0.3542974;stroke-miterlimit:4;stroke-dasharray:none">
      <path
         style="fill:none;stroke:#000000;stroke-width:0.3542974;stroke-miterlimit:4;stroke-dasharray:none"
         d="M 416.33765,0 V 10.62993 H 448.22745 V 0 Z M 489.86134,-10.629536 V 10.62993 H 527.95275 V 41.633893 H 538.58268 V 83.267785 H 527.95275 V 115.15758 H 538.58268 V 156.79147 H 527.95275 V 187.79543 H 489.86134 V 198.42536 H 448.22745 V 187.79543 H 416.33765 V 198.42536 H 384.44786 V 187.79543 H 352.55807 V 198.42536 H 320.66828 V 187.79543 H 288.77849 V 198.42536 H 256.8887 V 187.79543 H 224.99891 V 198.42536 H 193.10912 V 187.79543 H 161.21934 V 198.42536 H 129.32955 V 187.79543 H 97.439763 V 198.42536 H 55.805871 V 187.79543 H 17.716545 V 156.79147 H 7.0866148 V 115.15758 H 17.716545 V 83.267785 H 7.0866148 V 41.633893 H 17.716545 V 10.62993 H 55.805871 V -10.629536 Z M 97.439763,0 V 10.62993 H 129.32955 V 0 Z M 224.99891,0 V 10.62993 H 320.66828 V 0 Z"
         id="polygon4967-8-8"
         inkscape:connector-curvature="0"
         sodipodi:nodetypes="cccccccccccccccccccccccccccccccccccccccccccccccccccccccccccccccccccc" />
    </g>
    <path
       style="display:inline;fill:none;stroke:#000000;stroke-width:0.35433072;stroke-miterlimit:4;stroke-dasharray:none"
       d="M 553.57706,554.07282 H 564.20816 V 585.96612 H 553.57706 M 553.57526,585.96612 V 593.05602 H 542.94416 V 585.96612 H 539.22896 C 535.41296,585.96612 532.31946,589.05962 532.31946,592.87562 V 674.74392 C 532.31946,678.55992 535.41296,681.65342 539.22896,681.65342 H 542.94416 V 674.56902 H 553.57526 V 681.65342 H 564.20816 V 777.34432 H 553.57526 V 784.43052 H 542.94416 V 777.34432 H 539.22896 C 535.41296,777.34432 532.31946,780.43782 532.31946,784.25372 V 866.12212 C 532.31946,869.93812 535.41296,873.03152 539.22896,873.03152 H 542.94416 V 865.94352 H 553.57526 V 873.03152 H 564.20816 V 904.92482 H 553.57526 V 912.01292 H 542.94416 V 904.92482 H 539.22896 C 535.41296,904.92482 532.31946,908.01832 532.31946,911.83432 V 939.65912 C 532.31946,943.47512 535.41296,946.56852 539.22896,946.56852 H 564.20816 V 984.6654 H 595.21156 V 995.2984 H 636.84426 V 984.6654 H 668.73576 V 995.2984 H 710.36846 V 984.6654 H 741.37366 V 946.56852 H 752.00296 V 904.92672 H 741.37366 V 873.02972 H 752.00296 V 841.13462 H 741.37366 V 809.23942 H 752.00296 V 777.34252 H 741.37366 V 745.44732 H 752.00296 V 713.55222 H 741.37366 V 681.65522 H 752.00296 V 649.76012 H 741.37366 V 617.86312 H 752.00296 V 585.96792 H 741.37366 V 554.07282 H 752.00296 V 512.43097 H 741.37366 V 474.33404 H 710.36846 V 463.70294 H 668.73576 V 474.33404 H 636.84426 V 463.70294 H 595.21156 V 474.33404 H 564.20816 V 512.43097 H 539.22896 C 535.41296,512.43097 532.31946,515.52444 532.31946,519.34042 V 547.16336 C 532.31946,550.97932 535.41296,554.07282 539.22896,554.07282 H 542.94416 V 546.9848 H 553.57526 V 554.07282 M 542.94416,841.13462 V 809.23942 H 553.57526 V 841.13462 Z M 542.94416,649.76012 V 617.86312 H 553.57526 V 649.76012 Z"
       id="path2246"
       inkscape:connector-curvature="0"
       sodipodi:nodetypes="cccccccccccccccccccccccccccccccccccccccccccccccccccccccccccccccccccccccccccccccccccccccccccccccccccccccccccc" />
    <g
       transform="matrix(-1.000188,0,0,-1,744.4504,-122.5378)"
       id="g4969-9-3-9-1"
       style="display:inline;stroke-width:0.3542974;stroke-miterlimit:4;stroke-dasharray:none" />
    <path
       inkscape:connector-curvature="0"
       style="display:inline;opacity:1;fill:none;fill-opacity:1;fill-rule:nonzero;stroke:#000007;stroke-width:0.354331;stroke-linecap:butt;stroke-linejoin:miter;stroke-miterlimit:4;stroke-dasharray:none;stroke-dashoffset:0;stroke-opacity:1;paint-order:normal"
       d="M 797.55011,463.70294 C 795.69104,463.70294 794.18397,462.19587 794.18397,460.3368 V 453.07092 H 770.43978 V 460.3368 C 770.43978,462.19587 768.93271,463.70294 767.07364,463.70294 H 741.20028 C 739.34121,463.70294 737.83414,462.19587 737.83414,460.3368 V 453.07092 H 714.08806 V 460.3368 C 714.08806,462.19587 712.58099,463.70294 710.72192,463.70294 H 606.17562 C 604.31655,463.70294 602.80947,462.19587 602.80947,460.3368 V 453.07092 H 579.06342 V 460.3368 C 579.06341,462.19587 577.55634,463.70294 575.69727,463.70294 H 549.82576 C 547.96669,463.70294 546.45961,462.19587 546.45961,460.3368 V 453.07092 H 522.71354 V 460.3368 C 522.71354,462.19587 521.20647,463.70294 519.3474,463.70294 H 478.5932 C 476.73413,463.70294 475.22706,462.19587 475.22706,460.3368 V 453.07092 L 441.37993,453.07282 V 438.72102 C 441.37993,434.90502 444.47435,431.81242 448.29034,431.81242 H 868.60896 C 872.42493,431.81242 875.51752,434.90502 875.51752,438.72102 V 453.07282 L 841.67229,453.07092 V 460.3368 C 841.67229,462.19587 840.16522,463.70294 838.30615,463.70294 Z"
       id="path2457-7"
       sodipodi:nodetypes="ccccccccccccccccccccccccccccssssccccc" />
  </g>
  <g
     inkscape:groupmode="layer"
     id="layer2"
     inkscape:label="engrave"
     style="display:inline"
     transform="translate(0,-744.09449)" />
</svg>
