<?xml version="1.0" encoding="UTF-8" standalone="no"?>
<svg
   width="277.06863mm"
   height="127.70719mm"
   viewBox="0 0 277.06863 127.7072"
   version="1.1"
   id="svg1528"
   inkscape:version="1.1 (c4e8f9ed74, 2021-05-24)"
   sodipodi:docname="hexagon-back-cut.svg"
   xmlns:inkscape="http://www.inkscape.org/namespaces/inkscape"
   xmlns:sodipodi="http://sodipodi.sourceforge.net/DTD/sodipodi-0.dtd"
   xmlns="http://www.w3.org/2000/svg"
   xmlns:svg="http://www.w3.org/2000/svg"
   xmlns:rdf="http://www.w3.org/1999/02/22-rdf-syntax-ns#"
   xmlns:cc="http://creativecommons.org/ns#"
   xmlns:dc="http://purl.org/dc/elements/1.1/">
  <defs
     id="defs1522" />
  <sodipodi:namedview
     inkscape:snap-bbox-edge-midpoints="true"
     inkscape:snap-bbox-midpoints="false"
     inkscape:snap-center="true"
     inkscape:snap-others="true"
     inkscape:object-nodes="true"
     inkscape:snap-smooth-nodes="true"
     inkscape:snap-intersection-paths="false"
     inkscape:object-paths="false"
     inkscape:bbox-nodes="true"
     inkscape:bbox-paths="false"
     id="base"
     pagecolor="#ffffff"
     bordercolor="#666666"
     borderopacity="1.0"
     inkscape:pageopacity="0.0"
     inkscape:pageshadow="2"
     inkscape:zoom="0.69332577"
     inkscape:cx="736.30611"
     inkscape:cy="473.08208"
     inkscape:document-units="mm"
     inkscape:current-layer="layer1"
     showgrid="false"
     inkscape:measure-start="3796.12,-1228.54"
     inkscape:measure-end="3796.12,-1353.26"
     inkscape:snap-midpoints="true"
     inkscape:snap-object-midpoints="true"
     inkscape:snap-nodes="true"
     inkscape:snap-bbox="true"
     inkscape:window-width="1920"
     inkscape:window-height="1011"
     inkscape:window-x="0"
     inkscape:window-y="0"
     inkscape:window-maximized="1"
     inkscape:document-rotation="0"
     showguides="true"
     fit-margin-top="0"
     fit-margin-left="0"
     fit-margin-right="0"
     fit-margin-bottom="0"
     inkscape:pagecheckerboard="0" />
  <metadata
     id="metadata1525">
    <rdf:RDF>
      <cc:Work
         rdf:about="">
        <dc:format>image/svg+xml</dc:format>
        <dc:type
           rdf:resource="http://purl.org/dc/dcmitype/StillImage" />
        <dc:title />
      </cc:Work>
    </rdf:RDF>
  </metadata>
  <g
     inkscape:label="Calque 1"
     inkscape:groupmode="layer"
     id="layer1"
     transform="translate(226.39541,-810.42393)">
    <path
       id="path9161"
       style="color:#000000;fill:none;stroke:#ff0000;stroke-width:0.1;stroke-miterlimit:4;stroke-dasharray:none;stroke-opacity:1"
       d="M -152.16233,810.47393 C -154.29051,810.47393 -156.41865,811.70246 -160.67551,814.15949 L -217.8317,847.15748 C -226.3453,852.07349 -226.34541,852.07329 -226.34541,861.90335 V 911.40162 C -226.34541,921.23171 -226.3453,921.23136 -217.8317,926.14542 L -203.54267,934.39556 C -195.03097,939.30958 -195.03105,939.30958 -186.51734,934.39556 L -157.93924,917.89579 C -152.16183,914.5618 -152.16185,914.5618 -146.38645,917.89579 L -117.80835,934.39556 C -109.29665,939.30958 -109.29676,939.30958 -100.78305,934.39556 L -72.204929,917.89579 C -66.427647,914.5618 -66.427541,914.5618 -60.652163,917.89579 L -32.074068,934.39556 C -27.817239,936.85257 -25.689301,938.08112 -23.560887,938.08112 -21.432447,938.08112 -19.303503,936.85257 -15.046675,934.39556 L 42.109542,901.39758 C 50.623119,896.48157 50.623225,896.4818 50.623225,886.65171 V 837.15344 C 50.623225,827.32335 50.623119,827.32317 42.109542,822.40912 L 27.820481,814.15949 C 19.306772,809.24544 19.306851,809.24544 10.795152,814.15949 L -17.785007,830.65926 C -23.560411,833.99325 -23.560305,833.99325 -29.33571,830.65926 L -57.913831,814.15949 C -66.427541,809.24544 -66.427594,809.24544 -74.941197,814.15949 L -103.51929,830.65926 C -109.2947,833.99325 -109.29478,833.99325 -115.07209,830.65926 L -143.65018,814.15949 C -147.90603,811.70246 -150.03415,810.47393 -152.16233,810.47393 Z M -136.31421,822.55226 -126.00837,828.50228 -127.45842,831.01324 -137.76423,825.06322 Z M -82.277193,822.55226 -80.827144,825.06322 -91.132983,831.01324 -92.583032,828.50228 Z M -50.577306,822.55226 -40.271997,828.50228 -41.721517,831.01324 -52.027355,825.06322 Z M 3.4581507,822.55226 4.9081732,825.06322 -5.3976386,831.01324 -6.8476875,828.50228 Z M -182.30054,830.8024 -180.85049,833.31336 -191.15633,839.26339 -192.60638,836.75243 Z M -17.573128,852.383 H -4.8932898 V 855.38282 H -17.573128 Z M 9.7869575,852.383 H 22.466293 V 855.38282 H 9.7869575 Z M 44.123365,855.9528 H 47.022934 V 867.85286 H 44.123365 Z M 16.097693,859.43218 H 21.997584 V 862.33226 H 16.097693 Z M -25.052767,861.14319 H -22.052445 V 870.10336 H -25.052767 Z M 12.047293,868.63317 H 23.946822 V 880.53322 H 12.047293 Z M -25.052767,879.0625 H -22.052445 V 888.0232 H -25.052767 Z M -222.74509,880.70272 H -219.84555 V 892.60276 H -222.74509 Z M 16.097693,886.88218 H 21.997584 V 889.78227 H 16.097693 Z M -17.573128,893.78305 H -4.8932898 V 896.78339 H -17.573128 Z M 9.7869575,893.78305 H 22.466293 V 896.78339 H 9.7869575 Z M -24.949421,901.58258 H -22.049349 V 907.48248 H -24.949421 Z M 15.434145,909.29218 16.884194,911.80314 6.5783554,917.75317 5.1288357,915.24221 Z M -24.959766,917.08241 H -22.059668 V 922.98231 H -24.959766 Z M -170.32555,917.54233 -168.87553,920.05328 -179.18134,926.00331 -180.63089,923.49235 Z M -134.00014,917.54233 -123.69483,923.49235 -125.14435,926.00331 -135.45016,920.05328 Z M -84.591266,917.54233 -83.141217,920.05328 -93.447055,926.00331 -94.896575,923.49235 Z M -48.265827,917.54233 -37.960518,923.49183 -39.410037,926.00331 -49.715876,920.05328 Z" />
    <g
       aria-label="Hexagon Clock"
       id="text3081-9"
       style="font-size:11.2889px;line-height:1.25;font-family:Megrim;-inkscape-font-specification:'Megrim, Normal';text-align:center;letter-spacing:0px;word-spacing:0px;text-anchor:middle;stroke-width:0.264583"
       transform="translate(-498.87523,170.43407)">
      <path
         d="M 330.03279,696.55817 H 329.69412 V 692.60705 H 325.63012 V 696.55817 H 325.29145 V 688.65594 H 325.63012 V 692.26838 H 329.69412 V 688.65594 H 330.03279 Z"
         id="path14245-6" />
      <path
         d="M 336.60291,695.89212 Q 335.98202,696.67106 334.57091,696.67106 333.1598,696.67106 332.5502,695.86954 331.94059,695.06803 331.94059,693.28439 331.94059,691.50074 332.5502,690.69923 333.1598,689.89772 334.57091,689.89772 336.2078,689.89772 336.79482,690.97016 L 334.02904,693.28439 H 333.49846 L 336.35455,690.90243 Q 335.85784,690.23638 334.57091,690.23638 334.00646,690.23638 333.62264,690.36056 333.23882,690.47345 332.91144,690.80083 332.59535,691.11692 332.43731,691.73781 332.27926,692.34741 332.27926,693.28439 332.27926,694.22136 332.43731,694.84225 332.59535,695.45185 332.91144,695.77923 333.23882,696.09532 333.62264,696.2195 334.00646,696.33239 334.57091,696.33239 335.85784,696.33239 336.35455,695.66634 Z"
         id="path14247-2" />
      <path
         d="M 340.12503,693.02474 342.15703,696.55817 H 341.76192 L 339.92183,693.3747 338.08174,696.55817 H 337.68663 L 339.71863,693.02474 337.98014,690.0106 H 338.37525 L 339.92183,692.68607 341.46841,690.0106 H 341.86352 Z"
         id="path14249-1" />
      <path
         d="M 344.17772,696.2195 H 347.85791 L 345.54368,690.76696 343.0827,696.55817 H 342.72146 L 345.54368,689.89772 348.36591,696.55817 H 344.17772 Z"
         id="path14251-7" />
      <path
         d="M 352.28314,692.1555 353.78456,690.90243 Q 353.28785,690.23638 352.00091,690.23638 351.43647,690.23638 351.05265,690.36056 350.66882,690.47345 350.34145,690.80083 350.02536,691.11692 349.86731,691.73781 349.70927,692.34741 349.70927,693.28439 349.70927,694.22136 349.86731,694.84225 350.02536,695.45185 350.34145,695.77923 350.66882,696.09532 351.05265,696.2195 351.43647,696.33239 352.00091,696.33239 353.27656,696.33239 353.77327,695.67763 V 693.6795 H 354.11194 V 696.65977 Q 354.11194,698.81595 352.13638,698.81595 H 350.81558 V 698.47728 H 352.13638 Q 352.98305,698.47728 353.37816,698.02572 353.77327,697.58546 353.77327,696.33239 V 696.16305 Q 353.16367,696.67106 352.00091,696.67106 350.5898,696.67106 349.9802,695.86954 349.3706,695.06803 349.3706,693.28439 349.3706,691.50074 349.9802,690.69923 350.5898,689.89772 352.00091,689.89772 353.6378,689.89772 354.22483,690.97016 L 352.81371,692.1555 Z"
         id="path14253-8" />
      <path
         d="M 359.38385,690.36056 Q 359.00003,690.23638 358.43558,690.23638 357.87114,690.23638 357.48732,690.36056 357.10349,690.47345 356.77612,690.80083 356.46003,691.11692 356.30198,691.73781 356.14394,692.34741 356.14394,693.28439 356.14394,694.22136 356.30198,694.84225 356.46003,695.45185 356.77612,695.77923 357.10349,696.09532 357.48732,696.2195 357.87114,696.33239 358.43558,696.33239 359.00003,696.33239 359.38385,696.2195 359.76767,696.09532 360.08376,695.77923 360.41114,695.45185 360.56919,694.84225 360.72723,694.22136 360.72723,693.28439 360.72723,692.34741 360.56919,691.73781 360.41114,691.11692 360.08376,690.80083 359.76767,690.47345 359.38385,690.36056 Z M 360.4563,695.86954 Q 359.8467,696.67106 358.43558,696.67106 357.02447,696.67106 356.41487,695.86954 355.80527,695.06803 355.80527,693.28439 355.80527,691.50074 356.41487,690.69923 357.02447,689.89772 358.43558,689.89772 359.8467,689.89772 360.4563,690.69923 361.0659,691.50074 361.0659,693.28439 361.0659,695.06803 360.4563,695.86954 Z"
         id="path14255-5" />
      <path
         d="M 362.92855,696.55817 V 690.0106 H 363.26722 L 366.9474,695.93728 V 690.0106 H 367.28607 V 696.55817 H 366.9474 L 363.26722,690.6202 V 696.55817 Z"
         id="path14257-7" />
      <path
         d="M 337.07703,709.22431 Q 336.77223,709.96938 336.21907,710.37578 335.66592,710.78218 334.5596,710.78218 333.17107,710.78218 332.55018,709.93551 331.92929,709.07756 331.92929,707.27133 V 706.16502 Q 331.92929,704.3588 332.55018,703.51213 333.17107,702.65417 334.5596,702.65417 335.66592,702.65417 336.21907,703.06057 336.77223,703.46697 337.07703,704.21204 L 336.77223,704.3588 Q 336.51258,703.70404 336.03845,703.35408 335.56432,702.99284 334.5596,702.99284 334.00645,702.99284 333.61134,703.1396 333.21623,703.27506 332.90014,703.61373 332.58405,703.9524 332.426,704.59586 332.26796,705.22804 332.26796,706.16502 V 707.27133 Q 332.26796,708.20831 332.426,708.85178 332.58405,709.48396 332.90014,709.82262 333.21623,710.16129 333.61134,710.30805 334.00645,710.44351 334.5596,710.44351 335.56432,710.44351 336.03845,710.09356 336.51258,709.73231 336.77223,709.07756 Z"
         id="path14259-4" />
      <path
         d="M 342.52957,710.33062 V 710.66929 H 338.75907 V 704.12173 H 339.09774 V 710.33062 Z"
         id="path14261-1" />
      <path
         d="M 347.12414,704.47169 Q 346.74032,704.34751 346.17587,704.34751 345.61143,704.34751 345.22761,704.47169 344.84378,704.58457 344.51641,704.91195 344.20032,705.22804 344.04227,705.84893 343.88423,706.45853 343.88423,707.39551 343.88423,708.33249 344.04227,708.95338 344.20032,709.56298 344.51641,709.89036 344.84378,710.20645 345.22761,710.33062 345.61143,710.44351 346.17587,710.44351 346.74032,710.44351 347.12414,710.33062 347.50797,710.20645 347.82405,709.89036 348.15143,709.56298 348.30948,708.95338 348.46752,708.33249 348.46752,707.39551 348.46752,706.45853 348.30948,705.84893 348.15143,705.22804 347.82405,704.91195 347.50797,704.58457 347.12414,704.47169 Z M 348.19659,709.98067 Q 347.58699,710.78218 346.17587,710.78218 344.76476,710.78218 344.15516,709.98067 343.54556,709.17916 343.54556,707.39551 343.54556,705.61186 344.15516,704.81035 344.76476,704.00884 346.17587,704.00884 347.58699,704.00884 348.19659,704.81035 348.80619,705.61186 348.80619,707.39551 348.80619,709.17916 348.19659,709.98067 Z"
         id="path14263-8" />
      <path
         d="M 350.99622,709.98067 Q 350.38662,709.17916 350.38662,707.39551 350.38662,705.61186 350.99622,704.81035 351.60582,704.00884 353.01694,704.00884 354.42805,704.00884 355.04894,704.78777 L 354.80058,705.01355 Q 354.30387,704.34751 353.01694,704.34751 352.45249,704.34751 352.06867,704.47169 351.68485,704.58457 351.35747,704.91195 351.04138,705.22804 350.88333,705.84893 350.72529,706.45853 350.72529,707.39551 350.72529,708.33249 350.88333,708.95338 351.04138,709.56298 351.35747,709.89036 351.68485,710.20645 352.06867,710.33062 352.45249,710.44351 353.01694,710.44351 354.30387,710.44351 354.80058,709.77747 L 355.04894,710.00325 Q 354.42805,710.78218 353.01694,710.78218 351.60582,710.78218 350.99622,709.98067 Z"
         id="path14265-5" />
      <path
         d="M 356.73097,710.66929 V 704.12173 H 357.06964 V 710.66929 Z M 360.90786,710.66929 357.43088,707.21489 360.54662,704.12173 H 361.03204 L 357.91631,707.21489 361.39329,710.66929 Z"
         id="path14267-9" />
    </g>
  </g>
</svg>
