<?xml version="1.0" encoding="UTF-8" standalone="no"?>
<!-- Created with Inkscape (http://www.inkscape.org/) -->

<svg
   xmlns:dc="http://purl.org/dc/elements/1.1/"
   xmlns:cc="http://creativecommons.org/ns#"
   xmlns:rdf="http://www.w3.org/1999/02/22-rdf-syntax-ns#"
   xmlns:svg="http://www.w3.org/2000/svg"
   xmlns="http://www.w3.org/2000/svg"
   xmlns:sodipodi="http://sodipodi.sourceforge.net/DTD/sodipodi-0.dtd"
   xmlns:inkscape="http://www.inkscape.org/namespaces/inkscape"
   width="297mm"
   height="210mm"
   viewBox="0 0 297 210"
   version="1.1"
   id="svg3912"
   inkscape:version="0.92.4 5da689c313, 2019-01-14"
   sodipodi:docname="4_leds-2x2.svg">
  <defs
     id="defs3906">
    <inkscape:perspective
       sodipodi:type="inkscape:persp3d"
       inkscape:vp_x="0 : 148.49999 : 1"
       inkscape:vp_y="0 : 999.99995 : 0"
       inkscape:vp_z="210.00001 : 148.49999 : 1"
       inkscape:persp3d-origin="105.00001 : 98.999995 : 1"
       id="perspective890" />
  </defs>
  <sodipodi:namedview
     id="base"
     pagecolor="#ffffff"
     bordercolor="#666666"
     borderopacity="1.0"
     inkscape:pageopacity="0.0"
     inkscape:pageshadow="2"
     inkscape:zoom="1.9748876"
     inkscape:cx="704.59907"
     inkscape:cy="58.589845"
     inkscape:document-units="mm"
     inkscape:current-layer="layer1"
     showgrid="false"
     inkscape:snap-bbox="true"
     inkscape:bbox-nodes="true"
     inkscape:snap-center="true"
     inkscape:measure-start="436.723,139.277"
     inkscape:measure-end="525.542,139.277"
     inkscape:window-width="1920"
     inkscape:window-height="1016"
     inkscape:window-x="0"
     inkscape:window-y="27"
     inkscape:window-maximized="1"
     inkscape:snap-midpoints="true"
     inkscape:object-nodes="true"
     inkscape:bbox-paths="false"
     inkscape:snap-bbox-edge-midpoints="false"
     inkscape:object-paths="true"
     inkscape:snap-others="true"
     inkscape:snap-smooth-nodes="true"
     inkscape:snap-nodes="true"
     inkscape:snap-object-midpoints="true" />
  <metadata
     id="metadata3909">
    <rdf:RDF>
      <cc:Work
         rdf:about="">
        <dc:format>image/svg+xml</dc:format>
        <dc:type
           rdf:resource="http://purl.org/dc/dcmitype/StillImage" />
        <dc:title />
      </cc:Work>
    </rdf:RDF>
  </metadata>
  <g
     inkscape:label="Calque 1"
     inkscape:groupmode="layer"
     id="layer1"
     transform="translate(0,-87)">
    <path
       style="color:#000000;font-style:normal;font-variant:normal;font-weight:normal;font-stretch:normal;font-size:medium;line-height:normal;font-family:sans-serif;font-variant-ligatures:normal;font-variant-position:normal;font-variant-caps:normal;font-variant-numeric:normal;font-variant-alternates:normal;font-feature-settings:normal;text-indent:0;text-align:start;text-decoration:none;text-decoration-line:none;text-decoration-style:solid;text-decoration-color:#000000;letter-spacing:normal;word-spacing:normal;text-transform:none;writing-mode:lr-tb;direction:ltr;text-orientation:mixed;dominant-baseline:auto;baseline-shift:baseline;text-anchor:start;white-space:normal;shape-padding:0;clip-rule:nonzero;display:inline;overflow:visible;visibility:visible;opacity:1;isolation:auto;mix-blend-mode:normal;color-interpolation:sRGB;color-interpolation-filters:linearRGB;solid-color:#000000;solid-opacity:1;vector-effect:none;fill:none;fill-opacity:1;fill-rule:nonzero;stroke:#00000e;stroke-width:0.37795275;stroke-linecap:square;stroke-linejoin:miter;stroke-miterlimit:4;stroke-dasharray:none;stroke-dashoffset:0;stroke-opacity:1;paint-order:normal;color-rendering:auto;image-rendering:auto;shape-rendering:auto;text-rendering:auto;enable-background:accumulate"
       d="M 174.40625,319.53906 V 354.31055 H 185.74414 V 389.08203 H 174.40625 V 423.85352 H 185.74414 V 458.625 H 174.40625 V 493.39844 H 209.17773 V 482.05859 H 243.94922 V 493.39844 H 278.7207 V 482.05859 H 313.49219 V 493.39844 H 348.26367 V 482.05859 H 383.03516 V 493.39844 H 417.80664 V 482.05859 H 452.57812 V 493.39844 H 487.34961 V 458.625 H 476.01172 V 423.85352 H 487.34961 V 389.08203 H 476.01172 V 354.31055 H 487.34961 V 319.53906 H 452.57812 V 330.87695 H 417.80664 V 319.53906 H 383.03516 V 330.87695 H 348.26367 V 319.53906 H 313.49219 V 330.87695 H 278.7207 V 319.53906 H 243.94922 V 330.87695 H 209.17773 V 319.53906 Z M 209.93359,379.06836 H 264.73633 V 433.87109 H 209.93359 Z M 272.29492,379.06836 H 327.09961 V 433.87109 H 272.29492 Z M 334.6582,379.06836 H 389.46094 V 433.87109 H 334.6582 Z M 397.01953,379.06836 H 451.82422 V 433.87109 H 397.01953 Z"
       transform="scale(0.26458333)"
       id="path5898"
       inkscape:connector-curvature="0" />
    <path
       style="opacity:1;fill:none;fill-opacity:1;fill-rule:nonzero;stroke:#000018;stroke-width:0.10000001;stroke-linecap:butt;stroke-linejoin:miter;stroke-miterlimit:4;stroke-dasharray:none;stroke-dashoffset:0;stroke-opacity:1;paint-order:normal"
       d="M 39.849641,242.19244 39.850151,207.90822 37.092181,205.15025 H 2.80745 L 0.05,207.90822 V 242.19244 L 2.80745,244.95041 H 37.092181 Z M 4.19974,209.30025 H 19.200001 L 19.199961,224.30051 H 4.1997 Z M 20.700031,209.30025 H 35.699771 L 35.699721,224.30051 H 20.699981 Z M 4.19974,225.80054 H 19.200001 L 19.199961,240.80028 H 4.1997 Z M 20.700031,225.80054 H 35.699771 L 35.699721,240.80028 H 20.699981 Z"
       id="rect5467"
       inkscape:connector-curvature="0"
       sodipodi:nodetypes="ccccccccccccccccccccccccccccc" />
    <path
       style="opacity:1;fill:none;fill-opacity:1;fill-rule:nonzero;stroke:#000018;stroke-width:0.10000001;stroke-linecap:butt;stroke-linejoin:miter;stroke-miterlimit:4;stroke-dasharray:none;stroke-dashoffset:0;stroke-opacity:1;paint-order:normal"
       d="M 79.649792,242.19244 79.650308,207.90822 76.892341,205.15026 H 42.607601 L 39.850151,207.90822 V 242.19244 L 42.607601,244.95041 H 76.892341 Z M 43.999891,209.30025 H 59.000151 L 59.000111,224.30051 H 43.999851 Z M 60.500181,209.30025 H 75.499921 L 75.499881,224.30051 H 60.500131 Z M 43.999891,225.80054 H 59.000151 L 59.000111,240.80028 H 43.999851 Z M 60.500181,225.80054 H 75.499921 L 75.499881,240.80028 H 60.500131 Z"
       id="rect5467-3"
       inkscape:connector-curvature="0"
       sodipodi:nodetypes="ccccccccccccccccccccccccccccc" />
    <path
       style="opacity:1;fill:none;fill-opacity:1;fill-rule:nonzero;stroke:#000018;stroke-width:0.10000001;stroke-linecap:butt;stroke-linejoin:miter;stroke-miterlimit:4;stroke-dasharray:none;stroke-dashoffset:0;stroke-opacity:1;paint-order:normal"
       d="M 119.44994,242.19244 119.45046,207.90822 116.69249,205.15025 H 82.407758 L 79.650308,207.90822 V 242.19244 L 82.407758,244.95041 H 116.69249 Z M 83.800048,209.30025 H 98.800303 L 98.800263,224.30051 H 83.800008 Z M 100.30033,209.30025 H 115.30007 L 115.30003,224.30051 H 100.30028 Z M 83.800048,225.80054 H 98.800303 L 98.800263,240.80028 H 83.800008 Z M 100.30033,225.80054 H 115.30007 L 115.30003,240.80028 H 100.30028 Z"
       id="rect5467-1"
       inkscape:connector-curvature="0"
       sodipodi:nodetypes="ccccccccccccccccccccccccccccc" />
    <path
       style="opacity:1;fill:none;fill-opacity:1;fill-rule:nonzero;stroke:#000018;stroke-width:0.10000001;stroke-linecap:butt;stroke-linejoin:miter;stroke-miterlimit:4;stroke-dasharray:none;stroke-dashoffset:0;stroke-opacity:1;paint-order:normal"
       d="M 199.05038,240.80022 H 190.35065 V 209.30034 H 199.0509 V 207.90818 L 196.29293,205.1502 H 162.0082 L 159.25074,207.90818 V 209.80108 H 167.95047 V 224.8012 H 159.25074 V 242.19239 L 162.0082,244.95036 H 196.29293 L 199.05038,242.19239 Z"
       id="path6015-9"
       inkscape:connector-curvature="0"
       sodipodi:nodetypes="ccccccccccccccccc" />
    <path
       style="fill:none;stroke:#000000;stroke-width:0.1;stroke-miterlimit:4;stroke-dasharray:none"
       d="M 0.05,244.95008 V 254.15004 H 3.0498167 V 263.34999 H 0.05 V 272.54994 H 3.0498167 V 281.75043 H 0.05 V 295.00026 C 0.05,296.07722 0.9227943,296.95 1.9997543,296.95 H 7.2996861 C 8.3766491,296.95 9.2499571,296.07722 9.2499571,295.00026 V 293.85046 H 6.3498746 V 290.95038 H 9.2499571 V 287.95004 H 18.44991 V 290.95038 H 27.649867 V 287.95004 H 36.849821 V 290.95038 H 39.749903 V 293.85046 H 36.849821 V 295.00026 C 36.849821,296.07722 37.722613,296.95 38.799573,296.95 H 44.099508 C 45.176467,296.95 46.049778,296.07722 46.049778,295.00026 V 281.75043 H 43.049961 V 272.54994 H 46.049778 V 263.34999 H 43.049961 V 254.15004 H 46.049778 V 244.95008 H 36.849821 V 247.95042 H 27.649867 V 244.95008 H 18.44991 V 247.95042 H 9.2499571 V 244.95008 Z M 7.5498021,252.44988 H 22.050207 V 266.95029 H 7.5498021 Z M 24.050087,252.44988 H 38.549975 V 266.95029 H 24.050087 Z M 7.5498021,268.95018 H 22.050207 V 283.45006 H 7.5498021 Z M 24.050087,268.95018 H 38.549975 V 283.45006 H 24.050087 Z"
       id="path1860-8-4"
       inkscape:connector-curvature="0" />
    <path
       sodipodi:nodetypes="ccccccccccccccccccccc"
       inkscape:connector-curvature="0"
       d="M 244.04819,247.95004 V 254.15002 H 247.04819 V 263.35002 H 244.04819 V 272.55002 H 247.04819 V 281.75003 H 244.04819 V 287.95003 H 209.04862 V 281.75003 H 206.04862 V 272.55002 H 209.04862 V 263.35002 H 206.04862 V 254.15002 H 209.04862 V 247.95004 Z"
       style="fill:none;stroke:#000000;stroke-width:0.1;stroke-miterlimit:4;stroke-dasharray:none"
       inkscape:label="part"
       id="path1822-5" />
    <path
       sodipodi:nodetypes="ccccccccccccccccccccccccccccc"
       inkscape:connector-curvature="0"
       d="M 168.04872,281.75002 H 165.04872 V 272.55002 H 168.04872 V 263.35002 H 165.04872 V 254.15002 H 168.04872 V 247.95003 H 173.71539 V 244.95002 H 197.38195 V 247.95003 H 203.04862 V 254.15002 H 206.04862 V 263.35002 H 203.04862 V 272.55002 H 206.04862 V 281.75002 H 203.04862 V 287.95002 H 197.38195 V 290.95002 H 173.71539 V 287.95002 H 168.04872 Z"
       style="fill:none;stroke:#000000;stroke-width:0.1;stroke-miterlimit:4;stroke-dasharray:none"
       inkscape:label="part"
       id="path1838-7" />
    <path
       sodipodi:nodetypes="cccccccccccccccccccccccccccccc"
       inkscape:connector-curvature="0"
       d="M 46.049778,296.94992 V 281.75004 H 43.049768 V 272.55004 H 46.049778 V 263.35004 H 43.049768 V 254.15004 H 46.049778 V 244.95004 H 51.716438 V 247.95004 H 75.382638 V 244.95004 H 81.049308 V 254.15004 H 84.049308 V 263.35004 H 81.049308 V 272.55004 H 84.049308 V 281.75004 H 81.049308 V 296.94992 Z M 75.382638,293.94998 V 290.94997 H 51.716438 V 293.94998 Z"
       style="fill:none;stroke:#000000;stroke-width:0.1;stroke-miterlimit:4;stroke-dasharray:none"
       inkscape:label="part"
       id="path1830-2-5-6-4" />
    <path
       style="fill:none;stroke:#000000;stroke-width:0.1;stroke-miterlimit:4;stroke-dasharray:none"
       d="M 81.049308,244.95006 V 254.15002 H 84.049127 V 263.34998 H 81.049308 V 272.54994 H 84.049127 V 281.7504 H 81.049308 V 294.99973 C 81.049308,296.07669 81.922102,296.95 82.99906,296.95 H 88.298997 C 89.375946,296.95 90.249265,296.07669 90.249265,294.99973 V 293.84993 H 87.349183 V 290.94983 H 90.249265 V 287.95001 H 99.449223 V 290.95036 H 108.64918 V 287.95001 L 117.84881,287.95009 V 290.94983 H 120.7487 V 293.84993 H 117.84914 V 294.99973 C 117.84914,296.07669 118.72194,296.95 119.79888,296.95 H 125.09881 C 126.17576,296.95 127.04909,296.07669 127.04909,294.99973 V 281.7504 H 124.04928 V 272.54994 H 127.04909 V 263.34998 H 124.04928 V 254.15002 H 127.04909 V 244.95006 H 117.84914 V 247.95038 H 108.64918 V 244.95006 H 99.449223 V 247.95038 H 90.249265 V 244.95006 Z M 109.14941,277.55014 H 117.84881 V 281.95008 H 109.14941 Z M 91.049216,280.05024 H 104.94915 V 281.95008 283.95025 H 91.049216 V 281.95008 Z"
       id="path1048"
       inkscape:connector-curvature="0"
       sodipodi:nodetypes="cccccccccssssccccccccccccccsssscccccccccccccccccccccccccccccc" />
    <path
       style="fill:none;fill-rule:evenodd;stroke:#000000;stroke-width:0.1;stroke-linecap:butt;stroke-linejoin:miter;stroke-miterlimit:4;stroke-dasharray:none;stroke-opacity:1"
       d="M 158.84835,281.95008 V 287.95009"
       id="path1051"
       inkscape:connector-curvature="0" />
    <path
       style="fill:none;fill-rule:evenodd;stroke:#000000;stroke-width:0.1;stroke-linecap:butt;stroke-linejoin:miter;stroke-miterlimit:4;stroke-dasharray:none;stroke-opacity:1"
       d="M 109.14941,281.95008 H 104.94915"
       id="path1053"
       inkscape:connector-curvature="0" />
    <path
       style="fill:none;fill-rule:evenodd;stroke:#000000;stroke-width:0.1;stroke-linecap:butt;stroke-linejoin:miter;stroke-miterlimit:4;stroke-dasharray:none;stroke-opacity:1"
       d="M 90.249258,287.95001 V 281.95008 H 91.049218"
       id="path1057"
       inkscape:connector-curvature="0"
       sodipodi:nodetypes="ccc" />
    <path
       style="opacity:1;fill:none;fill-opacity:1;fill-rule:nonzero;stroke:#000018;stroke-width:0.10000001;stroke-linecap:butt;stroke-linejoin:miter;stroke-miterlimit:4;stroke-dasharray:none;stroke-dashoffset:0;stroke-opacity:1;paint-order:normal"
       d="M 122.20792,205.15024 119.45046,207.90822 V 242.19243 L 122.20792,244.9504 H 127.20813 V 241.05038 H 130.10821 V 244.9504 H 148.59287 V 241.05038 H 151.49295 V 244.9504 H 156.49265 L 159.2501,242.19243 159.25061,207.90822 156.49265,205.15024 Z M 128.15019,213.85152 H 134.05009 V 215.35117 H 135.95023 V 218.25126 H 134.05009 V 219.75142 H 128.15019 Z M 144.65047,213.85152 H 150.55037 V 215.35117 H 152.45051 V 218.25126 H 150.55037 V 219.75142 H 144.65047 Z M 137.9005,223.10057 H 140.80058 V 227.00059 H 137.9005 Z M 128.15019,230.35129 H 134.05009 V 236.25119 H 128.15019 V 234.75102 H 126.25005 V 231.85094 H 128.15019 Z M 144.65047,230.35129 H 150.55037 V 236.25119 H 144.65047 V 234.75102 H 142.75033 V 231.85094 H 144.65047 Z"
       id="path6015-8"
       inkscape:connector-curvature="0" />
    <path
       sodipodi:nodetypes="ccccccccccccc"
       inkscape:connector-curvature="0"
       d="M 247.14819,247.95004 H 250.04819 V 250.95004 H 253.34901 L 253.34861,256.61673 H 256.34863 V 280.28357 L 253.34901,280.28398 V 285.95025 H 250.04819 V 288.95026 H 247.14819 Z"
       style="fill:none;stroke:#000000;stroke-width:0.1;stroke-miterlimit:4;stroke-dasharray:none"
       inkscape:label="part"
       id="path1830-2-5-6-4-7-4" />
    <path
       sodipodi:nodetypes="ccccccccccccc"
       inkscape:connector-curvature="0"
       d="M 256.34863,247.95004 H 259.24862 V 250.95004 H 262.54946 L 262.54905,256.61673 H 265.54907 V 280.28358 L 262.54946,280.28399 V 285.95025 H 259.24862 V 288.95026 H 256.34863 Z"
       style="fill:none;stroke:#000000;stroke-width:0.1;stroke-miterlimit:4;stroke-dasharray:none"
       inkscape:label="part"
       id="path1830-2-5-6-4-7-4-9" />
    <path
       sodipodi:nodetypes="cccccccccccccccccccccccccccccc"
       inkscape:connector-curvature="0"
       d="M 127.04919,296.9499 V 281.75002 H 124.04918 V 272.55002 H 127.04919 V 263.35002 H 124.04918 V 254.15002 H 127.04919 V 244.95002 H 132.71585 V 247.95002 H 156.38205 V 244.95002 H 162.04872 V 254.15002 H 165.04872 V 263.35002 H 162.04872 V 272.55002 H 165.04872 V 281.75002 H 162.04872 V 296.9499 Z M 156.38205,293.94996 V 290.94995 H 132.71585 V 293.94996 Z"
       style="fill:none;stroke:#000000;stroke-width:0.1;stroke-miterlimit:4;stroke-dasharray:none"
       inkscape:label="part"
       id="path1830-2-5-6-4-1" />
  </g>
</svg>
