{
    "name": "ZoneOffset",
    "keywords": "dst, zone, offset",
    "description": "Download offset transition for a given timezone",
    "authors":
    {
        "name": "Antoine Vernois"
    },
    "version": "0.1",
    
    "export": {
        "include": "zone"
    },
    "frameworks": "arduino",
    "platforms": "esp8266",

    "dependencies":
[
    {
        "name": "ArduinoJson",
        "owner": "bblanchon",
        "version": "6.17.2"
    }
]
}
