(kicad_pcb (version 20171130) (host pcbnew 5.0.2-bee76a0~70~ubuntu18.04.1)

  (general
    (thickness 1.6)
    (drawings 15)
    (tracks 16)
    (zones 0)
    (modules 4)
    (nets 6)
  )

  (page A4)
  (layers
    (0 F.Cu signal)
    (31 B.Cu signal)
    (32 B.Adhes user)
    (33 F.Adhes user)
    (34 B.Paste user)
    (35 F.Paste user)
    (36 B.SilkS user)
    (37 F.SilkS user)
    (38 B.Mask user)
    (39 F.Mask user)
    (40 Dwgs.User user)
    (41 Cmts.User user)
    (42 Eco1.User user)
    (43 Eco2.User user)
    (44 Edge.Cuts user)
    (45 Margin user)
    (46 B.CrtYd user)
    (47 F.CrtYd user)
    (48 B.Fab user)
    (49 F.Fab user)
  )

  (setup
    (last_trace_width 0.25)
    (trace_clearance 0.2)
    (zone_clearance 0.508)
    (zone_45_only no)
    (trace_min 0.2)
    (segment_width 0.2)
    (edge_width 0.15)
    (via_size 0.8)
    (via_drill 0.4)
    (via_min_size 0.4)
    (via_min_drill 0.3)
    (uvia_size 0.3)
    (uvia_drill 0.1)
    (uvias_allowed no)
    (uvia_min_size 0.2)
    (uvia_min_drill 0.1)
    (pcb_text_width 0.3)
    (pcb_text_size 1.5 1.5)
    (mod_edge_width 0.15)
    (mod_text_size 1 1)
    (mod_text_width 0.15)
    (pad_size 1.524 1.524)
    (pad_drill 0.762)
    (pad_to_mask_clearance 0.051)
    (solder_mask_min_width 0.25)
    (aux_axis_origin 0 0)
    (visible_elements FFFFFF7F)
    (pcbplotparams
      (layerselection 0x010fc_ffffffff)
      (usegerberextensions false)
      (usegerberattributes false)
      (usegerberadvancedattributes false)
      (creategerberjobfile false)
      (excludeedgelayer true)
      (linewidth 0.100000)
      (plotframeref false)
      (viasonmask false)
      (mode 1)
      (useauxorigin false)
      (hpglpennumber 1)
      (hpglpenspeed 20)
      (hpglpendiameter 15.000000)
      (psnegative false)
      (psa4output false)
      (plotreference true)
      (plotvalue true)
      (plotinvisibletext false)
      (padsonsilk false)
      (subtractmaskfromsilk false)
      (outputformat 1)
      (mirror false)
      (drillshape 1)
      (scaleselection 1)
      (outputdirectory ""))
  )

  (net 0 "")
  (net 1 GND)
  (net 2 "Net-(J1-Pad3)")
  (net 3 "Net-(J1-Pad4)")
  (net 4 "Net-(J2-Pad1)")
  (net 5 "Net-(J2-Pad2)")

  (net_class Default "This is the default net class."
    (clearance 0.2)
    (trace_width 0.25)
    (via_dia 0.8)
    (via_drill 0.4)
    (uvia_dia 0.3)
    (uvia_drill 0.1)
    (add_net GND)
    (add_net "Net-(J1-Pad3)")
    (add_net "Net-(J1-Pad4)")
    (add_net "Net-(J2-Pad1)")
    (add_net "Net-(J2-Pad2)")
  )

  (module Connector_PinSocket_2.54mm:PinSocket_1x06_P2.54mm_Horizontal (layer F.Cu) (tedit 5A19A42D) (tstamp 5E4BA3DC)
    (at 177 63.5 270)
    (descr "Through hole angled socket strip, 1x06, 2.54mm pitch, 8.51mm socket length, single row (from Kicad 4.0.7), script generated")
    (tags "Through hole angled socket strip THT 1x06 2.54mm single row")
    (path /5E3EC328)
    (fp_text reference J1 (at 2.5 -1) (layer F.SilkS)
      (effects (font (size 1 1) (thickness 0.15)))
    )
    (fp_text value ftdi (at -4.38 15.47 270) (layer F.Fab)
      (effects (font (size 1 1) (thickness 0.15)))
    )
    (fp_line (start -10.03 -1.27) (end -2.49 -1.27) (layer F.Fab) (width 0.1))
    (fp_line (start -2.49 -1.27) (end -1.52 -0.3) (layer F.Fab) (width 0.1))
    (fp_line (start -1.52 -0.3) (end -1.52 13.97) (layer F.Fab) (width 0.1))
    (fp_line (start -1.52 13.97) (end -10.03 13.97) (layer F.Fab) (width 0.1))
    (fp_line (start -10.03 13.97) (end -10.03 -1.27) (layer F.Fab) (width 0.1))
    (fp_line (start 0 -0.3) (end -1.52 -0.3) (layer F.Fab) (width 0.1))
    (fp_line (start -1.52 0.3) (end 0 0.3) (layer F.Fab) (width 0.1))
    (fp_line (start 0 0.3) (end 0 -0.3) (layer F.Fab) (width 0.1))
    (fp_line (start 0 2.24) (end -1.52 2.24) (layer F.Fab) (width 0.1))
    (fp_line (start -1.52 2.84) (end 0 2.84) (layer F.Fab) (width 0.1))
    (fp_line (start 0 2.84) (end 0 2.24) (layer F.Fab) (width 0.1))
    (fp_line (start 0 4.78) (end -1.52 4.78) (layer F.Fab) (width 0.1))
    (fp_line (start -1.52 5.38) (end 0 5.38) (layer F.Fab) (width 0.1))
    (fp_line (start 0 5.38) (end 0 4.78) (layer F.Fab) (width 0.1))
    (fp_line (start 0 7.32) (end -1.52 7.32) (layer F.Fab) (width 0.1))
    (fp_line (start -1.52 7.92) (end 0 7.92) (layer F.Fab) (width 0.1))
    (fp_line (start 0 7.92) (end 0 7.32) (layer F.Fab) (width 0.1))
    (fp_line (start 0 9.86) (end -1.52 9.86) (layer F.Fab) (width 0.1))
    (fp_line (start -1.52 10.46) (end 0 10.46) (layer F.Fab) (width 0.1))
    (fp_line (start 0 10.46) (end 0 9.86) (layer F.Fab) (width 0.1))
    (fp_line (start 0 12.4) (end -1.52 12.4) (layer F.Fab) (width 0.1))
    (fp_line (start -1.52 13) (end 0 13) (layer F.Fab) (width 0.1))
    (fp_line (start 0 13) (end 0 12.4) (layer F.Fab) (width 0.1))
    (fp_line (start -10.09 -1.21) (end -1.46 -1.21) (layer F.SilkS) (width 0.12))
    (fp_line (start -10.09 -1.091905) (end -1.46 -1.091905) (layer F.SilkS) (width 0.12))
    (fp_line (start -10.09 -0.97381) (end -1.46 -0.97381) (layer F.SilkS) (width 0.12))
    (fp_line (start -10.09 -0.855715) (end -1.46 -0.855715) (layer F.SilkS) (width 0.12))
    (fp_line (start -10.09 -0.73762) (end -1.46 -0.73762) (layer F.SilkS) (width 0.12))
    (fp_line (start -10.09 -0.619525) (end -1.46 -0.619525) (layer F.SilkS) (width 0.12))
    (fp_line (start -10.09 -0.50143) (end -1.46 -0.50143) (layer F.SilkS) (width 0.12))
    (fp_line (start -10.09 -0.383335) (end -1.46 -0.383335) (layer F.SilkS) (width 0.12))
    (fp_line (start -10.09 -0.26524) (end -1.46 -0.26524) (layer F.SilkS) (width 0.12))
    (fp_line (start -10.09 -0.147145) (end -1.46 -0.147145) (layer F.SilkS) (width 0.12))
    (fp_line (start -10.09 -0.02905) (end -1.46 -0.02905) (layer F.SilkS) (width 0.12))
    (fp_line (start -10.09 0.089045) (end -1.46 0.089045) (layer F.SilkS) (width 0.12))
    (fp_line (start -10.09 0.20714) (end -1.46 0.20714) (layer F.SilkS) (width 0.12))
    (fp_line (start -10.09 0.325235) (end -1.46 0.325235) (layer F.SilkS) (width 0.12))
    (fp_line (start -10.09 0.44333) (end -1.46 0.44333) (layer F.SilkS) (width 0.12))
    (fp_line (start -10.09 0.561425) (end -1.46 0.561425) (layer F.SilkS) (width 0.12))
    (fp_line (start -10.09 0.67952) (end -1.46 0.67952) (layer F.SilkS) (width 0.12))
    (fp_line (start -10.09 0.797615) (end -1.46 0.797615) (layer F.SilkS) (width 0.12))
    (fp_line (start -10.09 0.91571) (end -1.46 0.91571) (layer F.SilkS) (width 0.12))
    (fp_line (start -10.09 1.033805) (end -1.46 1.033805) (layer F.SilkS) (width 0.12))
    (fp_line (start -10.09 1.1519) (end -1.46 1.1519) (layer F.SilkS) (width 0.12))
    (fp_line (start -1.46 -0.36) (end -1.11 -0.36) (layer F.SilkS) (width 0.12))
    (fp_line (start -1.46 0.36) (end -1.11 0.36) (layer F.SilkS) (width 0.12))
    (fp_line (start -1.46 2.18) (end -1.05 2.18) (layer F.SilkS) (width 0.12))
    (fp_line (start -1.46 2.9) (end -1.05 2.9) (layer F.SilkS) (width 0.12))
    (fp_line (start -1.46 4.72) (end -1.05 4.72) (layer F.SilkS) (width 0.12))
    (fp_line (start -1.46 5.44) (end -1.05 5.44) (layer F.SilkS) (width 0.12))
    (fp_line (start -1.46 7.26) (end -1.05 7.26) (layer F.SilkS) (width 0.12))
    (fp_line (start -1.46 7.98) (end -1.05 7.98) (layer F.SilkS) (width 0.12))
    (fp_line (start -1.46 9.8) (end -1.05 9.8) (layer F.SilkS) (width 0.12))
    (fp_line (start -1.46 10.52) (end -1.05 10.52) (layer F.SilkS) (width 0.12))
    (fp_line (start -1.46 12.34) (end -1.05 12.34) (layer F.SilkS) (width 0.12))
    (fp_line (start -1.46 13.06) (end -1.05 13.06) (layer F.SilkS) (width 0.12))
    (fp_line (start -10.09 1.27) (end -1.46 1.27) (layer F.SilkS) (width 0.12))
    (fp_line (start -10.09 3.81) (end -1.46 3.81) (layer F.SilkS) (width 0.12))
    (fp_line (start -10.09 6.35) (end -1.46 6.35) (layer F.SilkS) (width 0.12))
    (fp_line (start -10.09 8.89) (end -1.46 8.89) (layer F.SilkS) (width 0.12))
    (fp_line (start -10.09 11.43) (end -1.46 11.43) (layer F.SilkS) (width 0.12))
    (fp_line (start -10.09 -1.33) (end -1.46 -1.33) (layer F.SilkS) (width 0.12))
    (fp_line (start -1.46 -1.33) (end -1.46 14.03) (layer F.SilkS) (width 0.12))
    (fp_line (start -10.09 14.03) (end -1.46 14.03) (layer F.SilkS) (width 0.12))
    (fp_line (start -10.09 -1.33) (end -10.09 14.03) (layer F.SilkS) (width 0.12))
    (fp_line (start 1.11 -1.33) (end 1.11 0) (layer F.SilkS) (width 0.12))
    (fp_line (start 0 -1.33) (end 1.11 -1.33) (layer F.SilkS) (width 0.12))
    (fp_line (start 1.75 -1.8) (end -10.55 -1.8) (layer F.CrtYd) (width 0.05))
    (fp_line (start -10.55 -1.8) (end -10.55 14.45) (layer F.CrtYd) (width 0.05))
    (fp_line (start -10.55 14.45) (end 1.75 14.45) (layer F.CrtYd) (width 0.05))
    (fp_line (start 1.75 14.45) (end 1.75 -1.8) (layer F.CrtYd) (width 0.05))
    (fp_text user %R (at -5.775 6.35) (layer F.Fab)
      (effects (font (size 1 1) (thickness 0.15)))
    )
    (pad 1 thru_hole rect (at 0 0 270) (size 1.7 1.7) (drill 1) (layers *.Cu *.Mask))
    (pad 2 thru_hole oval (at 0 2.54 270) (size 1.7 1.7) (drill 1) (layers *.Cu *.Mask))
    (pad 3 thru_hole oval (at 0 5.08 270) (size 1.7 1.7) (drill 1) (layers *.Cu *.Mask)
      (net 2 "Net-(J1-Pad3)"))
    (pad 4 thru_hole oval (at 0 7.62 270) (size 1.7 1.7) (drill 1) (layers *.Cu *.Mask)
      (net 3 "Net-(J1-Pad4)"))
    (pad 5 thru_hole oval (at 0 10.16 270) (size 1.7 1.7) (drill 1) (layers *.Cu *.Mask)
      (net 1 GND))
    (pad 6 thru_hole oval (at 0 12.7 270) (size 1.7 1.7) (drill 1) (layers *.Cu *.Mask))
    (model ${KISYS3DMOD}/Connector_PinSocket_2.54mm.3dshapes/PinSocket_1x06_P2.54mm_Horizontal.wrl
      (at (xyz 0 0 0))
      (scale (xyz 1 1 1))
      (rotate (xyz 0 0 0))
    )
  )

  (module Connector_PinHeader_2.54mm:PinHeader_1x05_P2.54mm_Horizontal (layer F.Cu) (tedit 59FED5CB) (tstamp 5E4BB727)
    (at 150 63.5 90)
    (descr "Through hole angled pin header, 1x05, 2.54mm pitch, 6mm pin length, single row")
    (tags "Through hole angled pin header THT 1x05 2.54mm single row")
    (path /5E3EC212)
    (fp_text reference J2 (at -2.5 11.5 180) (layer F.SilkS)
      (effects (font (size 1 1) (thickness 0.15)))
    )
    (fp_text value "to Esp" (at 4.385 12.43 90) (layer F.Fab)
      (effects (font (size 1 1) (thickness 0.15)))
    )
    (fp_line (start 2.135 -1.27) (end 4.04 -1.27) (layer F.Fab) (width 0.1))
    (fp_line (start 4.04 -1.27) (end 4.04 11.43) (layer F.Fab) (width 0.1))
    (fp_line (start 4.04 11.43) (end 1.5 11.43) (layer F.Fab) (width 0.1))
    (fp_line (start 1.5 11.43) (end 1.5 -0.635) (layer F.Fab) (width 0.1))
    (fp_line (start 1.5 -0.635) (end 2.135 -1.27) (layer F.Fab) (width 0.1))
    (fp_line (start -0.32 -0.32) (end 1.5 -0.32) (layer F.Fab) (width 0.1))
    (fp_line (start -0.32 -0.32) (end -0.32 0.32) (layer F.Fab) (width 0.1))
    (fp_line (start -0.32 0.32) (end 1.5 0.32) (layer F.Fab) (width 0.1))
    (fp_line (start 4.04 -0.32) (end 10.04 -0.32) (layer F.Fab) (width 0.1))
    (fp_line (start 10.04 -0.32) (end 10.04 0.32) (layer F.Fab) (width 0.1))
    (fp_line (start 4.04 0.32) (end 10.04 0.32) (layer F.Fab) (width 0.1))
    (fp_line (start -0.32 2.22) (end 1.5 2.22) (layer F.Fab) (width 0.1))
    (fp_line (start -0.32 2.22) (end -0.32 2.86) (layer F.Fab) (width 0.1))
    (fp_line (start -0.32 2.86) (end 1.5 2.86) (layer F.Fab) (width 0.1))
    (fp_line (start 4.04 2.22) (end 10.04 2.22) (layer F.Fab) (width 0.1))
    (fp_line (start 10.04 2.22) (end 10.04 2.86) (layer F.Fab) (width 0.1))
    (fp_line (start 4.04 2.86) (end 10.04 2.86) (layer F.Fab) (width 0.1))
    (fp_line (start -0.32 4.76) (end 1.5 4.76) (layer F.Fab) (width 0.1))
    (fp_line (start -0.32 4.76) (end -0.32 5.4) (layer F.Fab) (width 0.1))
    (fp_line (start -0.32 5.4) (end 1.5 5.4) (layer F.Fab) (width 0.1))
    (fp_line (start 4.04 4.76) (end 10.04 4.76) (layer F.Fab) (width 0.1))
    (fp_line (start 10.04 4.76) (end 10.04 5.4) (layer F.Fab) (width 0.1))
    (fp_line (start 4.04 5.4) (end 10.04 5.4) (layer F.Fab) (width 0.1))
    (fp_line (start -0.32 7.3) (end 1.5 7.3) (layer F.Fab) (width 0.1))
    (fp_line (start -0.32 7.3) (end -0.32 7.94) (layer F.Fab) (width 0.1))
    (fp_line (start -0.32 7.94) (end 1.5 7.94) (layer F.Fab) (width 0.1))
    (fp_line (start 4.04 7.3) (end 10.04 7.3) (layer F.Fab) (width 0.1))
    (fp_line (start 10.04 7.3) (end 10.04 7.94) (layer F.Fab) (width 0.1))
    (fp_line (start 4.04 7.94) (end 10.04 7.94) (layer F.Fab) (width 0.1))
    (fp_line (start -0.32 9.84) (end 1.5 9.84) (layer F.Fab) (width 0.1))
    (fp_line (start -0.32 9.84) (end -0.32 10.48) (layer F.Fab) (width 0.1))
    (fp_line (start -0.32 10.48) (end 1.5 10.48) (layer F.Fab) (width 0.1))
    (fp_line (start 4.04 9.84) (end 10.04 9.84) (layer F.Fab) (width 0.1))
    (fp_line (start 10.04 9.84) (end 10.04 10.48) (layer F.Fab) (width 0.1))
    (fp_line (start 4.04 10.48) (end 10.04 10.48) (layer F.Fab) (width 0.1))
    (fp_line (start 1.44 -1.33) (end 1.44 11.49) (layer F.SilkS) (width 0.12))
    (fp_line (start 1.44 11.49) (end 4.1 11.49) (layer F.SilkS) (width 0.12))
    (fp_line (start 4.1 11.49) (end 4.1 -1.33) (layer F.SilkS) (width 0.12))
    (fp_line (start 4.1 -1.33) (end 1.44 -1.33) (layer F.SilkS) (width 0.12))
    (fp_line (start 4.1 -0.38) (end 10.1 -0.38) (layer F.SilkS) (width 0.12))
    (fp_line (start 10.1 -0.38) (end 10.1 0.38) (layer F.SilkS) (width 0.12))
    (fp_line (start 10.1 0.38) (end 4.1 0.38) (layer F.SilkS) (width 0.12))
    (fp_line (start 4.1 -0.32) (end 10.1 -0.32) (layer F.SilkS) (width 0.12))
    (fp_line (start 4.1 -0.2) (end 10.1 -0.2) (layer F.SilkS) (width 0.12))
    (fp_line (start 4.1 -0.08) (end 10.1 -0.08) (layer F.SilkS) (width 0.12))
    (fp_line (start 4.1 0.04) (end 10.1 0.04) (layer F.SilkS) (width 0.12))
    (fp_line (start 4.1 0.16) (end 10.1 0.16) (layer F.SilkS) (width 0.12))
    (fp_line (start 4.1 0.28) (end 10.1 0.28) (layer F.SilkS) (width 0.12))
    (fp_line (start 1.11 -0.38) (end 1.44 -0.38) (layer F.SilkS) (width 0.12))
    (fp_line (start 1.11 0.38) (end 1.44 0.38) (layer F.SilkS) (width 0.12))
    (fp_line (start 1.44 1.27) (end 4.1 1.27) (layer F.SilkS) (width 0.12))
    (fp_line (start 4.1 2.16) (end 10.1 2.16) (layer F.SilkS) (width 0.12))
    (fp_line (start 10.1 2.16) (end 10.1 2.92) (layer F.SilkS) (width 0.12))
    (fp_line (start 10.1 2.92) (end 4.1 2.92) (layer F.SilkS) (width 0.12))
    (fp_line (start 1.042929 2.16) (end 1.44 2.16) (layer F.SilkS) (width 0.12))
    (fp_line (start 1.042929 2.92) (end 1.44 2.92) (layer F.SilkS) (width 0.12))
    (fp_line (start 1.44 3.81) (end 4.1 3.81) (layer F.SilkS) (width 0.12))
    (fp_line (start 4.1 4.7) (end 10.1 4.7) (layer F.SilkS) (width 0.12))
    (fp_line (start 10.1 4.7) (end 10.1 5.46) (layer F.SilkS) (width 0.12))
    (fp_line (start 10.1 5.46) (end 4.1 5.46) (layer F.SilkS) (width 0.12))
    (fp_line (start 1.042929 4.7) (end 1.44 4.7) (layer F.SilkS) (width 0.12))
    (fp_line (start 1.042929 5.46) (end 1.44 5.46) (layer F.SilkS) (width 0.12))
    (fp_line (start 1.44 6.35) (end 4.1 6.35) (layer F.SilkS) (width 0.12))
    (fp_line (start 4.1 7.24) (end 10.1 7.24) (layer F.SilkS) (width 0.12))
    (fp_line (start 10.1 7.24) (end 10.1 8) (layer F.SilkS) (width 0.12))
    (fp_line (start 10.1 8) (end 4.1 8) (layer F.SilkS) (width 0.12))
    (fp_line (start 1.042929 7.24) (end 1.44 7.24) (layer F.SilkS) (width 0.12))
    (fp_line (start 1.042929 8) (end 1.44 8) (layer F.SilkS) (width 0.12))
    (fp_line (start 1.44 8.89) (end 4.1 8.89) (layer F.SilkS) (width 0.12))
    (fp_line (start 4.1 9.78) (end 10.1 9.78) (layer F.SilkS) (width 0.12))
    (fp_line (start 10.1 9.78) (end 10.1 10.54) (layer F.SilkS) (width 0.12))
    (fp_line (start 10.1 10.54) (end 4.1 10.54) (layer F.SilkS) (width 0.12))
    (fp_line (start 1.042929 9.78) (end 1.44 9.78) (layer F.SilkS) (width 0.12))
    (fp_line (start 1.042929 10.54) (end 1.44 10.54) (layer F.SilkS) (width 0.12))
    (fp_line (start -1.27 0) (end -1.27 -1.27) (layer F.SilkS) (width 0.12))
    (fp_line (start -1.27 -1.27) (end 0 -1.27) (layer F.SilkS) (width 0.12))
    (fp_line (start -1.8 -1.8) (end -1.8 11.95) (layer F.CrtYd) (width 0.05))
    (fp_line (start -1.8 11.95) (end 10.55 11.95) (layer F.CrtYd) (width 0.05))
    (fp_line (start 10.55 11.95) (end 10.55 -1.8) (layer F.CrtYd) (width 0.05))
    (fp_line (start 10.55 -1.8) (end -1.8 -1.8) (layer F.CrtYd) (width 0.05))
    (fp_text user %R (at 2.77 5.08 180) (layer F.Fab)
      (effects (font (size 1 1) (thickness 0.15)))
    )
    (pad 1 thru_hole rect (at 0 0 90) (size 1.7 1.7) (drill 1) (layers *.Cu *.Mask)
      (net 4 "Net-(J2-Pad1)"))
    (pad 2 thru_hole oval (at 0 2.54 90) (size 1.7 1.7) (drill 1) (layers *.Cu *.Mask)
      (net 5 "Net-(J2-Pad2)"))
    (pad 3 thru_hole oval (at 0 5.08 90) (size 1.7 1.7) (drill 1) (layers *.Cu *.Mask)
      (net 2 "Net-(J1-Pad3)"))
    (pad 4 thru_hole oval (at 0 7.62 90) (size 1.7 1.7) (drill 1) (layers *.Cu *.Mask)
      (net 3 "Net-(J1-Pad4)"))
    (pad 5 thru_hole oval (at 0 10.16 90) (size 1.7 1.7) (drill 1) (layers *.Cu *.Mask)
      (net 1 GND))
    (model ${KISYS3DMOD}/Connector_PinHeader_2.54mm.3dshapes/PinHeader_1x05_P2.54mm_Horizontal.wrl
      (at (xyz 0 0 0))
      (scale (xyz 1 1 1))
      (rotate (xyz 0 0 0))
    )
  )

  (module Button_Switch_THT:SW_PUSH-12mm_Wuerth-430476085716 (layer F.Cu) (tedit 5A02FE31) (tstamp 5E4BA46A)
    (at 172.5 70.75 270)
    (descr "SW PUSH 12mm http://katalog.we-online.de/em/datasheet/430476085716.pdf")
    (tags "tact sw push 12mm")
    (path /5E3EC931)
    (fp_text reference SW1 (at -2.25 2.5) (layer F.SilkS)
      (effects (font (size 1 1) (thickness 0.15)))
    )
    (fp_text value Flash (at 6.35 9.93 270) (layer F.Fab)
      (effects (font (size 1 1) (thickness 0.15)))
    )
    (fp_circle (center 6.35 2.54) (end 10.92905 2.54) (layer F.SilkS) (width 0.12))
    (fp_line (start 0.25 -3.5) (end 0.25 8.5) (layer F.Fab) (width 0.1))
    (fp_line (start 0.25 8.5) (end 12.25 8.5) (layer F.Fab) (width 0.1))
    (fp_line (start 12.25 8.5) (end 12.25 -3.5) (layer F.Fab) (width 0.1))
    (fp_line (start 12.25 -3.5) (end 0.25 -3.5) (layer F.Fab) (width 0.1))
    (fp_line (start 0.1 -1.53) (end 0.1 -3.65) (layer F.SilkS) (width 0.12))
    (fp_line (start 0.1 -3.65) (end 12.4 -3.65) (layer F.SilkS) (width 0.12))
    (fp_line (start 12.4 -3.65) (end 12.4 -1.53) (layer F.SilkS) (width 0.12))
    (fp_line (start 12.4 1.53) (end 12.4 3.47) (layer F.SilkS) (width 0.12))
    (fp_line (start 12.4 6.53) (end 12.4 8.65) (layer F.SilkS) (width 0.12))
    (fp_line (start 12.4 8.65) (end 0.1 8.65) (layer F.SilkS) (width 0.12))
    (fp_line (start 0.1 8.65) (end 0.1 6.53) (layer F.SilkS) (width 0.12))
    (fp_line (start 0.1 3.47) (end 0.1 1.53) (layer F.SilkS) (width 0.12))
    (fp_line (start -1.75 -3.75) (end -1.75 8.75) (layer F.CrtYd) (width 0.05))
    (fp_line (start -1.75 8.75) (end 14.25 8.75) (layer F.CrtYd) (width 0.05))
    (fp_line (start 14.25 8.75) (end 14.25 -3.75) (layer F.CrtYd) (width 0.05))
    (fp_line (start 14.25 -3.75) (end -1.75 -3.75) (layer F.CrtYd) (width 0.05))
    (fp_text user %R (at 6.35 2.54 270) (layer F.Fab)
      (effects (font (size 1 1) (thickness 0.15)))
    )
    (pad 1 thru_hole oval (at 12.5 0 270) (size 3 2.5) (drill 1.2) (layers *.Cu *.Mask)
      (net 1 GND))
    (pad 2 thru_hole oval (at 12.5 5 270) (size 3 2.5) (drill 1.2) (layers *.Cu *.Mask)
      (net 5 "Net-(J2-Pad2)"))
    (pad 1 thru_hole oval (at 0 0 270) (size 3 2.5) (drill 1.2) (layers *.Cu *.Mask)
      (net 1 GND))
    (pad 2 thru_hole oval (at 0 5 270) (size 3 2.5) (drill 1.2) (layers *.Cu *.Mask)
      (net 5 "Net-(J2-Pad2)"))
    (model ${KISYS3DMOD}/Button_Switch_THT.3dshapes/SW_PUSH-12mm_Wuerth-430476085716.wrl
      (at (xyz 0 0 0))
      (scale (xyz 1 1 1))
      (rotate (xyz 0 0 0))
    )
  )

  (module Button_Switch_THT:SW_PUSH-12mm_Wuerth-430476085716 (layer F.Cu) (tedit 5A02FE31) (tstamp 5E3ECDA3)
    (at 159.75 70.75 270)
    (descr "SW PUSH 12mm http://katalog.we-online.de/em/datasheet/430476085716.pdf")
    (tags "tact sw push 12mm")
    (path /5E3EC982)
    (fp_text reference SW2 (at -2.25 2.5) (layer F.SilkS)
      (effects (font (size 1 1) (thickness 0.15)))
    )
    (fp_text value Reset (at 6.35 9.93 270) (layer F.Fab)
      (effects (font (size 1 1) (thickness 0.15)))
    )
    (fp_circle (center 6.35 2.54) (end 10.92905 2.54) (layer F.SilkS) (width 0.12))
    (fp_line (start 0.25 -3.5) (end 0.25 8.5) (layer F.Fab) (width 0.1))
    (fp_line (start 0.25 8.5) (end 12.25 8.5) (layer F.Fab) (width 0.1))
    (fp_line (start 12.25 8.5) (end 12.25 -3.5) (layer F.Fab) (width 0.1))
    (fp_line (start 12.25 -3.5) (end 0.25 -3.5) (layer F.Fab) (width 0.1))
    (fp_line (start 0.1 -1.53) (end 0.1 -3.65) (layer F.SilkS) (width 0.12))
    (fp_line (start 0.1 -3.65) (end 12.4 -3.65) (layer F.SilkS) (width 0.12))
    (fp_line (start 12.4 -3.65) (end 12.4 -1.53) (layer F.SilkS) (width 0.12))
    (fp_line (start 12.4 1.53) (end 12.4 3.47) (layer F.SilkS) (width 0.12))
    (fp_line (start 12.4 6.53) (end 12.4 8.65) (layer F.SilkS) (width 0.12))
    (fp_line (start 12.4 8.65) (end 0.1 8.65) (layer F.SilkS) (width 0.12))
    (fp_line (start 0.1 8.65) (end 0.1 6.53) (layer F.SilkS) (width 0.12))
    (fp_line (start 0.1 3.47) (end 0.1 1.53) (layer F.SilkS) (width 0.12))
    (fp_line (start -1.75 -3.75) (end -1.75 8.75) (layer F.CrtYd) (width 0.05))
    (fp_line (start -1.75 8.75) (end 14.25 8.75) (layer F.CrtYd) (width 0.05))
    (fp_line (start 14.25 8.75) (end 14.25 -3.75) (layer F.CrtYd) (width 0.05))
    (fp_line (start 14.25 -3.75) (end -1.75 -3.75) (layer F.CrtYd) (width 0.05))
    (fp_text user %R (at 6.35 2.54 270) (layer F.Fab)
      (effects (font (size 1 1) (thickness 0.15)))
    )
    (pad 1 thru_hole oval (at 12.5 0 270) (size 3 2.5) (drill 1.2) (layers *.Cu *.Mask)
      (net 1 GND))
    (pad 2 thru_hole oval (at 12.5 5 270) (size 3 2.5) (drill 1.2) (layers *.Cu *.Mask)
      (net 4 "Net-(J2-Pad1)"))
    (pad 1 thru_hole oval (at 0 0 270) (size 3 2.5) (drill 1.2) (layers *.Cu *.Mask)
      (net 1 GND))
    (pad 2 thru_hole oval (at 0 5 270) (size 3 2.5) (drill 1.2) (layers *.Cu *.Mask)
      (net 4 "Net-(J2-Pad1)"))
    (model ${KISYS3DMOD}/Button_Switch_THT.3dshapes/SW_PUSH-12mm_Wuerth-430476085716.wrl
      (at (xyz 0 0 0))
      (scale (xyz 1 1 1))
      (rotate (xyz 0 0 0))
    )
  )

  (gr_line (start 179 53) (end 148.5 53) (layer Edge.Cuts) (width 0.15))
  (gr_text RX (at 172 66 90) (layer F.SilkS) (tstamp 5E3ECF21)
    (effects (font (size 1 1) (thickness 0.1)))
  )
  (gr_text TX (at 169.5 65.75 90) (layer F.SilkS) (tstamp 5E3ECF21)
    (effects (font (size 1 1) (thickness 0.1)))
  )
  (gr_text GND (at 166.75 66.5 90) (layer F.SilkS) (tstamp 5E3ECF21)
    (effects (font (size 1 1) (thickness 0.1)))
  )
  (gr_text Reset (at 150 77 90) (layer F.SilkS)
    (effects (font (size 1.5 1.5) (thickness 0.3)))
  )
  (gr_text Flash (at 177.5 77 90) (layer F.SilkS)
    (effects (font (size 1.5 1.5) (thickness 0.3)))
  )
  (gr_text "Crafting Labs" (at 164.25 56.75) (layer B.SilkS) (tstamp 5E4BB8A3)
    (effects (font (size 1.5 1.5) (thickness 0.3)) (justify mirror))
  )
  (gr_text "RST\n" (at 150 66.5 90) (layer F.SilkS) (tstamp 5E4BB877)
    (effects (font (size 1 1) (thickness 0.1)))
  )
  (gr_text GND (at 160.25 66.5 90) (layer F.SilkS) (tstamp 5E4BB877)
    (effects (font (size 1 1) (thickness 0.1)))
  )
  (gr_text GPIO0 (at 152.5 67.25 90) (layer F.SilkS) (tstamp 5E4BB877)
    (effects (font (size 1 1) (thickness 0.1)))
  )
  (gr_text RX (at 155.25 66 90) (layer F.SilkS) (tstamp 5E4BB877)
    (effects (font (size 1 1) (thickness 0.1)))
  )
  (gr_text TX (at 157.75 66 90) (layer F.SilkS)
    (effects (font (size 1 1) (thickness 0.1)))
  )
  (gr_line (start 148.5 85.5) (end 148.5 53) (layer Edge.Cuts) (width 0.15))
  (gr_line (start 179 85.5) (end 148.5 85.5) (layer Edge.Cuts) (width 0.15) (tstamp 5EE259EB))
  (gr_line (start 178.5 53) (end 178.5 85.5) (layer Edge.Cuts) (width 0.15))

  (segment (start 155.08 63.5) (end 157 61.58) (width 0.25) (layer F.Cu) (net 2))
  (segment (start 170 61.58) (end 171.92 63.5) (width 0.25) (layer F.Cu) (net 2))
  (segment (start 157 61.58) (end 170 61.58) (width 0.25) (layer F.Cu) (net 2))
  (segment (start 168.530001 62.650001) (end 169.38 63.5) (width 0.25) (layer F.Cu) (net 3))
  (segment (start 167.91001 62.03001) (end 168.530001 62.650001) (width 0.25) (layer F.Cu) (net 3))
  (segment (start 159.08999 62.03001) (end 167.91001 62.03001) (width 0.25) (layer F.Cu) (net 3))
  (segment (start 157.62 63.5) (end 159.08999 62.03001) (width 0.25) (layer F.Cu) (net 3))
  (segment (start 154.75 81.5) (end 154.75 70.75) (width 0.25) (layer F.Cu) (net 4))
  (segment (start 154.75 83.25) (end 154.75 81.5) (width 0.25) (layer F.Cu) (net 4))
  (segment (start 154.75 68.25) (end 150 63.5) (width 0.25) (layer F.Cu) (net 4))
  (segment (start 154.75 70.75) (end 154.75 68.25) (width 0.25) (layer F.Cu) (net 4))
  (segment (start 167.5 83.25) (end 167.5 70.75) (width 0.25) (layer F.Cu) (net 5))
  (segment (start 167.5 70.5) (end 167.5 70.75) (width 0.25) (layer F.Cu) (net 5))
  (segment (start 167.5 70.5) (end 165 68) (width 0.25) (layer F.Cu) (net 5))
  (segment (start 157.04 68) (end 152.54 63.5) (width 0.25) (layer F.Cu) (net 5))
  (segment (start 165 68) (end 157.04 68) (width 0.25) (layer F.Cu) (net 5))

  (zone (net 1) (net_name GND) (layer F.Cu) (tstamp 0) (hatch edge 0.508)
    (connect_pads (clearance 0.508))
    (min_thickness 0.254)
    (fill yes (arc_segments 16) (thermal_gap 0.508) (thermal_bridge_width 0.508))
    (polygon
      (pts
        (xy 148.5 53) (xy 178.5 53) (xy 178.5 85.5) (xy 148.5 85.5)
      )
    )
    (filled_polygon
      (pts
        (xy 156.44967 68.484472) (xy 156.492071 68.547929) (xy 156.743463 68.715904) (xy 156.965148 68.76) (xy 156.965152 68.76)
        (xy 157.039999 68.774888) (xy 157.114846 68.76) (xy 159.063612 68.76) (xy 158.540087 69.043958) (xy 158.074983 69.617806)
        (xy 157.864885 70.32596) (xy 158.019618 70.623) (xy 159.623 70.623) (xy 159.623 70.603) (xy 159.877 70.603)
        (xy 159.877 70.623) (xy 161.480382 70.623) (xy 161.635115 70.32596) (xy 161.425017 69.617806) (xy 160.959913 69.043958)
        (xy 160.436388 68.76) (xy 164.685199 68.76) (xy 165.718618 69.79342) (xy 165.615 70.314345) (xy 165.615 71.185654)
        (xy 165.724369 71.735489) (xy 166.140991 72.359009) (xy 166.740001 72.759255) (xy 166.74 81.240747) (xy 166.140991 81.640991)
        (xy 165.724369 82.26451) (xy 165.615 82.814345) (xy 165.615 83.685654) (xy 165.724369 84.235489) (xy 166.094881 84.79)
        (xy 161.09449 84.79) (xy 161.425017 84.382194) (xy 161.635115 83.67404) (xy 161.480382 83.377) (xy 159.877 83.377)
        (xy 159.877 83.397) (xy 159.623 83.397) (xy 159.623 83.377) (xy 158.019618 83.377) (xy 157.864885 83.67404)
        (xy 158.074983 84.382194) (xy 158.40551 84.79) (xy 156.155119 84.79) (xy 156.525631 84.23549) (xy 156.635 83.685655)
        (xy 156.635 82.82596) (xy 157.864885 82.82596) (xy 158.019618 83.123) (xy 159.623 83.123) (xy 159.623 81.278428)
        (xy 159.877 81.278428) (xy 159.877 83.123) (xy 161.480382 83.123) (xy 161.635115 82.82596) (xy 161.425017 82.117806)
        (xy 160.959913 81.543958) (xy 160.310611 81.191779) (xy 160.169645 81.162305) (xy 159.877 81.278428) (xy 159.623 81.278428)
        (xy 159.330355 81.162305) (xy 159.189389 81.191779) (xy 158.540087 81.543958) (xy 158.074983 82.117806) (xy 157.864885 82.82596)
        (xy 156.635 82.82596) (xy 156.635 82.814346) (xy 156.525631 82.26451) (xy 156.109009 81.640991) (xy 155.51 81.240746)
        (xy 155.51 72.759253) (xy 156.109009 72.359009) (xy 156.525631 71.73549) (xy 156.635 71.185655) (xy 156.635 71.17404)
        (xy 157.864885 71.17404) (xy 158.074983 71.882194) (xy 158.540087 72.456042) (xy 159.189389 72.808221) (xy 159.330355 72.837695)
        (xy 159.623 72.721572) (xy 159.623 70.877) (xy 159.877 70.877) (xy 159.877 72.721572) (xy 160.169645 72.837695)
        (xy 160.310611 72.808221) (xy 160.959913 72.456042) (xy 161.425017 71.882194) (xy 161.635115 71.17404) (xy 161.480382 70.877)
        (xy 159.877 70.877) (xy 159.623 70.877) (xy 158.019618 70.877) (xy 157.864885 71.17404) (xy 156.635 71.17404)
        (xy 156.635 70.314346) (xy 156.525631 69.76451) (xy 156.109009 69.140991) (xy 155.51 68.740746) (xy 155.51 68.324846)
        (xy 155.524888 68.249999) (xy 155.51 68.175152) (xy 155.51 68.175148) (xy 155.465904 67.953463) (xy 155.424102 67.890902)
        (xy 155.340329 67.765526) (xy 155.340327 67.765524) (xy 155.297929 67.702071) (xy 155.234476 67.659673) (xy 152.559802 64.985)
        (xy 152.686256 64.985) (xy 152.906408 64.941209)
      )
    )
    (filled_polygon
      (pts
        (xy 162.901161 62.920582) (xy 162.785908 63.5) (xy 162.901161 64.079418) (xy 163.229375 64.570625) (xy 163.720582 64.898839)
        (xy 164.153744 64.985) (xy 164.446256 64.985) (xy 164.879418 64.898839) (xy 165.370625 64.570625) (xy 165.583843 64.251522)
        (xy 165.644817 64.381358) (xy 166.073076 64.771645) (xy 166.48311 64.941476) (xy 166.713 64.820155) (xy 166.713 63.627)
        (xy 166.693 63.627) (xy 166.693 63.373) (xy 166.713 63.373) (xy 166.713 63.353) (xy 166.967 63.353)
        (xy 166.967 63.373) (xy 166.987 63.373) (xy 166.987 63.627) (xy 166.967 63.627) (xy 166.967 64.820155)
        (xy 167.19689 64.941476) (xy 167.606924 64.771645) (xy 168.035183 64.381358) (xy 168.096157 64.251522) (xy 168.309375 64.570625)
        (xy 168.800582 64.898839) (xy 169.233744 64.985) (xy 169.526256 64.985) (xy 169.959418 64.898839) (xy 170.450625 64.570625)
        (xy 170.65 64.272239) (xy 170.849375 64.570625) (xy 171.340582 64.898839) (xy 171.773744 64.985) (xy 172.066256 64.985)
        (xy 172.499418 64.898839) (xy 172.990625 64.570625) (xy 173.19 64.272239) (xy 173.389375 64.570625) (xy 173.880582 64.898839)
        (xy 174.313744 64.985) (xy 174.606256 64.985) (xy 175.039418 64.898839) (xy 175.530625 64.570625) (xy 175.542816 64.552381)
        (xy 175.551843 64.597765) (xy 175.692191 64.807809) (xy 175.902235 64.948157) (xy 176.15 64.99744) (xy 177.79 64.99744)
        (xy 177.790001 84.79) (xy 173.84449 84.79) (xy 174.175017 84.382194) (xy 174.385115 83.67404) (xy 174.230382 83.377)
        (xy 172.627 83.377) (xy 172.627 83.397) (xy 172.373 83.397) (xy 172.373 83.377) (xy 170.769618 83.377)
        (xy 170.614885 83.67404) (xy 170.824983 84.382194) (xy 171.15551 84.79) (xy 168.905119 84.79) (xy 169.275631 84.23549)
        (xy 169.385 83.685655) (xy 169.385 82.82596) (xy 170.614885 82.82596) (xy 170.769618 83.123) (xy 172.373 83.123)
        (xy 172.373 81.278428) (xy 172.627 81.278428) (xy 172.627 83.123) (xy 174.230382 83.123) (xy 174.385115 82.82596)
        (xy 174.175017 82.117806) (xy 173.709913 81.543958) (xy 173.060611 81.191779) (xy 172.919645 81.162305) (xy 172.627 81.278428)
        (xy 172.373 81.278428) (xy 172.080355 81.162305) (xy 171.939389 81.191779) (xy 171.290087 81.543958) (xy 170.824983 82.117806)
        (xy 170.614885 82.82596) (xy 169.385 82.82596) (xy 169.385 82.814346) (xy 169.275631 82.26451) (xy 168.859009 81.640991)
        (xy 168.26 81.240746) (xy 168.26 72.759253) (xy 168.859009 72.359009) (xy 169.275631 71.73549) (xy 169.385 71.185655)
        (xy 169.385 71.17404) (xy 170.614885 71.17404) (xy 170.824983 71.882194) (xy 171.290087 72.456042) (xy 171.939389 72.808221)
        (xy 172.080355 72.837695) (xy 172.373 72.721572) (xy 172.373 70.877) (xy 172.627 70.877) (xy 172.627 72.721572)
        (xy 172.919645 72.837695) (xy 173.060611 72.808221) (xy 173.709913 72.456042) (xy 174.175017 71.882194) (xy 174.385115 71.17404)
        (xy 174.230382 70.877) (xy 172.627 70.877) (xy 172.373 70.877) (xy 170.769618 70.877) (xy 170.614885 71.17404)
        (xy 169.385 71.17404) (xy 169.385 70.32596) (xy 170.614885 70.32596) (xy 170.769618 70.623) (xy 172.373 70.623)
        (xy 172.373 68.778428) (xy 172.627 68.778428) (xy 172.627 70.623) (xy 174.230382 70.623) (xy 174.385115 70.32596)
        (xy 174.175017 69.617806) (xy 173.709913 69.043958) (xy 173.060611 68.691779) (xy 172.919645 68.662305) (xy 172.627 68.778428)
        (xy 172.373 68.778428) (xy 172.080355 68.662305) (xy 171.939389 68.691779) (xy 171.290087 69.043958) (xy 170.824983 69.617806)
        (xy 170.614885 70.32596) (xy 169.385 70.32596) (xy 169.385 70.314346) (xy 169.275631 69.76451) (xy 168.859009 69.140991)
        (xy 168.23549 68.724369) (xy 167.5 68.578071) (xy 166.79342 68.718619) (xy 165.590331 67.51553) (xy 165.547929 67.452071)
        (xy 165.296537 67.284096) (xy 165.074852 67.24) (xy 165.074847 67.24) (xy 165 67.225112) (xy 164.925153 67.24)
        (xy 157.354802 67.24) (xy 155.099801 64.985) (xy 155.226256 64.985) (xy 155.659418 64.898839) (xy 156.150625 64.570625)
        (xy 156.35 64.272239) (xy 156.549375 64.570625) (xy 157.040582 64.898839) (xy 157.473744 64.985) (xy 157.766256 64.985)
        (xy 158.199418 64.898839) (xy 158.690625 64.570625) (xy 158.903843 64.251522) (xy 158.964817 64.381358) (xy 159.393076 64.771645)
        (xy 159.80311 64.941476) (xy 160.033 64.820155) (xy 160.033 63.627) (xy 160.287 63.627) (xy 160.287 64.820155)
        (xy 160.51689 64.941476) (xy 160.926924 64.771645) (xy 161.355183 64.381358) (xy 161.601486 63.856892) (xy 161.480819 63.627)
        (xy 160.287 63.627) (xy 160.033 63.627) (xy 160.013 63.627) (xy 160.013 63.373) (xy 160.033 63.373)
        (xy 160.033 63.353) (xy 160.287 63.353) (xy 160.287 63.373) (xy 161.480819 63.373) (xy 161.601486 63.143108)
        (xy 161.435662 62.79001) (xy 162.988406 62.79001)
      )
    )
  )
  (zone (net 1) (net_name GND) (layer B.Cu) (tstamp 0) (hatch edge 0.508)
    (connect_pads (clearance 0.508))
    (min_thickness 0.254)
    (fill yes (arc_segments 16) (thermal_gap 0.508) (thermal_bridge_width 0.508))
    (polygon
      (pts
        (xy 148.5 53) (xy 178.5 53) (xy 178.5 85.5) (xy 148.5 85.5)
      )
    )
    (filled_polygon
      (pts
        (xy 177.79 62.00256) (xy 176.15 62.00256) (xy 175.902235 62.051843) (xy 175.692191 62.192191) (xy 175.551843 62.402235)
        (xy 175.542816 62.447619) (xy 175.530625 62.429375) (xy 175.039418 62.101161) (xy 174.606256 62.015) (xy 174.313744 62.015)
        (xy 173.880582 62.101161) (xy 173.389375 62.429375) (xy 173.19 62.727761) (xy 172.990625 62.429375) (xy 172.499418 62.101161)
        (xy 172.066256 62.015) (xy 171.773744 62.015) (xy 171.340582 62.101161) (xy 170.849375 62.429375) (xy 170.65 62.727761)
        (xy 170.450625 62.429375) (xy 169.959418 62.101161) (xy 169.526256 62.015) (xy 169.233744 62.015) (xy 168.800582 62.101161)
        (xy 168.309375 62.429375) (xy 168.096157 62.748478) (xy 168.035183 62.618642) (xy 167.606924 62.228355) (xy 167.19689 62.058524)
        (xy 166.967 62.179845) (xy 166.967 63.373) (xy 166.987 63.373) (xy 166.987 63.627) (xy 166.967 63.627)
        (xy 166.967 64.820155) (xy 167.19689 64.941476) (xy 167.606924 64.771645) (xy 168.035183 64.381358) (xy 168.096157 64.251522)
        (xy 168.309375 64.570625) (xy 168.800582 64.898839) (xy 169.233744 64.985) (xy 169.526256 64.985) (xy 169.959418 64.898839)
        (xy 170.450625 64.570625) (xy 170.65 64.272239) (xy 170.849375 64.570625) (xy 171.340582 64.898839) (xy 171.773744 64.985)
        (xy 172.066256 64.985) (xy 172.499418 64.898839) (xy 172.990625 64.570625) (xy 173.19 64.272239) (xy 173.389375 64.570625)
        (xy 173.880582 64.898839) (xy 174.313744 64.985) (xy 174.606256 64.985) (xy 175.039418 64.898839) (xy 175.530625 64.570625)
        (xy 175.542816 64.552381) (xy 175.551843 64.597765) (xy 175.692191 64.807809) (xy 175.902235 64.948157) (xy 176.15 64.99744)
        (xy 177.79 64.99744) (xy 177.790001 84.79) (xy 173.84449 84.79) (xy 174.175017 84.382194) (xy 174.385115 83.67404)
        (xy 174.230382 83.377) (xy 172.627 83.377) (xy 172.627 83.397) (xy 172.373 83.397) (xy 172.373 83.377)
        (xy 170.769618 83.377) (xy 170.614885 83.67404) (xy 170.824983 84.382194) (xy 171.15551 84.79) (xy 168.905119 84.79)
        (xy 169.275631 84.23549) (xy 169.385 83.685655) (xy 169.385 82.82596) (xy 170.614885 82.82596) (xy 170.769618 83.123)
        (xy 172.373 83.123) (xy 172.373 81.278428) (xy 172.627 81.278428) (xy 172.627 83.123) (xy 174.230382 83.123)
        (xy 174.385115 82.82596) (xy 174.175017 82.117806) (xy 173.709913 81.543958) (xy 173.060611 81.191779) (xy 172.919645 81.162305)
        (xy 172.627 81.278428) (xy 172.373 81.278428) (xy 172.080355 81.162305) (xy 171.939389 81.191779) (xy 171.290087 81.543958)
        (xy 170.824983 82.117806) (xy 170.614885 82.82596) (xy 169.385 82.82596) (xy 169.385 82.814346) (xy 169.275631 82.26451)
        (xy 168.859009 81.640991) (xy 168.23549 81.224369) (xy 167.5 81.078071) (xy 166.764511 81.224369) (xy 166.140991 81.640991)
        (xy 165.724369 82.26451) (xy 165.615 82.814345) (xy 165.615 83.685654) (xy 165.724369 84.235489) (xy 166.094881 84.79)
        (xy 161.09449 84.79) (xy 161.425017 84.382194) (xy 161.635115 83.67404) (xy 161.480382 83.377) (xy 159.877 83.377)
        (xy 159.877 83.397) (xy 159.623 83.397) (xy 159.623 83.377) (xy 158.019618 83.377) (xy 157.864885 83.67404)
        (xy 158.074983 84.382194) (xy 158.40551 84.79) (xy 156.155119 84.79) (xy 156.525631 84.23549) (xy 156.635 83.685655)
        (xy 156.635 82.82596) (xy 157.864885 82.82596) (xy 158.019618 83.123) (xy 159.623 83.123) (xy 159.623 81.278428)
        (xy 159.877 81.278428) (xy 159.877 83.123) (xy 161.480382 83.123) (xy 161.635115 82.82596) (xy 161.425017 82.117806)
        (xy 160.959913 81.543958) (xy 160.310611 81.191779) (xy 160.169645 81.162305) (xy 159.877 81.278428) (xy 159.623 81.278428)
        (xy 159.330355 81.162305) (xy 159.189389 81.191779) (xy 158.540087 81.543958) (xy 158.074983 82.117806) (xy 157.864885 82.82596)
        (xy 156.635 82.82596) (xy 156.635 82.814346) (xy 156.525631 82.26451) (xy 156.109009 81.640991) (xy 155.48549 81.224369)
        (xy 154.75 81.078071) (xy 154.014511 81.224369) (xy 153.390991 81.640991) (xy 152.974369 82.26451) (xy 152.865 82.814345)
        (xy 152.865 83.685654) (xy 152.974369 84.235489) (xy 153.344881 84.79) (xy 149.21 84.79) (xy 149.21 70.314345)
        (xy 152.865 70.314345) (xy 152.865 71.185654) (xy 152.974369 71.735489) (xy 153.390991 72.359009) (xy 154.01451 72.775631)
        (xy 154.75 72.921929) (xy 155.485489 72.775631) (xy 156.109009 72.359009) (xy 156.525631 71.73549) (xy 156.635 71.185655)
        (xy 156.635 71.17404) (xy 157.864885 71.17404) (xy 158.074983 71.882194) (xy 158.540087 72.456042) (xy 159.189389 72.808221)
        (xy 159.330355 72.837695) (xy 159.623 72.721572) (xy 159.623 70.877) (xy 159.877 70.877) (xy 159.877 72.721572)
        (xy 160.169645 72.837695) (xy 160.310611 72.808221) (xy 160.959913 72.456042) (xy 161.425017 71.882194) (xy 161.635115 71.17404)
        (xy 161.480382 70.877) (xy 159.877 70.877) (xy 159.623 70.877) (xy 158.019618 70.877) (xy 157.864885 71.17404)
        (xy 156.635 71.17404) (xy 156.635 70.32596) (xy 157.864885 70.32596) (xy 158.019618 70.623) (xy 159.623 70.623)
        (xy 159.623 68.778428) (xy 159.877 68.778428) (xy 159.877 70.623) (xy 161.480382 70.623) (xy 161.635115 70.32596)
        (xy 161.63167 70.314345) (xy 165.615 70.314345) (xy 165.615 71.185654) (xy 165.724369 71.735489) (xy 166.140991 72.359009)
        (xy 166.76451 72.775631) (xy 167.5 72.921929) (xy 168.235489 72.775631) (xy 168.859009 72.359009) (xy 169.275631 71.73549)
        (xy 169.385 71.185655) (xy 169.385 71.17404) (xy 170.614885 71.17404) (xy 170.824983 71.882194) (xy 171.290087 72.456042)
        (xy 171.939389 72.808221) (xy 172.080355 72.837695) (xy 172.373 72.721572) (xy 172.373 70.877) (xy 172.627 70.877)
        (xy 172.627 72.721572) (xy 172.919645 72.837695) (xy 173.060611 72.808221) (xy 173.709913 72.456042) (xy 174.175017 71.882194)
        (xy 174.385115 71.17404) (xy 174.230382 70.877) (xy 172.627 70.877) (xy 172.373 70.877) (xy 170.769618 70.877)
        (xy 170.614885 71.17404) (xy 169.385 71.17404) (xy 169.385 70.32596) (xy 170.614885 70.32596) (xy 170.769618 70.623)
        (xy 172.373 70.623) (xy 172.373 68.778428) (xy 172.627 68.778428) (xy 172.627 70.623) (xy 174.230382 70.623)
        (xy 174.385115 70.32596) (xy 174.175017 69.617806) (xy 173.709913 69.043958) (xy 173.060611 68.691779) (xy 172.919645 68.662305)
        (xy 172.627 68.778428) (xy 172.373 68.778428) (xy 172.080355 68.662305) (xy 171.939389 68.691779) (xy 171.290087 69.043958)
        (xy 170.824983 69.617806) (xy 170.614885 70.32596) (xy 169.385 70.32596) (xy 169.385 70.314346) (xy 169.275631 69.76451)
        (xy 168.859009 69.140991) (xy 168.23549 68.724369) (xy 167.5 68.578071) (xy 166.764511 68.724369) (xy 166.140991 69.140991)
        (xy 165.724369 69.76451) (xy 165.615 70.314345) (xy 161.63167 70.314345) (xy 161.425017 69.617806) (xy 160.959913 69.043958)
        (xy 160.310611 68.691779) (xy 160.169645 68.662305) (xy 159.877 68.778428) (xy 159.623 68.778428) (xy 159.330355 68.662305)
        (xy 159.189389 68.691779) (xy 158.540087 69.043958) (xy 158.074983 69.617806) (xy 157.864885 70.32596) (xy 156.635 70.32596)
        (xy 156.635 70.314346) (xy 156.525631 69.76451) (xy 156.109009 69.140991) (xy 155.48549 68.724369) (xy 154.75 68.578071)
        (xy 154.014511 68.724369) (xy 153.390991 69.140991) (xy 152.974369 69.76451) (xy 152.865 70.314345) (xy 149.21 70.314345)
        (xy 149.21 64.99744) (xy 150.85 64.99744) (xy 151.097765 64.948157) (xy 151.307809 64.807809) (xy 151.448157 64.597765)
        (xy 151.457184 64.552381) (xy 151.469375 64.570625) (xy 151.960582 64.898839) (xy 152.393744 64.985) (xy 152.686256 64.985)
        (xy 153.119418 64.898839) (xy 153.610625 64.570625) (xy 153.81 64.272239) (xy 154.009375 64.570625) (xy 154.500582 64.898839)
        (xy 154.933744 64.985) (xy 155.226256 64.985) (xy 155.659418 64.898839) (xy 156.150625 64.570625) (xy 156.35 64.272239)
        (xy 156.549375 64.570625) (xy 157.040582 64.898839) (xy 157.473744 64.985) (xy 157.766256 64.985) (xy 158.199418 64.898839)
        (xy 158.690625 64.570625) (xy 158.903843 64.251522) (xy 158.964817 64.381358) (xy 159.393076 64.771645) (xy 159.80311 64.941476)
        (xy 160.033 64.820155) (xy 160.033 63.627) (xy 160.287 63.627) (xy 160.287 64.820155) (xy 160.51689 64.941476)
        (xy 160.926924 64.771645) (xy 161.355183 64.381358) (xy 161.601486 63.856892) (xy 161.480819 63.627) (xy 160.287 63.627)
        (xy 160.033 63.627) (xy 160.013 63.627) (xy 160.013 63.5) (xy 162.785908 63.5) (xy 162.901161 64.079418)
        (xy 163.229375 64.570625) (xy 163.720582 64.898839) (xy 164.153744 64.985) (xy 164.446256 64.985) (xy 164.879418 64.898839)
        (xy 165.370625 64.570625) (xy 165.583843 64.251522) (xy 165.644817 64.381358) (xy 166.073076 64.771645) (xy 166.48311 64.941476)
        (xy 166.713 64.820155) (xy 166.713 63.627) (xy 166.693 63.627) (xy 166.693 63.373) (xy 166.713 63.373)
        (xy 166.713 62.179845) (xy 166.48311 62.058524) (xy 166.073076 62.228355) (xy 165.644817 62.618642) (xy 165.583843 62.748478)
        (xy 165.370625 62.429375) (xy 164.879418 62.101161) (xy 164.446256 62.015) (xy 164.153744 62.015) (xy 163.720582 62.101161)
        (xy 163.229375 62.429375) (xy 162.901161 62.920582) (xy 162.785908 63.5) (xy 160.013 63.5) (xy 160.013 63.373)
        (xy 160.033 63.373) (xy 160.033 62.179845) (xy 160.287 62.179845) (xy 160.287 63.373) (xy 161.480819 63.373)
        (xy 161.601486 63.143108) (xy 161.355183 62.618642) (xy 160.926924 62.228355) (xy 160.51689 62.058524) (xy 160.287 62.179845)
        (xy 160.033 62.179845) (xy 159.80311 62.058524) (xy 159.393076 62.228355) (xy 158.964817 62.618642) (xy 158.903843 62.748478)
        (xy 158.690625 62.429375) (xy 158.199418 62.101161) (xy 157.766256 62.015) (xy 157.473744 62.015) (xy 157.040582 62.101161)
        (xy 156.549375 62.429375) (xy 156.35 62.727761) (xy 156.150625 62.429375) (xy 155.659418 62.101161) (xy 155.226256 62.015)
        (xy 154.933744 62.015) (xy 154.500582 62.101161) (xy 154.009375 62.429375) (xy 153.81 62.727761) (xy 153.610625 62.429375)
        (xy 153.119418 62.101161) (xy 152.686256 62.015) (xy 152.393744 62.015) (xy 151.960582 62.101161) (xy 151.469375 62.429375)
        (xy 151.457184 62.447619) (xy 151.448157 62.402235) (xy 151.307809 62.192191) (xy 151.097765 62.051843) (xy 150.85 62.00256)
        (xy 149.21 62.00256) (xy 149.21 53.71) (xy 177.79 53.71)
      )
    )
  )
)
