<?xml version="1.0" encoding="UTF-8" standalone="no"?>
<!-- Created with Inkscape (http://www.inkscape.org/) -->

<svg
   xmlns:dc="http://purl.org/dc/elements/1.1/"
   xmlns:cc="http://creativecommons.org/ns#"
   xmlns:rdf="http://www.w3.org/1999/02/22-rdf-syntax-ns#"
   xmlns:svg="http://www.w3.org/2000/svg"
   xmlns="http://www.w3.org/2000/svg"
   xmlns:sodipodi="http://sodipodi.sourceforge.net/DTD/sodipodi-0.dtd"
   xmlns:inkscape="http://www.inkscape.org/namespaces/inkscape"
   width="297mm"
   height="210mm"
   viewBox="0 0 297 210"
   version="1.1"
   id="svg8"
   inkscape:version="0.92.3 (2405546, 2018-03-11)"
   sodipodi:docname="round_clock-outside-front.1.svg">
  <defs
     id="defs2" />
  <sodipodi:namedview
     id="base"
     pagecolor="#ffffff"
     bordercolor="#666666"
     borderopacity="1.0"
     inkscape:pageopacity="0.0"
     inkscape:pageshadow="2"
     inkscape:zoom="0.2917506"
     inkscape:cx="209.09102"
     inkscape:cy="-87.135514"
     inkscape:document-units="mm"
     inkscape:current-layer="layer1"
     showgrid="false"
     showguides="false"
     inkscape:window-width="1920"
     inkscape:window-height="996"
     inkscape:window-x="0"
     inkscape:window-y="27"
     inkscape:window-maximized="1"
     inkscape:snap-bbox="true"
     inkscape:bbox-paths="true"
     inkscape:bbox-nodes="true"
     inkscape:snap-bbox-edge-midpoints="true"
     inkscape:snap-bbox-midpoints="true"
     inkscape:object-paths="true"
     inkscape:snap-intersection-paths="true"
     inkscape:snap-smooth-nodes="true"
     inkscape:snap-midpoints="true"
     inkscape:snap-object-midpoints="true"
     inkscape:snap-center="true"
     inkscape:measure-start="-396.451,-58.5536"
     inkscape:measure-end="-390.055,-180.78"
     inkscape:object-nodes="true"
     inkscape:snap-nodes="true"
     inkscape:snap-others="true" />
  <metadata
     id="metadata5">
    <rdf:RDF>
      <cc:Work
         rdf:about="">
        <dc:format>image/svg+xml</dc:format>
        <dc:type
           rdf:resource="http://purl.org/dc/dcmitype/StillImage" />
        <dc:title />
      </cc:Work>
    </rdf:RDF>
  </metadata>
  <g
     inkscape:label="Calque 1"
     inkscape:groupmode="layer"
     id="layer1"
     transform="translate(0,-87)">
    <g
       transform="translate(-35.97594,75.497897)"
       id="g7893-03"
       style="stroke-width:0.1;stroke-miterlimit:4;stroke-dasharray:none" />
    <g
       transform="translate(39.595335,-233.46189)"
       id="g3919-0"
       style="stroke-width:0.1;stroke-miterlimit:4;stroke-dasharray:none" />
    <path
       style="fill:none;fill-opacity:1;stroke:#000000;stroke-width:0.1;stroke-miterlimit:4;stroke-dasharray:none;stroke-opacity:1"
       d="M 267.26708,97.049987 V 129.29138 L 270.26701,129.29107 V 130.7412 132.19106 H 267.26708 248.56692 245.56692 V 130.7412 129.29107 H 248.56692 V 97.049987 H 251.56667 L 251.56717,102.55096 H 254.91717 V 104.05073 H 260.91716 V 102.55096 H 264.2673 L 264.26679,97.049987 Z"
       id="rect5631-1-4-9-9-73-6-6-1-0"
       inkscape:connector-curvature="0"
       sodipodi:nodetypes="ccccccccccccccccccccc" />
    <path
       style="fill:none;fill-opacity:1;stroke:#000000;stroke-width:0.1;stroke-miterlimit:4;stroke-dasharray:none;stroke-opacity:1"
       d="M 267.26708,133.24939 V 165.49078 L 270.26701,165.49047 V 166.9406 168.39046 H 267.26708 248.56692 245.56692 V 166.9406 165.49047 H 248.56692 V 133.24939 H 251.56667 L 251.56717,138.75037 H 254.91717 V 140.25014 H 260.91716 V 138.75037 H 264.2673 L 264.26679,133.24939 Z"
       id="rect5631-1-4-9-9-73-6-6-1-0-1"
       inkscape:connector-curvature="0"
       sodipodi:nodetypes="ccccccccccccccccccccc" />
    <path
       style="fill:none;fill-opacity:1;stroke:#000000;stroke-width:0.1;stroke-miterlimit:4;stroke-dasharray:none;stroke-opacity:1"
       d="M 267.26708,169.54879 V 201.79018 L 270.26701,201.78987 V 203.24 204.68986 H 267.26708 248.56692 245.56692 V 203.24 201.78987 H 248.56692 V 169.54879 H 251.56667 L 251.56717,175.04977 H 254.91717 V 176.54954 H 260.91716 V 175.04977 H 264.2673 L 264.26679,169.54879 Z"
       id="rect5631-1-4-9-9-73-6-6-1-0-9"
       inkscape:connector-curvature="0"
       sodipodi:nodetypes="ccccccccccccccccccccc" />
    <path
       style="fill:none;fill-opacity:1;stroke:#000000;stroke-width:0.1;stroke-miterlimit:4;stroke-dasharray:none;stroke-opacity:1"
       d="M 267.26708,205.74819 V 237.98958 L 270.26701,237.98927 V 239.4394 240.88926 H 267.26708 248.56692 245.56692 V 239.4394 237.98927 H 248.56692 V 205.74819 H 251.56667 L 251.56717,211.24917 H 254.91717 V 212.74894 H 260.91716 V 211.24917 H 264.2673 L 264.26679,205.74819 Z"
       id="rect5631-1-4-9-9-73-6-6-1-0-6"
       inkscape:connector-curvature="0"
       sodipodi:nodetypes="ccccccccccccccccccccc" />
    <path
       style="fill:none;fill-opacity:1;stroke:#000000;stroke-width:0.1;stroke-miterlimit:4;stroke-dasharray:none;stroke-opacity:1"
       d="M 267.26708,241.94759 V 274.18898 L 270.26701,274.18867 V 275.6388 277.08866 H 267.26708 248.56692 245.56692 V 275.6388 274.18867 H 248.56692 V 241.94759 H 251.56667 L 251.56717,247.44857 H 254.91717 V 248.94834 H 260.91716 V 247.44857 H 264.2673 L 264.26679,241.94759 Z"
       id="rect5631-1-4-9-9-73-6-6-1-0-93"
       inkscape:connector-curvature="0"
       sodipodi:nodetypes="ccccccccccccccccccccc" />
    <path
       style="fill:none;fill-opacity:1;stroke:#000000;stroke-width:0.1;stroke-miterlimit:4;stroke-dasharray:none;stroke-opacity:1"
       d="M 225.80842,132.19105 V 99.949667 L 222.80849,99.949977 V 98.499837 97.049987 H 225.80842 244.50858 247.50858 V 98.499837 99.949977 H 244.50858 V 132.19105 H 241.50883 L 241.50833,126.69008 H 238.15833 V 125.19032 H 232.15834 V 126.69008 H 228.8082 L 228.80871,132.19105 Z"
       id="rect5631-1-4-9-9-73-6-6-1-8"
       inkscape:connector-curvature="0"
       sodipodi:nodetypes="ccccccccccccccccccccc" />
    <path
       style="fill:none;fill-opacity:1;stroke:#000000;stroke-width:0.1;stroke-miterlimit:4;stroke-dasharray:none;stroke-opacity:1"
       d="M 225.80842,168.39046 V 136.14907 L 222.80849,136.14938 V 134.69924 133.24939 H 225.80842 244.50858 247.50858 V 134.69924 136.14938 H 244.50858 V 168.39046 H 241.50883 L 241.50833,162.88948 H 238.15833 V 161.38972 H 232.15834 V 162.88948 H 228.8082 L 228.80871,168.39046 Z"
       id="rect5631-1-4-9-9-73-6-6-1-3-0"
       inkscape:connector-curvature="0"
       sodipodi:nodetypes="ccccccccccccccccccccc" />
    <path
       style="fill:none;fill-opacity:1;stroke:#000000;stroke-width:0.1;stroke-miterlimit:4;stroke-dasharray:none;stroke-opacity:1"
       d="M 225.80842,204.68985 V 172.44847 L 222.80849,172.44878 V 170.99864 169.54879 H 225.80842 244.50858 247.50858 V 170.99864 172.44878 H 244.50858 V 204.68985 H 241.50883 L 241.50833,199.18888 H 238.15833 V 197.68912 H 232.15834 V 199.18888 H 228.8082 L 228.80871,204.68985 Z"
       id="rect5631-1-4-9-9-73-6-6-1-1-5"
       inkscape:connector-curvature="0"
       sodipodi:nodetypes="ccccccccccccccccccccc" />
    <path
       style="fill:none;fill-opacity:1;stroke:#000000;stroke-width:0.1;stroke-miterlimit:4;stroke-dasharray:none;stroke-opacity:1"
       d="M 225.80842,240.88925 V 208.64788 L 222.80849,208.64819 V 207.19804 205.74819 H 225.80842 244.50858 247.50858 V 207.19804 208.64819 H 244.50858 V 240.88925 H 241.50883 L 241.50833,235.38828 H 238.15833 V 233.88852 H 232.15834 V 235.38828 H 228.8082 L 228.80871,240.88925 Z"
       id="rect5631-1-4-9-9-73-6-6-1-10-6"
       inkscape:connector-curvature="0"
       sodipodi:nodetypes="ccccccccccccccccccccc" />
    <path
       style="fill:none;fill-opacity:1;stroke:#000000;stroke-width:0.1;stroke-miterlimit:4;stroke-dasharray:none;stroke-opacity:1"
       d="M 225.80842,277.08865 V 244.84728 L 222.80849,244.84759 V 243.39744 241.9476 H 225.80842 244.50858 247.50858 V 243.39744 244.84759 H 244.50858 V 277.08865 H 241.50883 L 241.50833,271.58768 H 238.15833 V 270.08792 H 232.15834 V 271.58768 H 228.8082 L 228.80871,277.08865 Z"
       id="rect5631-1-4-9-9-73-6-6-1-34-6"
       inkscape:connector-curvature="0"
       sodipodi:nodetypes="ccccccccccccccccccccc" />
    <path
       style="fill:none;fill-opacity:1;stroke:#000000;stroke-width:0.1;stroke-miterlimit:4;stroke-dasharray:none;stroke-opacity:1"
       d="M 221.75015,97.049987 V 129.29138 L 224.75008,129.29107 V 130.7412 132.19106 H 221.75015 203.04999 200.04999 V 130.7412 129.29107 H 203.04999 V 97.049987 H 206.04974 L 206.05024,102.55096 H 209.40024 V 104.05073 H 215.40023 V 102.55096 H 218.75037 L 218.74986,97.049987 Z"
       id="rect5631-1-4-9-9-73-6-6-1-0-4"
       inkscape:connector-curvature="0"
       sodipodi:nodetypes="ccccccccccccccccccccc" />
    <path
       style="fill:none;fill-opacity:1;stroke:#000000;stroke-width:0.1;stroke-miterlimit:4;stroke-dasharray:none;stroke-opacity:1"
       d="M 221.75015,133.24939 V 165.49078 L 224.75008,165.49047 V 166.9406 168.39046 H 221.75015 203.04999 200.04999 V 166.9406 165.49047 H 203.04999 V 133.24939 H 206.04974 L 206.05024,138.75037 H 209.40024 V 140.25014 H 215.40023 V 138.75037 H 218.75037 L 218.74986,133.24939 Z"
       id="rect5631-1-4-9-9-73-6-6-1-0-1-0"
       inkscape:connector-curvature="0"
       sodipodi:nodetypes="ccccccccccccccccccccc" />
    <path
       style="fill:none;fill-opacity:1;stroke:#000000;stroke-width:0.1;stroke-miterlimit:4;stroke-dasharray:none;stroke-opacity:1"
       d="M 221.75015,169.54879 V 201.79019 L 224.75008,201.78988 V 203.24 204.68986 H 221.75015 203.04999 200.04999 V 203.24 201.78988 H 203.04999 V 169.54879 H 206.04974 L 206.05024,175.04977 H 209.40024 V 176.54954 H 215.40023 V 175.04977 H 218.75037 L 218.74986,169.54879 Z"
       id="rect5631-1-4-9-9-73-6-6-1-0-9-0"
       inkscape:connector-curvature="0"
       sodipodi:nodetypes="ccccccccccccccccccccc" />
    <path
       style="fill:none;fill-opacity:1;stroke:#000000;stroke-width:0.1;stroke-miterlimit:4;stroke-dasharray:none;stroke-opacity:1"
       d="M 221.75015,205.74819 V 237.98959 L 224.75008,237.98928 V 239.4394 240.88926 H 221.75015 203.04999 200.04999 V 239.4394 237.98928 H 203.04999 V 205.74819 H 206.04974 L 206.05024,211.24917 H 209.40024 V 212.74894 H 215.40023 V 211.24917 H 218.75037 L 218.74986,205.74819 Z"
       id="rect5631-1-4-9-9-73-6-6-1-0-6-4"
       inkscape:connector-curvature="0"
       sodipodi:nodetypes="ccccccccccccccccccccc" />
    <path
       style="fill:none;fill-opacity:1;stroke:#000000;stroke-width:0.1;stroke-miterlimit:4;stroke-dasharray:none;stroke-opacity:1"
       d="M 221.75015,241.9476 V 274.18899 L 224.75008,274.18868 V 275.6388 277.08866 H 221.75015 203.04999 200.04999 V 275.6388 274.18868 H 203.04999 V 241.9476 H 206.04974 L 206.05024,247.44857 H 209.40024 V 248.94834 H 215.40023 V 247.44857 H 218.75037 L 218.74986,241.9476 Z"
       id="rect5631-1-4-9-9-73-6-6-1-0-93-6"
       inkscape:connector-curvature="0"
       sodipodi:nodetypes="ccccccccccccccccccccc" />
    <path
       style="fill:none;fill-opacity:1;stroke:#000000;stroke-width:0.1;stroke-miterlimit:4;stroke-dasharray:none;stroke-opacity:1"
       d="M 67.891449,160.75059 V 192.99198 L 64.891519,192.99167 V 194.4418 195.89166 H 67.891449 86.591609 89.591609 V 194.4418 192.99167 H 86.591609 V 160.75059 H 83.591859 L 83.591359,166.25156 H 80.241359 V 167.75133 H 74.24137 V 166.25156 H 70.891229 L 70.891739,160.75059 Z"
       id="rect5631-1-4-9-9-73-6-6-1-0-2"
       inkscape:connector-curvature="0"
       sodipodi:nodetypes="ccccccccccccccccccccc" />
    <path
       style="fill:none;fill-opacity:1;stroke:#000000;stroke-width:0.1;stroke-miterlimit:4;stroke-dasharray:none;stroke-opacity:1"
       d="M 67.891449,196.94999 V 229.19138 L 64.891519,229.19107 V 230.6412 232.09106 H 67.891449 86.591609 89.591609 V 230.6412 229.19107 H 86.591609 V 196.94999 H 83.591859 L 83.591359,202.45097 H 80.241359 V 203.95074 H 74.24137 V 202.45097 H 70.891229 L 70.891739,196.94999 Z"
       id="rect5631-1-4-9-9-73-6-6-1-0-1-6"
       inkscape:connector-curvature="0"
       sodipodi:nodetypes="ccccccccccccccccccccc" />
    <path
       style="fill:none;fill-opacity:1;stroke:#000000;stroke-width:0.1;stroke-miterlimit:4;stroke-dasharray:none;stroke-opacity:1"
       d="M 109.35011,195.89165 V 163.65027 L 112.35004,163.65058 V 162.20044 160.75059 H 109.35011 90.649949 87.649949 V 162.20044 163.65058 H 90.649949 V 195.89165 H 93.649699 L 93.650199,190.39068 H 97.0002 V 188.89092 H 103.00019 V 190.39068 H 106.35033 L 106.34982,195.89165 Z"
       id="rect5631-1-4-9-9-73-6-6-1-8-7"
       inkscape:connector-curvature="0"
       sodipodi:nodetypes="ccccccccccccccccccccc" />
    <path
       style="fill:none;fill-opacity:1;stroke:#000000;stroke-width:0.1;stroke-miterlimit:4;stroke-dasharray:none;stroke-opacity:1"
       d="M 109.35011,232.09106 V 199.84967 L 112.35004,199.84998 V 198.39984 196.94999 H 109.35011 90.649949 87.649949 V 198.39984 199.84998 H 90.649949 V 232.09106 H 93.649699 L 93.650199,226.59008 H 97.0002 V 225.09032 H 103.00019 V 226.59008 H 106.35033 L 106.34982,232.09106 Z"
       id="rect5631-1-4-9-9-73-6-6-1-3-0-5"
       inkscape:connector-curvature="0"
       sodipodi:nodetypes="ccccccccccccccccccccc" />
    <path
       style="fill:none;fill-opacity:1;stroke:#000000;stroke-width:0.1;stroke-miterlimit:4;stroke-dasharray:none;stroke-opacity:1"
       d="M 113.40838,160.75059 V 192.99198 L 110.40845,192.99167 V 194.4418 195.89166 H 113.40838 132.10854 135.10854 V 194.4418 192.99167 H 132.10854 V 160.75059 H 129.10879 L 129.10829,166.25156 H 125.75829 V 167.75133 H 119.7583 V 166.25156 H 116.40816 L 116.40867,160.75059 Z"
       id="rect5631-1-4-9-9-73-6-6-1-0-4-6"
       inkscape:connector-curvature="0"
       sodipodi:nodetypes="ccccccccccccccccccccc" />
    <path
       style="fill:none;fill-opacity:1;stroke:#000000;stroke-width:0.1;stroke-miterlimit:4;stroke-dasharray:none;stroke-opacity:1"
       d="M 113.40838,196.94999 V 229.19138 L 110.40845,229.19107 V 230.6412 232.09106 H 113.40838 132.10854 135.10854 V 230.6412 229.19107 H 132.10854 V 196.94999 H 129.10879 L 129.10829,202.45097 H 125.75829 V 203.95074 H 119.7583 V 202.45097 H 116.40816 L 116.40867,196.94999 Z"
       id="rect5631-1-4-9-9-73-6-6-1-0-1-0-9"
       inkscape:connector-curvature="0"
       sodipodi:nodetypes="ccccccccccccccccccccc" />
    <path
       style="fill:none;fill-opacity:1;stroke:#000000;stroke-width:0.1;stroke-miterlimit:4;stroke-dasharray:none;stroke-opacity:1"
       d="M 22.279328,132.72021 V 100.47883 L 25.279258,100.47914 V 99.029004 97.579154 H 22.279328 3.5791667 0.57916667 V 99.029004 100.47914 H 3.5791667 V 132.72021 H 6.5789167 L 6.5794168,127.21924 H 9.9294176 V 125.71948 H 15.929408 V 127.21924 H 19.279548 L 19.279038,132.72021 Z"
       id="rect5631-1-4-9-9-73-6-6-1-8-7-8"
       inkscape:connector-curvature="0"
       sodipodi:nodetypes="ccccccccccccccccccccc" />
    <path
       style="fill:none;fill-opacity:1;stroke:#0000f8;stroke-width:0.1;stroke-miterlimit:4;stroke-dasharray:none;stroke-opacity:1"
       d="M 198.99172,132.19105 V 99.949667 L 201.99165,99.949977 V 98.499837 97.049987 H 198.99172 180.29156 177.29156 V 98.499837 99.949977 H 180.29156 V 132.19105 H 183.29131 L 183.29181,126.69008 H 186.64181 V 125.19032 H 192.6418 V 126.69008 H 195.99194 L 195.99143,132.19105 Z"
       id="path1956" />
    <path
       id="rect4467-05-9-0"
       style="fill:none;fill-opacity:1;stroke:#0000f8;stroke-width:0.1;stroke-miterlimit:4;stroke-dasharray:none;stroke-opacity:1"
       d="M 60.82595,159.87697 63.69074,162.74177 C 45.5719,181.98347 45.578308,212.00929 63.70536,231.24326 L 60.82595,234.12267 62.87661,236.17334 65.74104,233.30891 C 84.982846,251.42821 115.0092,251.42181 134.24327,233.29429 L 137.12268,236.1737 139.17334,234.12304 136.3089,231.25861 C 154.42833,212.01666 154.42177,181.99005 136.29393,162.75602 L 139.17334,159.8766 137.12268,157.82594 134.25788,160.69073 C 115.01603,142.57177 84.98995,142.57834 65.75603,160.70572 L 62.87662,157.8263 Z M 94.39466,129.76804 92.59272,112.6249 C 93.45862,112.00863 93.92609,110.97421 93.81641,109.91707 93.70456,108.85945 93.03207,107.94389 92.0563,107.52082 L 91.9116,106.14573 89.02807,106.44905 89.17276,107.82573 C 88.30686,108.44199 87.83942,109.47641 87.94907,110.53355 88.06076,111.59135 88.73328,112.50713 89.70915,112.93031 L 91.5106,130.07086 Z M 87.39768,130.722 83.81392,113.86153 C 84.61082,113.15819 84.96774,112.08052 84.74822,111.04052 84.52639,110.00018 83.76167,109.15983 82.7468,108.84117 L 82.45947,107.48878 79.62348,108.09184 79.91132,109.44577 C 79.1144,110.14911 78.75747,111.22679 78.977,112.26678 79.19882,113.30712 79.96355,114.14747 80.97844,114.46613 L 84.56167,131.32454 Z M 80.53917,132.4025 75.21237,116.00868 C 75.93129,115.22583 76.17353,114.11678 75.84644,113.10549 75.51701,112.0943 74.66881,111.33868 73.62644,111.12783 L 73.19958,109.81267 70.44159,110.70873 70.86948,112.02546 C 70.15055,112.80831 69.90835,113.91736 70.23542,114.92865 70.5647,115.94005 71.41293,116.69586 72.45544,116.90681 L 77.78121,133.29806 Z M 73.89358,134.79047 66.88266,119.04364 C 67.5159,118.18988 67.64088,117.06143 67.20976,116.0898 66.7764,115.11852 65.85374,114.45568 64.79493,114.35503 L 64.23269,113.09207 61.58373,114.27133 62.14701,115.53584 C 61.51376,116.3896 61.38879,117.51805 61.81991,118.48968 62.25313,119.46117 63.17582,120.12419 64.23475,120.22495 L 71.24465,135.96975 Z M 67.5343,137.86006 58.91571,122.9323 C 59.45606,122.01713 59.46236,120.88201 58.93222,119.96089 58.39985,119.04009 57.413,118.47716 56.34943,118.48759 L 55.65852,117.29024 53.14706,118.74029 53.83951,119.9392 C 53.29916,120.85436 53.29283,121.98945 53.82299,122.91056 54.35534,123.83138 55.34219,124.3943 56.40577,124.38388 L 65.02283,139.30958 Z M 61.53053,141.57767 51.39885,127.63278 C 51.84049,126.66604 51.72799,125.53646 51.10428,124.67585 50.47865,123.81585 49.43852,123.35915 48.38195,123.48057 L 47.5691,122.3623 45.22353,124.06659 46.03741,125.18641 C 45.59561,126.15307 45.70792,127.28263 46.33144,128.14334 46.95717,129.00353 47.99755,129.46023 49.05429,129.33863 L 59.18441,143.28196 Z M 55.9474,145.90247 44.41427,133.09343 C 44.75277,132.08577 44.52296,130.97394 43.81273,130.18302 43.10045,129.39304 42.01801,129.04772 40.97985,129.27919 L 40.05483,128.25185 37.90044,130.1918 38.82648,131.22066 C 38.48797,132.22833 38.71778,133.34016 39.42801,134.13108 40.1403,134.92104 41.22271,135.2664 42.26091,135.03492 L 53.79251,147.84239 Z M 50.84848,150.78641 38.03945,139.25325 C 38.27059,138.21574 37.92571,137.1341 37.13667,136.42189 36.34586,135.71074 35.23346,135.48032 34.22522,135.81883 L 33.19788,134.89384 31.25744,137.04874 32.28632,137.97529 C 32.05518,139.0128 32.40007,140.09444 33.1891,140.80665 33.97991,141.51779 35.09231,141.74822 36.10055,141.40971 L 48.90802,152.94131 Z M 46.28702,156.1773 32.34265,146.04611 C 32.46412,144.99032 32.00832,143.95077 31.14944,143.32484 30.28854,142.70003 29.15792,142.58708 28.19043,143.02925 L 27.07216,142.2169 25.36787,144.56249 26.48769,145.3764 C 26.36633,146.4323 26.82234,147.47187 27.68144,148.09769 28.54221,148.72229 29.67256,148.83522 30.6399,148.39326 L 44.58219,158.52288 Z M 42.31414,162.01517 27.38737,153.39708 C 27.39775,152.33419 26.8355,151.34791 25.91564,150.81533 24.99417,150.28407 23.85807,150.29 22.94219,150.83084 L 21.74534,150.13993 20.29533,152.65088 21.4942,153.34335 C 21.48384,154.40622 22.04608,155.39252 22.96596,155.9251 23.88742,156.45635 25.02353,156.45043 25.93941,155.90959 L 40.86356,164.52612 Z M 38.97325,168.2365 23.22795,161.22608 C 23.12714,160.16788 22.46481,159.24572 21.49421,158.81226 20.52233,158.38024 19.39315,158.50486 18.53884,159.13835 L 17.27585,158.57612 16.0966,161.22504 17.36166,161.78832 C 17.46238,162.84638 18.12448,163.76848 19.09486,164.20211 20.06675,164.63412 21.19595,164.50953 22.05026,163.87604 L 37.79346,170.88543 Z M 36.30106,174.77306 19.9093,169.44676 C 19.69838,168.40515 18.9435,167.55748 17.93318,167.22778 16.92147,166.89964 15.81144,167.1415 15.02795,167.86082 L 13.71329,167.43397 12.81722,170.19143 14.13393,170.61929 C 14.34466,171.66111 15.09957,172.50899 16.11005,172.8388 17.12186,173.16683 18.23192,172.92476 19.01529,172.20525 L 35.405,177.53049 Z M 34.3265,181.55351 17.4681,177.97026 C 17.14965,176.95614 16.31023,176.19176 15.27081,175.96935 14.23026,175.7489 13.15161,176.10569 12.44774,176.90314 L 11.09537,176.61583 10.49281,179.45184 11.84674,179.73966 C 12.16519,180.75378 13.0046,181.51816 14.04402,181.74057 15.08456,181.96102 16.16323,181.60423 16.8671,180.8068 L 33.72343,184.39003 Z M 33.07231,188.49779 15.93176,186.69635 C 15.50904,185.7212 14.59442,185.04882 13.53758,184.93626 12.47972,184.82582 11.44436,185.29337 10.82769,186.15996 L 9.45257,186.01526 9.14976,188.89879 10.5264,189.04349 C 10.94922,190.0188 11.86403,190.69121 12.92109,190.80361 13.97896,190.91405 15.01432,190.4465 15.63098,189.57991 L 32.76898,191.38133 Z M 32.55038,195.54492 H 15.31526 C 14.79289,194.61924 13.81293,194.04616 12.75005,194.04475 11.68641,194.04542 10.70548,194.61861 10.18273,195.54492 H 8.8004 V 198.44448 H 10.18483 C 10.7072,199.37016 11.68716,199.94324 12.75004,199.94465 13.81367,199.94398 14.79458,199.37079 15.31733,198.44448 H 32.54988 Z M 32.76845,202.60855 15.62686,204.40999 C 15.01059,203.54409 13.97615,203.07662 12.91901,203.18629 11.86121,203.298 10.94543,203.97052 10.52227,204.94641 L 9.14766,205.09111 9.45101,207.97464 10.82768,207.82994 C 11.44396,208.69584 12.47838,209.16331 13.53552,209.05364 14.59331,208.94196 15.50909,208.26944 15.93226,207.29355 L 33.07129,205.49211 Z M 33.72343,209.60503 16.86347,213.18879 C 16.16003,212.3917 15.08211,212.03478 14.04195,212.25449 13.0018,212.47648 12.16169,213.24117 11.8431,214.2559 L 10.49075,214.54324 11.09381,217.37923 12.44773,217.09139 C 13.15107,217.88832 14.22875,218.24524 15.26875,218.02571 16.30908,217.80389 17.14943,217.03916 17.46809,216.02427 L 34.32547,212.44155 Z M 35.40396,216.46353 19.01065,221.79034 C 18.2278,221.0714 17.11873,220.82919 16.10745,221.15626 15.09605,221.48554 14.34025,222.33377 14.12929,223.37628 L 12.81463,223.80313 13.7107,226.56109 15.02742,226.13321 C 15.81027,226.85213 16.91932,227.09436 17.93061,226.76728 18.94201,226.43801 19.69782,225.58978 19.90877,224.54727 L 36.30002,219.2215 Z M 37.79296,223.1086 22.04559,230.12006 C 21.19185,229.4868 20.06339,229.36184 19.09177,229.79295 18.12027,230.22615 17.45722,231.14883 17.35647,232.20778 L 16.094,232.77002 17.27329,235.41897 18.53781,234.85567 C 19.39157,235.48893 20.51999,235.61389 21.49162,235.18281 22.46312,234.74958 23.12615,233.8269 23.2269,232.76795 L 38.97222,225.75806 Z M 40.86253,229.46791 25.93426,238.087 C 25.01895,237.54643 23.88361,237.54011 22.96232,238.07047 22.04152,238.60286 21.47863,239.58971 21.48905,240.65328 L 20.2922,241.34418 21.74175,243.85566 22.94063,243.16319 C 23.85593,243.70376 24.99129,243.71006 25.91253,243.17973 26.83333,242.64736 27.39627,241.66052 27.38585,240.59695 L 42.31258,231.97939 Z M 44.58067,235.47168 30.63473,245.60387 C 29.66784,245.16202 28.53802,245.27454 27.67729,245.89843 26.81747,246.5242 26.36101,247.56427 26.48252,248.62073 L 25.36373,249.43361 27.06856,251.77919 28.18838,250.96531 C 29.15503,251.40711 30.28459,251.29477 31.14531,250.67125 32.00547,250.04551 32.46217,249.00514 32.34057,247.94842 L 46.28494,237.81726 Z M 48.90596,241.05325 36.09486,252.58845 C 35.08736,252.25015 33.97577,252.47994 33.18498,253.18998 32.39502,253.90226 32.04966,254.98467 32.28114,256.02287 L 31.25381,256.94788 33.19376,259.10228 34.22263,258.17623 C 35.23012,258.51453 36.34175,258.28474 37.13253,257.5747 37.92268,256.86253 38.26824,255.78009 38.03686,254.74181 L 50.84592,243.20868 Z M 53.79043,246.15217 42.25522,258.96326 C 41.21771,258.73212 40.13605,259.07701 39.42385,259.86605 38.71271,260.65686 38.48229,261.76925 38.82079,262.7775 L 37.89578,263.80482 40.05071,265.74528 40.97725,264.71638 C 42.01476,264.94753 43.0964,264.60265 43.8086,263.81361 44.51976,263.02279 44.75019,261.9104 44.41168,260.90216 L 55.94481,248.09259 Z M 59.18132,250.71311 49.04807,264.66006 C 47.99228,264.53859 46.95274,264.99439 46.3268,265.85328 45.70199,266.71418 45.58905,267.8448 46.03122,268.81227 L 45.21886,269.93056 47.56444,271.63485 48.37836,270.515 C 49.43426,270.63636 50.47381,270.18035 51.09962,269.32128 51.72423,268.46051 51.83718,267.33016 51.39521,266.36281 L 61.5269,252.41739 Z M 65.01918,254.68548 56.39904,269.61531 C 55.33616,269.60494 54.34988,270.16718 53.81729,271.08705 53.28604,272.00852 53.29197,273.14464 53.83279,274.06052 L 53.1419,275.25787 55.65283,276.70739 56.3448,275.50851 C 57.40768,275.51888 58.39398,274.95664 58.92656,274.03676 59.45763,273.11543 59.4517,271.97957 58.91105,271.06382 L 67.53014,256.135 Z M 71.24052,258.02534 64.22804,273.77527 C 63.16995,273.87597 62.24785,274.53809 61.81421,275.50851 61.3822,276.48037 61.50679,277.60956 62.1403,278.46388 L 61.57806,279.72684 64.227,280.90611 64.79027,279.64106 C 65.84838,279.54033 66.77048,278.87821 67.20408,277.90783 67.63592,276.93585 67.51114,275.80667 66.87748,274.95246 L 73.88892,259.20509 Z M 77.77605,260.697 72.44872,277.09341 C 71.40689,277.30415 70.55901,278.05906 70.22921,279.06953 69.90121,280.08135 70.14327,281.19139 70.86276,281.97476 L 70.43541,283.28943 73.19336,284.18549 73.62125,282.86876 C 74.66307,282.65802 75.51096,281.90312 75.84076,280.89266 76.16878,279.88085 75.92672,278.77079 75.20721,277.98741 L 80.53401,261.59359 Z M 84.55651,262.67106 80.97171,279.53462 C 79.95778,279.85323 79.19361,280.69259 78.9713,281.7319 78.75086,282.77246 79.10765,283.85111 79.90511,284.55498 L 79.61726,285.90736 82.45378,286.50991 82.74162,285.15598 C 83.75555,284.83737 84.51972,283.99801 84.74203,282.9587 84.96258,281.91822 84.606,280.8396 83.80874,280.13562 L 87.39302,263.27462 Z M 91.50025,263.92523 89.69831,281.07095 C 88.72317,281.49367 88.05077,282.40828 87.93822,283.46514 87.82769,284.52289 88.29501,285.55825 89.16139,286.17502 L 89.01722,287.55014 91.90075,287.85296 92.04545,286.47631 C 93.02076,286.0535 93.69314,285.13865 93.80554,284.08161 93.91598,283.02376 93.44843,281.98836 92.58184,281.3717 L 94.38381,264.22858 Z M 98.54687,264.44715 V 281.68745 C 97.6212,282.20982 97.04811,283.18978 97.0467,284.25267 97.04737,285.31629 97.62058,286.29721 98.54687,286.81995 V 288.20229 H 101.44641 V 286.81788 C 102.37209,286.29552 102.94517,285.31555 102.9466,284.25267 102.94592,283.18904 102.37272,282.20813 101.44642,281.68539 V 264.44715 Z M 105.60585,264.23478 107.40729,281.37532 C 106.5412,281.9917 106.07374,283.02635 106.18359,284.08368 106.29546,285.1413 106.96795,286.05686 107.94371,286.47993 L 108.08841,287.85452 110.97194,287.5517 110.82724,286.17452 C 111.69315,285.55825 112.16061,284.52381 112.05094,283.46667 111.93908,282.40905 111.26658,281.49351 110.29085,281.07044 L 108.48941,263.93195 Z M 112.60233,263.28031 116.18609,280.13922 C 115.38919,280.84256 115.03227,281.92023 115.25179,282.96023 115.47362,284.00057 116.23834,284.84092 117.25321,285.15958 L 117.54054,286.51144 120.37653,285.90891 120.08869,284.55445 C 120.88562,283.85111 121.24254,282.77344 121.02301,281.73344 120.80119,280.6931 120.03646,279.85275 119.02157,279.53409 L 115.43885,262.67775 Z M 119.46134,261.59978 124.78711,277.99154 C 124.06818,278.77439 123.82598,279.88344 124.15306,280.89474 124.48242,281.90626 125.33088,282.66213 126.37358,282.87292 L 126.80042,284.18755 129.55839,283.29149 129.13054,281.97476 C 129.84944,281.19192 130.09166,280.08289 129.76458,279.0716 129.43531,278.0602 128.58708,277.30437 127.54457,277.09341 L 122.21933,260.70372 Z M 126.10693,259.21131 133.11736,274.95711 C 132.48431,275.81077 132.35935,276.93892 132.79025,277.91042 133.22345,278.88192 134.14614,279.54496 135.20508,279.64572 L 135.76732,280.90868 138.41627,279.72943 137.853,278.4644 C 138.48607,277.61075 138.61101,276.48257 138.18011,275.51107 137.74688,274.53958 136.8242,273.87656 135.76525,273.7758 L 128.75586,258.03257 Z M 132.46675,256.14225 141.0843,271.06845 C 140.54395,271.98362 140.53762,273.11874 141.06777,274.03986 141.60014,274.96066 142.58701,275.52359 143.65058,275.51316 L 144.34148,276.71051 146.85296,275.26046 146.16049,274.06155 C 146.70107,273.14625 146.70736,272.01091 146.17703,271.08965 145.64453,270.16906 144.65771,269.60634 143.59425,269.61687 L 134.97772,254.69273 Z M 138.47051,252.42411 148.60117,266.36797 C 148.15937,267.33463 148.27168,268.46419 148.8952,269.3249 149.52094,270.18509 150.56131,270.64179 151.61803,270.52018 L 152.43041,271.63845 154.77649,269.93416 153.96261,268.81383 C 154.40441,267.84718 154.29207,266.71762 153.66855,265.8569 153.04281,264.99672 152.00244,264.54002 150.94572,264.66162 L 140.81663,250.71983 Z M 144.05364,248.09931 155.58575,260.90732 C 155.24745,261.91482 155.47724,263.02644 156.18728,263.81723 156.89946,264.60738 157.98189,264.95293 159.02017,264.72158 L 159.94465,265.7489 162.09958,263.80845 161.17354,262.77956 C 161.5117,261.77197 161.28172,260.66035 160.5715,259.86967 159.85943,259.07968 158.77723,258.73416 157.73911,258.96533 L 146.20804,246.15939 Z M 149.15306,243.21487 161.96056,254.74697 C 161.72942,255.78448 162.07431,256.86612 162.86335,257.57833 163.65416,258.28948 164.76655,258.5199 165.7748,258.18139 L 166.80212,259.1064 168.74258,256.9515 167.71368,256.02546 C 167.94483,254.98795 167.59995,253.90631 166.81091,253.1941 166.02009,252.48296 164.90771,252.25253 163.89946,252.59104 L 151.09352,241.06047 Z M 153.71403,237.82398 167.65736,247.95411 C 167.53568,249.01009 167.99153,250.04988 168.85058,250.67591 169.71159,251.30053 170.84218,251.4133 171.80957,250.97097 L 172.92786,251.78385 174.63215,249.43774 173.5123,248.62435 C 173.63388,247.56827 173.17784,246.52848 172.31858,245.90256 171.45757,245.27793 170.32698,245.16516 169.35958,245.60749 L 155.41832,235.4784 Z M 157.68691,231.98608 172.61264,240.60314 C 172.60226,241.66602 173.1645,242.65231 174.08438,243.18489 175.00585,243.71615 176.14194,243.71022 177.05782,243.16939 L 178.25466,243.86082 179.70469,241.34987 178.50581,240.6574 C 178.51618,239.59452 177.95394,238.60823 177.03406,238.07565 176.1126,237.5444 174.97648,237.55032 174.0606,238.09116 L 159.13646,229.47463 Z M 161.02727,225.76425 176.77207,232.77467 C 176.87277,233.83277 177.53489,234.75487 178.50528,235.18849 179.47738,235.62056 180.60684,235.49575 181.46118,234.86189 L 182.72364,235.42413 183.90341,232.7752 182.63836,232.21243 C 182.53763,231.15434 181.87551,230.23224 180.90513,229.79864 179.93326,229.36663 178.80407,229.49122 177.94976,230.12471 L 162.20705,223.11585 Z M 163.69949,219.22769 180.09071,224.55346 C 180.30145,225.59528 181.05636,226.44317 182.06683,226.77297 183.07865,227.10098 184.18869,226.85891 184.97206,226.13943 L 186.28673,226.56678 187.18279,223.80932 185.86607,223.38146 C 185.65532,222.33964 184.90042,221.49176 183.88997,221.16195 182.87815,220.83392 181.76809,221.07599 180.98471,221.7955 L 164.59555,216.47026 Z M 165.67352,212.44724 182.53192,216.03049 C 182.85037,217.04461 183.68979,217.80899 184.7292,218.0314 185.76976,218.25185 186.84841,217.89506 187.55228,217.09761 L 188.90414,217.38492 189.50721,214.5489 188.15327,214.26109 C 187.83483,213.24697 186.99541,212.48259 185.956,212.26018 184.91544,212.03973 183.83679,212.39652 183.13292,213.19397 L 166.27708,209.61122 Z M 166.92769,205.50296 184.06775,207.3044 C 184.49055,208.27971 185.4054,208.95209 186.46244,209.06449 187.52029,209.17493 188.55566,208.70738 189.17233,207.84079 L 190.54694,207.98549 190.85026,205.10143 189.47361,204.95673 C 189.0508,203.98142 188.13595,203.30903 187.07892,203.19664 186.02106,203.0862 184.98566,203.55375 184.369,204.42034 L 167.23104,202.61889 Z M 167.44965,198.45583 H 184.68474 C 185.20725,199.38129 186.18719,199.95417 187.24997,199.95549 188.31349,199.95494 189.29438,199.38196 189.81725,198.45583 H 191.19962 V 195.55627 H 189.81518 C 189.29282,194.63059 188.31285,194.05751 187.24997,194.0561 186.18634,194.05677 185.20543,194.62996 184.68269,195.55627 H 167.44964 Z M 167.23207,191.39167 184.37262,189.58973 C 184.98887,190.456 186.02357,190.92368 187.08098,190.81393 188.13873,190.70196 189.05429,190.02926 189.47723,189.05331 L 190.85182,188.90914 190.54901,186.02507 189.17233,186.16978 C 188.55595,185.30369 187.5213,184.83622 186.46397,184.94608 185.40635,185.05794 184.49081,185.73043 184.06775,186.70617 L 166.92925,188.50761 Z M 166.27761,184.39469 183.13652,180.81143 C 183.83999,181.60817 184.91767,181.96488 185.95756,181.74523 186.99777,181.52351 187.83808,180.75899 188.15691,179.74432 L 189.50927,179.45648 188.90621,176.62049 187.55175,176.90833 C 186.84828,176.11162 185.77063,175.75488 184.73074,175.97453 183.69053,176.19625 182.85021,176.96077 182.53139,177.97544 L 165.67508,181.55867 Z M 164.59708,177.53618 180.98887,172.20991 C 181.77172,172.92881 182.88075,173.17103 183.89204,172.84396 184.90343,172.51468 185.65927,171.66646 185.87022,170.62394 L 187.18485,170.19659 186.28879,167.43913 184.97206,167.86701 C 184.18924,167.14809 183.08019,166.90586 182.0689,167.23294 181.05771,167.56237 180.30209,168.41057 180.09124,169.45295 L 163.70102,174.77822 Z M 162.20861,170.89009 177.95442,163.87966 C 178.80807,164.5127 179.93622,164.63767 180.90772,164.20677 181.87906,163.77364 182.54208,162.85117 182.64302,161.79244 L 183.90598,161.2302 182.72673,158.58127 181.46171,159.14404 C 180.60805,158.51097 179.4799,158.38601 178.5084,158.81691 177.5369,159.25014 176.87386,160.17282 176.7731,161.23175 L 161.02883,168.24116 Z M 159.13852,164.5313 174.06575,155.91322 C 174.98092,156.45358 176.11604,156.45991 177.03716,155.92975 177.95796,155.39738 178.52089,154.41054 178.51046,153.34697 L 179.70781,152.65553 178.25776,150.14459 177.05885,150.83652 C 176.14369,150.29617 175.0086,150.28984 174.08748,150.81999 173.16667,151.35236 172.60375,152.3392 172.61417,153.40277 L 157.689,162.01983 Z M 155.42038,158.52754 169.36527,148.39585 C 170.33192,148.83765 171.46149,148.72533 172.3222,148.10182 173.18239,147.47608 173.63909,146.43571 173.51749,145.37899 L 174.63575,144.56661 172.93146,142.22053 171.81164,143.03441 C 170.84485,142.59242 169.71503,142.70477 168.8542,143.32847 167.99402,143.9542 167.53732,144.99458 167.65892,146.0513 L 153.7161,156.18142 Z M 151.09558,152.94544 163.90462,141.41177 C 164.91236,141.75015 166.02422,141.52015 166.81503,140.80974 167.60482,140.09756 167.95015,139.01539 167.71888,137.97738 L 168.7462,137.05237 166.80575,134.89744 165.77739,135.82401 C 164.76973,135.4855 163.65789,135.7153 162.86697,136.42552 162.07719,137.13772 161.73186,138.21989 161.96316,139.25791 L 149.15566,150.79001 Z M 146.21061,147.84602 157.7448,135.03645 C 158.78205,135.26751 159.86339,134.92287 160.57563,134.1342 161.28695,133.34325 161.51739,132.23063 161.17869,131.22222 L 162.1037,130.1949 159.94881,128.25497 159.02276,129.28383 C 157.98536,129.05256 156.90374,129.39726 156.1914,130.1861 155.48007,130.97703 155.24965,132.08968 155.58834,133.09806 L 144.05624,145.90556 Z M 140.81972,143.28504 150.95194,129.34016 C 152.00784,129.46152 153.04739,129.00552 153.67321,128.14644 154.29786,127.28546 154.4106,126.15484 153.9683,125.18745 L 154.78115,124.06916 152.43504,122.36487 151.62165,123.48522 C 150.56568,123.36354 149.52589,123.81939 148.89986,124.67844 148.27523,125.53945 148.16246,126.67004 148.60479,127.63743 L 138.47467,141.58023 Z M 134.98185,139.31217 143.60044,124.38441 C 144.66322,124.39489 145.64948,123.83286 146.18219,122.91317 146.71345,121.9917 146.70752,120.85558 146.16669,119.9397 L 146.85812,118.74235 144.34717,117.29233 143.65471,118.49174 C 142.59193,118.48126 141.60567,119.04329 141.07295,119.96296 140.5417,120.88442 140.54762,122.02054 141.08846,122.93642 L 132.4709,137.86265 Z M 128.76105,135.97231 135.77197,120.22495 C 136.83007,120.12425 137.75217,119.46213 138.18579,118.49174 138.61765,117.51977 138.49287,116.39058 137.85919,115.53635 L 138.42143,114.27338 135.7725,113.09414 135.20973,114.35866 C 134.15164,114.45939 133.22954,115.1215 132.79594,116.09189 132.36393,117.06376 132.48852,118.19295 133.12201,119.04726 L 126.11212,134.79253 Z M 122.22396,133.30013 127.55079,116.9063 C 128.59248,116.69564 129.44031,115.94097 129.77027,114.93071 130.0983,113.91889 129.85624,112.80883 129.13673,112.02546 L 129.56408,110.71029 126.80665,109.81473 126.37876,111.13095 C 125.33694,111.34169 124.48906,112.0966 124.15925,113.10705 123.83122,114.11887 124.07329,115.22893 124.7928,116.0123 L 119.46703,132.40353 Z M 115.44351,131.3261 119.02779,114.4651 C 120.04191,114.14665 120.80629,113.30723 121.0287,112.26781 121.24915,111.22726 120.89236,110.14861 120.09491,109.44474 L 120.38222,108.09288 117.54623,107.48981 117.25839,108.84427 C 116.24427,109.16272 115.47989,110.00213 115.25748,111.04155 115.03703,112.0821 115.39382,113.16076 116.19127,113.86463 L 112.60802,130.72303 Z M 108.49973,130.07242 110.3017,112.92927 C 111.27701,112.50647 111.94939,111.59162 112.06179,110.53458 112.17223,109.47673 111.70468,108.44136 110.83809,107.82469 L 110.98278,106.45008 108.09873,106.14676 107.95403,107.52392 C 106.97909,107.9468 106.30694,108.86136 106.19447,109.9181 106.0839,110.97585 106.55123,112.01125 107.41764,112.62802 L 105.6162,129.76857 Z M 101.45314,129.55048 V 112.31279 C 102.37881,111.79043 102.95192,110.81046 102.95332,109.74755 102.95263,108.68393 102.37944,107.70301 101.45314,107.18027 V 105.79793 H 98.55356 L 98.55358,107.18234 C 97.62791,107.7047 97.05481,108.68467 97.05341,109.74755 97.05407,110.81118 97.62726,111.79212 98.55357,112.31486 V 129.54997 Z M 199.94999,196.99999 C 199.95,252.20085 155.20085,296.95 99.99999,296.95 44.79913,296.95 0.04999,252.20085 0.05,196.99999 0.05,141.79913 44.79913,97.049987 99.99999,97.049987 155.20085,97.049987 199.94999,141.79913 199.94999,196.99999 Z M 3.52388,193.44022 3.68088,190.44433 6.5769,190.59611 6.4199,193.592 Z M 4.42433,183.3751 4.89363,180.41203 7.75793,180.86569 7.28863,183.82876 Z M 6.37186,173.45941 7.14832,170.56163 9.94951,171.3122 9.17305,174.20998 Z M 9.34523,163.80161 10.42033,161.00087 13.12771,162.04013 12.05261,164.84088 Z M 13.31174,154.50767 14.67371,151.83465 17.25763,153.15122 15.89565,155.82424 Z M 18.22806,145.67928 19.86198,143.16326 22.29412,144.74272 20.66021,147.25873 Z M 24.04024,137.413 25.9282,135.08155 28.18192,136.90658 26.29396,139.23802 Z M 30.68459,129.79948 32.80592,127.67816 34.85653,129.72877 32.7352,131.85009 Z M 38.08839,122.92227 40.41984,121.03431 42.24486,123.28803 39.91342,125.176 Z M 46.17049,116.85655 48.68651,115.22263 50.26596,117.65477 47.74995,119.28869 Z M 54.84225,111.66888 57.51527,110.30691 58.83184,112.89083 56.15882,114.25281 Z M 64.00884,107.41601 66.80958,106.34091 67.84885,109.04829 65.04811,110.12339 Z M 73.56974,104.14471 76.46752,103.36825 77.21809,106.16943 74.32032,106.94589 Z M 83.42017,101.89059 86.38324,101.42129 86.83689,104.28558 83.87383,104.75488 Z M 93.45601,100.67893 96.45189,100.52192 96.60367,103.41795 93.60778,103.57496 Z M 3.68075,203.54018 3.52375,200.5443 6.41977,200.39252 6.57678,203.38841 Z M 4.89241,213.57602 4.42311,210.61295 7.2874,210.1593 7.7567,213.12236 Z M 7.14653,223.42645 6.37007,220.52867 9.17125,219.7781 9.94771,222.67587 Z M 10.41783,232.98735 9.34273,230.18661 12.0501,229.14734 13.12521,231.94808 Z M 14.6707,242.15394 13.30873,239.48092 15.89264,238.16435 17.25462,240.83737 Z M 19.85835,250.8257 18.22444,248.30968 20.65658,246.73023 22.29049,249.24624 Z M 25.92408,258.9078 24.03611,256.57635 26.28984,254.75133 28.1778,257.08277 Z M 32.80129,266.3116 30.67997,264.19027 32.73058,262.13966 34.85189,264.26099 Z M 40.4148,272.95595 38.08336,271.06799 39.90839,268.81427 42.23983,270.70223 Z M 48.68109,278.76813 46.16507,277.13421 47.74452,274.70207 50.26053,276.33598 Z M 57.50948,283.68445 54.83645,282.32248 56.15303,279.73856 58.82605,281.10053 Z M 66.80342,287.65096 64.00268,286.57585 65.04194,283.86847 67.84269,284.94358 Z M 76.46121,290.62432 73.56344,289.84787 74.31401,287.04667 77.21179,287.82314 Z M 86.37691,292.57185 83.41384,292.10256 83.8675,289.23826 86.83057,289.70756 Z M 96.44203,293.47231 93.44614,293.31531 93.59792,290.41928 96.5938,290.57629 Z M 196.47595,200.56363 196.31894,203.55952 193.42292,203.40775 193.57992,200.41186 Z M 195.57549,210.62876 195.10619,213.59183 192.24189,213.13816 192.71119,210.1751 Z M 193.62796,220.54445 192.8515,223.44223 190.05031,222.69165 190.82677,219.79387 Z M 190.65459,230.20225 189.57949,233.00298 186.87211,231.96372 187.94721,229.16298 Z M 186.68808,239.49619 185.32611,242.16921 182.74219,240.85264 184.10417,238.17961 Z M 181.77176,248.32458 180.13785,250.8406 177.7057,249.26114 179.33961,246.74513 Z M 175.95958,256.59086 174.07162,258.9223 171.8179,257.09727 173.70586,254.76583 Z M 169.31523,264.20437 167.1939,266.32569 165.14329,264.27508 167.26462,262.15376 Z M 161.91143,271.08158 159.57998,272.96955 157.75497,270.71582 160.0864,268.82786 Z M 153.82933,277.14731 151.31331,278.78123 149.73386,276.34909 152.24987,274.71517 Z M 145.15757,282.33496 142.48455,283.69694 141.16798,281.11302 143.841,279.75105 Z M 135.99098,286.58783 133.19024,287.66294 132.15097,284.95556 134.95171,283.88046 Z M 126.4301,289.85914 123.53231,290.6356 122.78175,287.83441 125.67951,287.05795 Z M 116.57966,292.11326 113.61659,292.58255 113.16294,289.71826 116.126,289.24897 Z M 106.54382,293.32491 103.54794,293.48192 103.39616,290.58589 106.39204,290.42889 Z M 103.55821,100.52396 106.5541,100.68096 106.40232,103.57698 103.40643,103.41998 Z M 113.62333,101.42441 116.5864,101.89371 116.13274,104.75801 113.16967,104.28871 Z M 123.53902,103.37195 126.4368,104.1484 125.68623,106.94959 122.78845,106.17313 Z M 133.19682,106.34531 135.99756,107.42042 134.9583,110.1278 132.15755,109.05269 Z M 142.49076,110.31182 145.16378,111.67379 143.84721,114.25772 141.17419,112.89574 Z M 151.31915,115.22816 153.83517,116.86207 152.25572,119.29421 149.73971,117.6603 Z M 159.58544,121.04033 161.91688,122.92829 160.09185,125.18201 157.7604,123.29405 Z M 167.19895,127.68468 169.32027,129.80601 167.26966,131.85662 165.14834,129.73529 Z M 174.07616,135.08848 175.96412,137.41993 173.7104,139.24495 171.82243,136.91352 Z M 180.14189,143.17058 181.7758,145.6866 179.34366,147.26605 177.70974,144.75004 Z M 185.32954,151.84234 186.69151,154.51536 184.10759,155.83193 182.74562,153.15891 Z M 189.58241,161.00893 190.65751,163.80967 187.95013,164.84894 186.87503,162.0482 Z M 192.85371,170.56983 193.63017,173.46761 190.82899,174.21818 190.05253,171.32041 Z M 195.10783,180.42026 195.57713,183.38333 192.71284,183.83698 192.24354,180.87392 Z M 196.31949,190.4561 196.4765,193.45199 193.58047,193.60376 193.42346,190.60787 Z" />
    <path
       style="fill:none;fill-opacity:1;stroke:#000000;stroke-width:0.1;stroke-miterlimit:4;stroke-dasharray:none;stroke-opacity:1"
       d="M 35.720227,274.72066 H 3.4788467 L 3.4791567,271.72073 H 2.0290167 0.57916667 V 274.72066 293.42083 296.42083 H 2.0290167 3.4791567 V 293.42083 H 35.720227 V 290.42108 L 30.219257,290.42058 V 287.07058 H 28.719497 V 281.07059 H 30.219257 V 277.72044 L 35.720227,277.72096 Z"
       id="rect5631-1-4-9-9-73-6-6-1-8-7-8-8"
       inkscape:connector-curvature="0"
       sodipodi:nodetypes="ccccccccccccccccccccc" />
    <path
       style="fill:none;fill-opacity:1;stroke:#000000;stroke-width:0.1;stroke-miterlimit:4;stroke-dasharray:none;stroke-opacity:1"
       d="M 163.85059,293.80979 H 196.09197 L 196.09166,296.80971 H 197.5418 198.99165 V 293.80979 275.10963 272.10963 H 197.5418 196.09166 V 275.10963 H 163.85059 V 278.10938 L 169.35156,278.10987 V 281.45988 H 170.85132 V 287.45987 H 169.35156 V 290.81001 L 163.85059,290.8095 Z"
       id="rect5631-1-4-9-9-73-6-6-1-8-7-8-83"
       inkscape:connector-curvature="0"
       sodipodi:nodetypes="ccccccccccccccccccccc" />
  </g>
</svg>
