<?xml version="1.0" encoding="UTF-8" standalone="no"?>
<svg
   xmlns:dc="http://purl.org/dc/elements/1.1/"
   xmlns:cc="http://creativecommons.org/ns#"
   xmlns:rdf="http://www.w3.org/1999/02/22-rdf-syntax-ns#"
   xmlns:svg="http://www.w3.org/2000/svg"
   xmlns="http://www.w3.org/2000/svg"
   xmlns:sodipodi="http://sodipodi.sourceforge.net/DTD/sodipodi-0.dtd"
   xmlns:inkscape="http://www.inkscape.org/namespaces/inkscape"
   width="218.12666mm"
   height="191.57021mm"
   viewBox="0 0 218.12666 191.57021"
   version="1.1"
   id="svg1718"
   inkscape:version="0.92.3 (2405546, 2018-03-11)"
   sodipodi:docname="triangle-led_holder-cut.svg">
  <defs
     id="defs1712" />
  <sodipodi:namedview
     id="base"
     pagecolor="#ffffff"
     bordercolor="#666666"
     borderopacity="1.0"
     inkscape:pageopacity="0.0"
     inkscape:pageshadow="2"
     inkscape:zoom="0.65107036"
     inkscape:cx="-241.32009"
     inkscape:cy="146.6028"
     inkscape:document-units="mm"
     inkscape:current-layer="layer1"
     showgrid="false"
     inkscape:window-width="1920"
     inkscape:window-height="996"
     inkscape:window-x="0"
     inkscape:window-y="27"
     inkscape:window-maximized="1"
     inkscape:object-paths="true"
     inkscape:snap-smooth-nodes="true"
     fit-margin-top="0"
     fit-margin-left="0"
     fit-margin-right="0"
     fit-margin-bottom="0"
     inkscape:document-rotation="0" />
  <metadata
     id="metadata1715">
    <rdf:RDF>
      <cc:Work
         rdf:about="">
        <dc:format>image/svg+xml</dc:format>
        <dc:type
           rdf:resource="http://purl.org/dc/dcmitype/StillImage" />
        <dc:title />
      </cc:Work>
    </rdf:RDF>
  </metadata>
  <g
     inkscape:label="Calque 1"
     inkscape:groupmode="layer"
     id="layer1"
     transform="translate(-88.240233,-59.095852)">
    <path
       style="fill:none;fill-opacity:1;fill-rule:nonzero;stroke:#ff0000;stroke-width:0.37795275;stroke-linecap:butt;stroke-linejoin:miter;stroke-miterlimit:4;stroke-dasharray:none;stroke-opacity:1;paint-order:normal"
       d="M 371.54883,250 A 11.339717,11.339717 0 0 0 361.72266,267.00781 L 735.89648,915.0918 A 11.339717,11.339717 0 0 0 755.53906,915.0918 L 1129.7129,267.00781 A 11.339717,11.339717 0 0 0 1119.8945,250 Z M 486.06445,305.0918 H 506.47461 V 307.92773 H 515.54492 V 322.66797 H 506.47461 V 325.50195 H 486.06445 V 322.66797 H 476.99414 V 307.92773 H 486.06445 Z M 610.78711,305.0918 H 631.19727 V 307.92773 H 640.26758 V 322.66797 H 631.19727 V 325.50195 H 610.78711 V 322.66797 H 601.7168 V 307.92773 H 610.78711 Z M 860.23633,305.0918 H 880.64648 V 307.92773 H 889.7168 V 322.66797 H 880.64648 V 325.50195 H 860.23633 V 322.66797 H 851.16602 V 307.92773 H 860.23633 Z M 984.96094,305.0918 H 1005.3711 V 307.92773 H 1014.4414 V 322.66797 H 1005.3711 V 325.50195 H 984.96094 V 322.66797 H 975.89062 V 307.92773 H 984.96094 Z M 423.70117,305.09375 H 444.11133 V 307.92969 H 453.18164 V 322.66992 H 444.11133 V 325.50391 H 423.70117 V 322.66992 H 414.63086 V 307.92969 H 423.70117 Z M 548.42578,305.09375 H 568.83594 V 307.92969 H 577.90625 V 322.66992 H 568.83594 V 325.50391 H 548.42578 V 322.66992 H 539.35547 V 307.92969 H 548.42578 Z M 673.15039,305.09375 H 693.56055 V 307.92969 H 702.63086 V 322.66992 H 693.56055 V 325.50391 H 673.15039 V 322.66992 H 664.08008 V 307.92969 H 673.15039 Z M 797.875,305.09375 H 818.28516 V 307.92969 H 827.35547 V 322.66992 H 818.28516 V 325.50391 H 797.875 V 322.66992 H 788.80469 V 307.92969 H 797.875 Z M 922.59961,305.09375 H 943.00977 V 307.92969 H 952.08008 V 322.66992 H 943.00977 V 325.50391 H 922.59961 V 322.66992 H 913.5293 V 307.92969 H 922.59961 Z M 1047.3242,305.09375 H 1067.7344 V 307.92969 H 1076.8047 V 322.66992 H 1067.7344 V 325.50391 H 1047.3242 V 322.66992 H 1038.2539 V 307.92969 H 1047.3242 Z M 735.51172,305.0957 H 755.92188 V 307.93164 H 764.99219 V 322.67188 H 755.92188 V 325.50586 H 735.51172 V 322.67188 H 726.44141 V 307.93164 H 735.51172 Z M 486.06445,413.10742 H 506.47461 V 415.94336 H 515.54492 V 430.68555 H 506.47461 V 433.51758 H 486.06445 V 430.68555 H 476.99414 V 415.94336 H 486.06445 Z M 548.42578,413.10742 H 568.83594 V 415.94336 H 577.90625 V 430.68359 H 568.83594 V 433.51758 H 548.42578 V 430.68359 H 539.35547 V 415.94336 H 548.42578 Z M 610.78906,413.10742 H 631.19922 V 415.94336 H 640.26953 V 430.68555 H 631.19922 V 433.51758 H 610.78906 V 430.68555 H 601.71875 V 415.94336 H 610.78906 Z M 735.51172,413.10742 H 755.92188 V 415.94336 H 764.99219 V 430.68359 H 755.92188 V 433.51758 H 735.51172 V 430.68359 H 726.44141 V 415.94336 H 735.51172 Z M 860.23633,413.10742 H 880.64648 V 415.94336 H 889.7168 V 430.68555 H 880.64648 V 433.51758 H 860.23633 V 430.68555 H 851.16602 V 415.94336 H 860.23633 Z M 922.59961,413.10742 H 943.00977 V 415.94336 H 952.08008 V 430.68359 H 943.00977 V 433.51758 H 922.59961 V 430.68359 H 913.5293 V 415.94336 H 922.59961 Z M 984.96094,413.10742 H 1005.3711 V 415.94336 H 1014.4414 V 430.68555 H 1005.3711 V 433.51758 H 984.96094 V 430.68555 H 975.89062 V 415.94336 H 984.96094 Z M 673.15039,413.10938 H 693.56055 V 415.94531 H 702.63086 V 430.68555 H 693.56055 V 433.51953 H 673.15039 V 430.68555 H 664.08008 V 415.94531 H 673.15039 Z M 797.875,413.10938 H 818.28516 V 415.94531 H 827.35547 V 430.68555 H 818.28516 V 433.51953 H 797.875 V 430.68555 H 788.80469 V 415.94531 H 797.875 Z M 548.42578,521.12305 H 568.83594 V 523.95898 H 577.90625 V 538.69922 H 568.83594 V 541.5332 H 548.42578 V 538.69922 H 539.35547 V 523.95898 H 548.42578 Z M 610.78906,521.12305 H 631.19922 V 523.96094 H 640.26953 V 538.69922 H 631.19922 V 541.5332 H 610.78906 V 538.69922 H 601.71875 V 523.96094 H 610.78906 Z M 673.15039,521.12305 H 693.56055 V 523.95898 H 702.63086 V 538.69922 H 693.56055 V 541.5332 H 673.15039 V 538.69922 H 664.08008 V 523.95898 H 673.15039 Z M 735.51172,521.12305 H 755.92188 V 523.96094 H 764.99219 V 538.69922 H 755.92188 V 541.5332 H 735.51172 V 538.69922 H 726.44141 V 523.96094 H 735.51172 Z M 797.875,521.12305 H 818.28516 V 523.95898 H 827.35547 V 538.69922 H 818.28516 V 541.5332 H 797.875 V 538.69922 H 788.80469 V 523.95898 H 797.875 Z M 860.23633,521.12305 H 880.64648 V 523.95898 H 889.7168 V 538.69922 H 880.64648 V 541.5332 H 860.23633 V 538.69922 H 851.16602 V 523.95898 H 860.23633 Z M 922.59961,521.12305 H 943.00977 V 523.95898 H 952.08008 V 538.69922 H 943.00977 V 541.5332 H 922.59961 V 538.69922 H 913.5293 V 523.95898 H 922.59961 Z M 610.78711,629.13672 H 631.19727 V 631.97266 H 640.26758 V 646.71289 H 631.19727 V 649.54688 H 610.78711 V 646.71289 H 601.7168 V 631.97266 H 610.78711 Z M 735.51172,629.13672 H 755.92188 V 631.97266 H 764.99219 V 646.71289 H 755.92188 V 649.54688 H 735.51172 V 646.71289 H 726.44141 V 631.97266 H 735.51172 Z M 860.23633,629.13672 H 880.64648 V 631.97266 H 889.7168 V 646.71289 H 880.64648 V 649.54688 H 860.23633 V 646.71289 H 851.16602 V 631.97266 H 860.23633 Z M 673.15039,629.13867 H 693.56055 V 631.97461 H 702.63086 V 646.71484 H 693.56055 V 649.54883 H 673.15039 V 646.71484 H 664.08008 V 631.97461 H 673.15039 Z M 797.875,629.13867 H 818.28516 V 631.97461 H 827.35547 V 646.71484 H 818.28516 V 649.54883 H 797.875 V 646.71484 H 788.80469 V 631.97461 H 797.875 Z M 673.15039,737.15039 H 693.56055 V 739.98633 H 702.63086 V 754.72656 H 693.56055 V 757.56055 H 673.15039 V 754.72656 H 664.08008 V 739.98633 H 673.15039 Z M 797.875,737.15039 H 818.28516 V 739.98633 H 827.35547 V 754.72656 H 818.28516 V 757.56055 H 797.875 V 754.72656 H 788.80469 V 739.98633 H 797.875 Z M 735.51367,737.15234 H 755.92383 V 739.98828 H 764.99414 V 754.72852 H 755.92383 V 757.5625 H 735.51367 V 754.72852 H 726.44336 V 739.98828 H 735.51367 Z M 735.51367,845.16602 H 755.92383 V 848.00195 H 764.99414 V 862.74219 H 755.92383 V 865.57617 H 735.51367 V 862.74219 H 726.44336 V 848.00195 H 735.51367 Z"
       transform="scale(0.26458333)"
       id="path4356"
       inkscape:connector-curvature="0" />
    <path
       id="path2469-8-0-8"
       d="M 98.303922,59.145852 C 90.606516,59.146984 85.795838,67.479195 89.643471,74.145962 L 188.64362,245.61871 C 192.49342,252.28392 202.11422,252.28392 205.96402,245.61871 L 304.96367,74.145962 C 308.81119,67.479388 304.0009,59.14737 296.30372,59.145852 Z M 188.35578,66.145932 V 63.245842 H 206.25548 V 66.145932 M 237.85459,66.145932 V 63.246372 H 255.75479 V 66.145932 M 278.62884,105.7616 281.14032,107.21165 272.19047,122.71353 269.67899,121.26349 M 253.87789,148.63082 256.38937,150.08087 247.43952,165.58275 244.92804,164.1327 M 229.1285,191.49797 231.63998,192.948 222.68963,208.44991 220.17815,206.99986 M 174.43105,207.00245 171.91958,208.4525 162.96975,192.95059 165.48123,191.50054 M 149.68063,164.13323 147.16915,165.58328 138.21933,150.08137 140.73078,148.63132 M 124.93177,121.26558 122.42029,122.7156 113.46992,107.21371 115.98139,105.76367 M 138.85441,66.145412 V 63.245332 H 156.75461 V 66.145412"
       style="color:#000000;font-style:normal;font-variant:normal;font-weight:normal;font-stretch:normal;font-size:medium;line-height:normal;font-family:sans-serif;font-variant-ligatures:normal;font-variant-position:normal;font-variant-caps:normal;font-variant-numeric:normal;font-variant-alternates:normal;font-feature-settings:normal;text-indent:0;text-align:start;text-decoration:none;text-decoration-line:none;text-decoration-style:solid;text-decoration-color:#000000;letter-spacing:normal;word-spacing:normal;text-transform:none;writing-mode:lr-tb;direction:ltr;text-orientation:mixed;dominant-baseline:auto;baseline-shift:baseline;text-anchor:start;white-space:normal;shape-padding:0;clip-rule:nonzero;display:inline;overflow:visible;visibility:visible;opacity:1;isolation:auto;mix-blend-mode:normal;color-interpolation:sRGB;color-interpolation-filters:linearRGB;solid-color:#000000;solid-opacity:1;vector-effect:none;fill:none;fill-opacity:1;fill-rule:evenodd;stroke:#ff0000;stroke-width:0.10000006;stroke-linecap:butt;stroke-linejoin:round;stroke-miterlimit:4;stroke-dasharray:none;stroke-dashoffset:0;stroke-opacity:1;color-rendering:auto;image-rendering:auto;shape-rendering:auto;text-rendering:auto;enable-background:accumulate"
       inkscape:connector-curvature="0"
       sodipodi:nodetypes="ccccccccccccccccccccccccccccccccccccccccccc" />
  </g>
</svg>
