<?xml version="1.0" encoding="UTF-8" standalone="no"?>
<!-- Created with Inkscape (http://www.inkscape.org/) -->

<svg
   xmlns:dc="http://purl.org/dc/elements/1.1/"
   xmlns:cc="http://creativecommons.org/ns#"
   xmlns:rdf="http://www.w3.org/1999/02/22-rdf-syntax-ns#"
   xmlns:svg="http://www.w3.org/2000/svg"
   xmlns="http://www.w3.org/2000/svg"
   xmlns:sodipodi="http://sodipodi.sourceforge.net/DTD/sodipodi-0.dtd"
   xmlns:inkscape="http://www.inkscape.org/namespaces/inkscape"
   width="265.70035mm"
   height="193.60106mm"
   viewBox="0 0 265.70035 193.60106"
   version="1.1"
   id="svg2293"
   inkscape:version="0.92.3 (2405546, 2018-03-11)"
   sodipodi:docname="linear_clock.144-cut.1.svg">
  <defs
     id="defs2287" />
  <sodipodi:namedview
     id="base"
     pagecolor="#ffffff"
     bordercolor="#666666"
     borderopacity="1.0"
     inkscape:pageopacity="0.0"
     inkscape:pageshadow="2"
     inkscape:zoom="0.98994949"
     inkscape:cx="459.7939"
     inkscape:cy="171.45554"
     inkscape:document-units="mm"
     inkscape:current-layer="layer1"
     showgrid="false"
     inkscape:window-width="1920"
     inkscape:window-height="996"
     inkscape:window-x="0"
     inkscape:window-y="27"
     inkscape:window-maximized="1"
     fit-margin-top="0"
     fit-margin-left="0"
     fit-margin-right="0"
     fit-margin-bottom="0" />
  <metadata
     id="metadata2290">
    <rdf:RDF>
      <cc:Work
         rdf:about="">
        <dc:format>image/svg+xml</dc:format>
        <dc:type
           rdf:resource="http://purl.org/dc/dcmitype/StillImage" />
        <dc:title />
      </cc:Work>
    </rdf:RDF>
  </metadata>
  <g
     inkscape:label="Calque 1"
     inkscape:groupmode="layer"
     id="layer1"
     transform="translate(221.0994,-97.428565)">
    <path
       inkscape:connector-curvature="0"
       style="opacity:1;fill:none;fill-opacity:1;fill-rule:nonzero;stroke:#ff0000;stroke-width:0.10000001;stroke-linecap:butt;stroke-linejoin:miter;stroke-miterlimit:4;stroke-dasharray:none;stroke-opacity:1;paint-order:normal"
       d="M -32.299161,268.07971 H -35.774051 L -35.774032,269.80472 -35.774022,271.52971 H -32.299093 M -32.299061,274.52971 H -35.774061 V 277.52971 H -32.299201 M -32.299201,280.52971 H -35.774101 V 282.25472 283.97971 H -32.299201 M -32.299201,286.97971 -35.774202,286.97973 H -39.249202"
       id="path1457-4-7-8-1-8-5-2-7-9"
       sodipodi:nodetypes="ccccccccccccccccc" />
    <path
       inkscape:connector-curvature="0"
       style="opacity:1;fill:none;fill-opacity:1;fill-rule:nonzero;stroke:#ff0000;stroke-width:0.10000001;stroke-linecap:butt;stroke-linejoin:miter;stroke-miterlimit:4;stroke-dasharray:none;stroke-opacity:1;paint-order:normal"
       d="M -32.299161,265.07971 -32.299201,268.07971 H -28.824312 L -28.824333,269.80472 -28.824341,271.52971 H -32.299273 L -32.299302,274.52971 H -28.824301 V 277.52971 H -32.299161 V 280.52971 H -28.824262 V 282.25472 283.97971 H -32.299161 V 286.97971 L -28.824161,286.97973 H -25.349163 V 265.07973"
       id="path1457-4-7-8-1-8-5-2-3-1"
       sodipodi:nodetypes="ccccccccccccccccccc" />
    <path
       inkscape:connector-curvature="0"
       style="opacity:1;fill:none;fill-opacity:1;fill-rule:nonzero;stroke:#ff0000;stroke-width:0.10000001;stroke-linecap:butt;stroke-linejoin:miter;stroke-miterlimit:4;stroke-dasharray:none;stroke-opacity:1;paint-order:normal"
       d="M -18.399123,268.07971 H -21.874012 L -21.873991,269.80472 -21.873983,271.52971 H -18.399051 M -18.399022,274.52971 H -21.874022 V 277.52971 H -18.399162 M -18.399162,280.52971 H -21.874062 V 282.25472 283.97971 H -18.399162 M -18.399162,286.97971 -21.874163,286.97973 H -25.349163"
       id="path1457-4-7-8-1-8-5-2-7-8"
       sodipodi:nodetypes="ccccccccccccccccc" />
    <path
       inkscape:connector-curvature="0"
       style="opacity:1;fill:none;fill-opacity:1;fill-rule:nonzero;stroke:#ff0000;stroke-width:0.10000001;stroke-linecap:butt;stroke-linejoin:miter;stroke-miterlimit:4;stroke-dasharray:none;stroke-opacity:1;paint-order:normal"
       d="M -18.399123,265.07971 -18.399162,268.07971 H -14.924274 L -14.924294,269.80472 -14.924304,271.52971 H -18.399231 L -18.399263,274.52971 H -14.924264 V 277.52971 H -18.399123 V 280.52971 H -14.924224 V 282.25472 283.97971 H -18.399123 V 286.97971 L -14.924124,286.97973 H -11.449124 V 265.07973"
       id="path1457-4-7-8-1-8-5-2-3-8"
       sodipodi:nodetypes="ccccccccccccccccccc" />
    <path
       inkscape:connector-curvature="0"
       style="opacity:1;fill:none;fill-opacity:1;fill-rule:nonzero;stroke:#ff0000;stroke-width:0.10000001;stroke-linecap:butt;stroke-linejoin:miter;stroke-miterlimit:4;stroke-dasharray:none;stroke-opacity:1;paint-order:normal"
       d="M -4.4990837,268.07971 H -7.9739737 L -7.9739537,269.80472 -7.9739437,271.52971 H -4.4990137 M -4.4989837,274.52971 H -7.9739837 V 277.52971 H -4.4991237 M -4.4991237,280.52971 H -7.9740237 V 282.25472 283.97971 H -4.4991237 M -4.4991237,286.97971 -7.9741237,286.97973 H -11.449124"
       id="path1457-4-7-8-1-8-5-2-7-7"
       sodipodi:nodetypes="ccccccccccccccccc" />
    <path
       inkscape:connector-curvature="0"
       style="opacity:1;fill:none;fill-opacity:1;fill-rule:nonzero;stroke:#ff0000;stroke-width:0.10000001;stroke-linecap:butt;stroke-linejoin:miter;stroke-miterlimit:4;stroke-dasharray:none;stroke-opacity:1;paint-order:normal"
       d="M -4.4990837,265.07971 -4.4991237,268.07971 H -1.0242337 L -1.0242537,269.80472 -1.0242637,271.52971 H -4.4991937 L -4.4992237,274.52971 H -1.0242237 V 277.52971 H -4.4990837 V 280.52971 H -1.0241837 V 282.25472 283.97971 H -4.4990837 V 286.97971 L -1.0240837,286.97973 H 2.4509163 V 265.07973"
       id="path1457-4-7-8-1-8-5-2-3-0"
       sodipodi:nodetypes="ccccccccccccccccccc" />
    <path
       inkscape:connector-curvature="0"
       style="opacity:1;fill:none;fill-opacity:1;fill-rule:nonzero;stroke:#ff0000;stroke-width:0.10000001;stroke-linecap:butt;stroke-linejoin:miter;stroke-miterlimit:4;stroke-dasharray:none;stroke-opacity:1;paint-order:normal"
       d="M 9.3633563,268.07972 H 5.8884663 L 5.8884863,269.80473 5.8884963,271.52972 H 9.3634263 M 9.3634563,274.52972 H 5.8884563 V 277.52972 H 9.3633163 M 9.3633163,280.52972 H 5.8884163 V 282.25473 283.97972 H 9.3633163 M 9.3633163,286.97972 5.8883163,286.97974 H 2.4133163"
       id="path1457-4-7-8-1-8-5-2-7-9-5"
       sodipodi:nodetypes="ccccccccccccccccc" />
    <path
       inkscape:connector-curvature="0"
       style="opacity:1;fill:none;fill-opacity:1;fill-rule:nonzero;stroke:#ff0000;stroke-width:0.10000001;stroke-linecap:butt;stroke-linejoin:miter;stroke-miterlimit:4;stroke-dasharray:none;stroke-opacity:1;paint-order:normal"
       d="M 9.3633563,265.07972 9.3633163,268.07972 H 12.838206 L 12.838186,269.80473 12.838176,271.52972 H 9.3632463 L 9.3632163,274.52972 H 12.838216 V 277.52972 H 9.3633563 V 280.52972 H 12.838256 V 282.25473 283.97972 H 9.3633563 V 286.97972 L 12.838356,286.97974 H 16.313356 V 265.07974"
       id="path1457-4-7-8-1-8-5-2-3-1-2"
       sodipodi:nodetypes="ccccccccccccccccccc" />
    <path
       inkscape:connector-curvature="0"
       style="opacity:1;fill:none;fill-opacity:1;fill-rule:nonzero;stroke:#ff0000;stroke-width:0.10000001;stroke-linecap:butt;stroke-linejoin:miter;stroke-miterlimit:4;stroke-dasharray:none;stroke-opacity:1;paint-order:normal"
       d="M 23.263396,268.07972 H 19.788506 L 19.788526,269.80473 19.788536,271.52972 H 23.263466 M 23.263496,274.52972 H 19.788496 V 277.52972 H 23.263356 M 23.263356,280.52972 H 19.788456 V 282.25473 283.97972 H 23.263356 M 23.263356,286.97972 19.788356,286.97974 H 16.313356"
       id="path1457-4-7-8-1-8-5-2-7-8-7"
       sodipodi:nodetypes="ccccccccccccccccc" />
    <path
       inkscape:connector-curvature="0"
       style="opacity:1;fill:none;fill-opacity:1;fill-rule:nonzero;stroke:#ff0000;stroke-width:0.10000001;stroke-linecap:butt;stroke-linejoin:miter;stroke-miterlimit:4;stroke-dasharray:none;stroke-opacity:1;paint-order:normal"
       d="M 23.263396,265.07972 23.263356,268.07972 H 26.738246 L 26.738226,269.80473 26.738216,271.52972 H 23.263286 L 23.263256,274.52972 H 26.738256 V 277.52972 H 23.263396 V 280.52972 H 26.738296 V 282.25473 283.97972 H 23.263396 V 286.97972 L 26.738396,286.97974 H 30.213396 V 265.07974"
       id="path1457-4-7-8-1-8-5-2-3-8-9"
       sodipodi:nodetypes="ccccccccccccccccccc" />
    <path
       inkscape:connector-curvature="0"
       style="opacity:1;fill:none;fill-opacity:1;fill-rule:nonzero;stroke:#ff0000;stroke-width:0.10000001;stroke-linecap:butt;stroke-linejoin:miter;stroke-miterlimit:4;stroke-dasharray:none;stroke-opacity:1;paint-order:normal"
       d="M 37.163426,268.07972 H 33.688546 L 33.688566,269.80473 V 271.52972 H 37.163506 M 37.163536,274.52972 H 33.688526 V 277.52972 H 37.163396 M 37.163396,280.52972 H 33.688496 V 282.25473 283.97972 H 37.163396 M 37.163396,286.97972 33.688386,286.97974 H 30.213396"
       id="path1457-4-7-8-1-8-5-2-7-7-1"
       sodipodi:nodetypes="ccccccccccccccccc" />
    <path
       inkscape:connector-curvature="0"
       style="opacity:1;fill:none;fill-opacity:1;fill-rule:nonzero;stroke:#ff0000;stroke-width:0.10000001;stroke-linecap:butt;stroke-linejoin:miter;stroke-miterlimit:4;stroke-dasharray:none;stroke-opacity:1;paint-order:normal"
       d="M 37.163426,265.07972 37.163396,268.07972 H 40.638286 L 40.638266,269.80473 40.638256,271.52972 H 37.163326 L 37.163286,274.52972 H 40.638296 V 277.52972 H 37.163426 V 280.52972 H 40.638326 V 282.25473 283.97972 H 37.163426 V 286.97972 L 40.638436,286.97974 H 44.113426 V 265.07974"
       id="path1457-4-7-8-1-8-5-2-3-0-9"
       sodipodi:nodetypes="ccccccccccccccccccc" />
    <path
       inkscape:connector-curvature="0"
       style="fill:none;fill-opacity:1;stroke:#ff0000;stroke-width:0.09999999;stroke-linecap:butt;stroke-linejoin:miter;stroke-miterlimit:4;stroke-dasharray:none;stroke-opacity:1"
       d="M -128.9997,97.478565 H -154.49943 V 102.37852 H -157.39952 V 97.478565 H -167.49967 V 102.37852 H -170.39976 V 97.478565 H -195.89949 V 102.37852 H -198.79957 V 97.478565 H -208.89973 V 102.37852 H -211.79981 V 97.478565 H -214.1122 -216.42459 -219.0995 L -221.04938,99.478915 V 118.4287 137.37891 L -219.0995,139.37885 H -216.42459 -214.1122 -211.79981 V 134.47837 H -208.89973 V 139.37885 H -198.79957 V 134.47837 H -195.89949 V 139.37885 H -170.39976 V 134.47837 H -167.49967 V 139.37885 H -157.39952 V 134.47837 H -154.49943 V 139.37885 H -128.9997 -113.09937 -87.599631 V 134.47837 H -84.699563 V 139.37885 H -74.599411 V 134.47837 H -71.699321 V 139.37885 H -46.199592 V 134.47837 H -43.299512 V 139.37885 H -33.199353 V 134.47837 H -30.299271 V 139.37885 H -4.7995337 V 134.47837 H -1.8994537 V 139.37885 H 8.2007063 V 134.47837 H 11.100786 V 139.37885 H 36.600526 V 134.47837 H 39.500606 V 139.37885 H 44.550416 L 44.550936,129.37894 H 42.100966 V 118.42922 107.47898 H 44.550936 L 44.550416,97.478565 H 39.500606 V 102.37852 H 36.600526 V 97.478565 H 11.100786 V 102.37852 H 8.2007063 V 97.478565 H -1.8994537 V 102.37852 H -4.7995337 V 97.478565 H -30.299271 V 102.37852 H -33.199353 V 97.478565 H -43.299512 V 102.37852 H -46.199592 V 97.478565 H -71.699321 V 102.37852 H -74.599411 V 97.478565 H -84.699563 V 102.37852 H -87.599631 V 97.478565 H -113.09937 Z M -206.29937,107.47898 H -201.3989 L -201.39941,129.37894 H -206.29989 Z M -199.39902,107.47898 H -194.49906 V 129.37894 H -199.39902 Z M -192.49918,107.47898 H -187.59922 V 129.37894 H -192.49918 Z M -185.59934,107.47898 H -180.69887 V 129.37894 H -185.59934 Z M -178.69899,107.47898 H -173.79903 V 129.37894 H -178.69899 Z M -171.79915,107.47898 H -166.89919 V 129.37894 H -171.79915 Z M -164.89932,107.47898 H -159.99936 V 129.37894 H -164.89932 Z M -157.99896,107.47898 H -153.099 V 129.37894 H -157.99896 Z M -151.09912,107.47898 H -146.19917 V 129.37894 H -151.09912 Z M -144.19929,107.47898 H -139.29933 V 129.37894 H -144.19929 Z M -137.29893,107.47898 H -132.39898 V 129.37894 H -137.29893 Z M -130.3991,107.47898 H -125.49914 V 129.37894 H -130.3991 Z M -123.49926,107.47898 H -118.59929 V 129.37894 H -123.49926 Z M -116.59889,107.47898 H -111.69894 V 129.37894 H -116.59889 Z M -109.69905,107.47898 H -104.7991 V 129.37894 H -109.69905 Z M -102.79921,107.47898 H -97.899263 V 129.37894 H -102.79921 Z M -95.898862,107.47898 H -90.998924 V 129.37894 H -95.898862 Z M -88.999042,107.47898 H -84.099083 V 129.37894 H -88.999042 Z M -82.099214,107.47898 H -77.199252 V 129.37894 H -82.099214 Z M -75.198843,107.47898 H -70.298892 V 129.37894 H -75.198843 Z M -68.299023,107.47898 H -63.399062 V 129.37894 H -68.299023 Z M -61.399182,107.47898 H -56.499223 V 129.37894 H -61.399182 Z M -54.499344,107.47898 H -49.598863 V 129.37894 H -54.499344 Z M -47.598992,107.47898 H -42.699022 V 129.37894 H -47.598992 Z M -40.699153,107.47898 H -35.799191 V 129.37894 H -40.699153 Z M -33.799312,107.47898 H -28.898842 V 129.37894 H -33.799312 Z M -26.898963,107.47898 H -21.998993 V 129.37894 H -26.898963 Z M -19.999121,107.47898 H -15.099164 V 129.37894 H -19.999121 Z M -13.099274,107.47898 H -8.1993237 V 129.37894 H -13.099274 Z M -6.1989337,107.47898 H -1.2989737 V 129.37894 H -6.1989337 Z M 0.70090632,107.47898 H 5.6008663 V 129.37894 H 0.70090632 Z M 7.6007563,107.47898 H 12.500706 V 129.37894 H 7.6007563 Z M 14.501106,107.47898 H 19.401056 V 129.37894 H 14.501106 Z M 21.400936,107.47898 H 26.300896 V 129.37894 H 21.400936 Z M 28.300766,107.47898 H 33.200726 V 129.37894 H 28.300766 Z M 35.201126,107.47898 H 40.101086 V 129.37894 H 35.201126 Z"
       id="path4790-8-3"
       sodipodi:nodetypes="ccccccccccccccccccccccccccccccccccccccccccccccccccccccccccccccccccccccccccccccccccccccccccccccccccccccccccccccccccccccccccccccccccccccccccccccccccccccccccccccccccccccccccccccccccccccccccccccccccccccccccccccccccccccccccccccccccccccccccccccccccccccccccccccccccccccccccccccccccccccccccccccccc" />
    <path
       inkscape:connector-curvature="0"
       style="fill:none;fill-opacity:1;stroke:#ff0000;stroke-width:0.09999999;stroke-linecap:butt;stroke-linejoin:miter;stroke-miterlimit:4;stroke-dasharray:none;stroke-opacity:1"
       d="M 39.500606,223.17943 V 228.07939 H 36.600526 V 223.17943 M 11.100786,223.17943 V 228.07939 H 8.2007063 V 223.17943 M -1.8994537,223.17943 V 228.07939 H -4.7995337 V 223.17943 M -30.299271,223.17943 V 228.07939 H -33.199361 V 223.17943 M -43.299512,223.17943 V 228.07939 H -46.199592 V 223.17943 M -71.699332,223.17943 V 228.07939 H -74.599422 V 223.17943 M -84.699563,223.17943 V 228.07939 H -87.599642 V 223.17943 M -154.49945,223.17943 V 228.07939 H -157.39953 V 223.17943 M -167.4997,223.17943 V 228.07939 H -170.39978 V 223.17943 M -195.89951,223.17943 V 228.07939 H -198.79959 V 223.17943 M -208.89975,223.17943 V 228.07939 H -211.79983 V 223.17943 M -219.09953,223.17943 -221.0494,225.17978 V 244.12957 263.07978 L -219.09953,265.07972 M 44.550416,223.17943 44.550936,233.17985 H 42.100966 V 244.13009 255.07981 H 44.550936 L 44.550416,265.07972 -221.0494,265.07927 -221.049,287.97938 V 290.97962 H -211.049 V 287.97958 H -131.0493 V 290.97962 H -121.04941 V 287.97938 265.07927 M -211.79983,265.07972 V 260.17924 H -208.89975 V 265.07972 M -198.79959,265.07972 V 260.17924 H -195.89951 V 265.07972 M -170.39978,265.07972 V 260.17924 H -167.4997 V 265.07972 M -157.39953,265.07972 V 260.17924 H -154.49945 V 265.07972 M -87.599642,265.07972 V 260.17924 H -84.699563 V 265.07972 M -74.599422,265.07972 V 260.17924 H -71.699332 V 265.07972 M -46.199592,265.07972 V 260.17924 H -43.299512 V 265.07972 M -33.199361,265.07972 V 260.17924 H -30.299271 V 265.07972 M -4.7995337,265.07972 V 260.17924 H -1.8994537 V 265.07972 M 8.2007063,265.07972 V 260.17924 H 11.100786 V 265.07972 M 36.600526,265.07972 V 260.17924 H 39.500606 V 265.07972 M -206.29939,233.17985 H -201.39892 L -201.39944,255.07981 H -206.29991 Z M -199.39904,233.17985 H -194.49908 V 255.07981 H -199.39904 Z M -192.4992,233.17985 H -187.59925 V 255.07981 H -192.4992 Z M -185.59937,233.17985 H -180.69889 V 255.07981 H -185.59937 Z M -178.69901,233.17985 H -173.79905 V 255.07981 H -178.69901 Z M -171.79918,233.17985 H -166.89922 V 255.07981 H -171.79918 Z M -164.89934,233.17985 H -159.99938 V 255.07981 H -164.89934 Z M -157.99898,233.17985 H -153.09902 V 255.07981 H -157.99898 Z M -151.09915,233.17985 H -146.19918 V 255.07981 H -151.09915 Z M -144.19931,233.17985 H -139.29935 V 255.07981 H -144.19931 Z M -137.29896,233.17985 H -132.39899 V 255.07981 H -137.29896 Z M -130.39911,233.17985 H -125.49916 V 255.07981 H -130.39911 Z M -123.49928,233.17985 H -118.5993 V 255.07981 H -123.49928 Z M -116.59891,233.17985 H -111.69895 V 255.07981 H -116.59891 Z M -109.69908,233.17985 H -104.79912 V 255.07981 H -109.69908 Z M -102.79923,233.17985 H -97.899292 V 255.07981 H -102.79923 Z M -95.898883,233.17985 H -90.998932 V 255.07981 H -95.898883 Z M -88.999042,233.17985 H -84.099083 V 255.07981 H -88.999042 Z M -82.099222,233.17985 H -77.199252 V 255.07981 H -82.099222 Z M -75.198862,233.17985 H -70.298892 V 255.07981 H -75.198862 Z M -68.299031,233.17985 H -63.399062 V 255.07981 H -68.299031 Z M -61.399182,233.17985 H -56.499223 V 255.07981 H -61.399182 Z M -54.499351,233.17985 H -49.598871 V 255.07981 H -54.499351 Z M -47.598992,233.17985 H -42.699033 V 255.07981 H -47.598992 Z M -40.699153,233.17985 H -35.799191 V 255.07981 H -40.699153 Z M -33.799312,233.17985 H -28.898842 V 255.07981 H -33.799312 Z M -26.898963,233.17985 H -21.999001 V 255.07981 H -26.898963 Z M -19.999121,233.17985 H -15.099164 V 255.07981 H -19.999121 Z M -13.099284,233.17985 H -8.1993237 V 255.07981 H -13.099284 Z M -6.1989337,233.17985 H -1.2989737 V 255.07981 H -6.1989337 Z M 0.70090632,233.17985 H 5.6008663 V 255.07981 H 0.70090632 Z M 7.6007463,233.17985 H 12.500706 V 255.07981 H 7.6007463 Z M 14.501096,233.17985 H 19.401056 V 255.07981 H 14.501096 Z M 21.400936,233.17985 H 26.300896 V 255.07981 H 21.400936 Z M 28.300766,233.17985 H 33.200726 V 255.07981 H 28.300766 Z M 35.201126,233.17985 H 40.101086 V 255.07981 H 35.201126 Z"
       id="path4790-8-8-5"
       sodipodi:nodetypes="cccccccccccccccccccccccccccccccccccccccccccccccccccccccccccccccccccccccccccccccccccccccccccccccccccccccccccccccccccccccccccccccccccccccccccccccccccccccccccccccccccccccccccccccccccccccccccccccccccccccccccccccccccccccccccccccccccccccccccccccccccccccccccccccccccccccccccccccccccccccccccccccccc" />
    <path
       inkscape:connector-curvature="0"
       style="fill:none;fill-opacity:1;stroke:#ff0000;stroke-width:0.09999999;stroke-linecap:butt;stroke-linejoin:miter;stroke-miterlimit:4;stroke-dasharray:none;stroke-opacity:1"
       d="M -128.99972,181.27914 H -154.49946 V 186.1791 H -157.39953 V 181.27914 H -167.49971 V 186.1791 H -170.39978 V 181.27914 H -195.89951 V 186.1791 H -198.7996 V 181.27914 H -208.89975 V 186.1791 H -211.79983 V 181.27914 H -214.11223 -216.42464 -219.09952 L -221.04939,183.27949 V 202.22928 221.17949 L -219.09971,223.17943 H -216.42464 -214.11223 -211.79983 V 218.27895 H -208.89975 V 223.17943 H -198.7996 V 218.27895 H -195.89951 V 223.17943 H -170.39978 V 218.27895 H -167.49971 V 223.17943 H -157.39953 V 218.27895 H -154.49946 V 223.17943 H -128.99972 -113.09939 -87.599652 V 218.27895 H -84.699584 V 223.17943 H -74.599422 V 218.27895 H -71.699353 V 223.17943 H -46.199602 V 218.27895 H -43.299531 V 223.17943 H -33.199382 V 218.27895 H -30.299282 V 223.17943 H -4.7995437 V 218.27895 H -1.8994637 V 223.17943 H 8.2006863 V 218.27895 H 11.100776 V 223.17943 H 36.600506 V 218.27895 H 39.500596 V 223.17943 H 44.550386 L 44.550916,213.17952 H 42.100956 V 202.2298 191.27956 H 44.550916 L 44.550386,181.27914 H 39.500596 V 186.1791 H 36.600506 V 181.27914 H 11.100776 V 186.1791 H 8.2006863 V 181.27914 H -1.8994637 V 186.1791 H -4.7995437 V 181.27914 H -30.299282 V 186.1791 H -33.199382 V 181.27914 H -43.299531 V 186.1791 H -46.199602 V 181.27914 H -71.699353 V 186.1791 H -74.599422 V 181.27914 H -84.699584 V 186.1791 H -87.599652 V 181.27914 H -113.09939 Z M -206.2994,191.27956 H -201.39892 L -201.39945,213.17952 H -206.29991 Z M -199.39904,191.27956 H -194.49909 V 213.17952 H -199.39904 Z M -192.49921,191.27956 H -187.59926 V 213.17952 H -192.49921 Z M -185.59938,191.27956 H -180.6989 V 213.17952 H -185.59938 Z M -178.69902,191.27956 H -173.79904 V 213.17952 H -178.69902 Z M -171.79919,191.27956 H -166.89921 V 213.17952 H -171.79919 Z M -164.89933,191.27956 H -159.99938 V 213.17952 H -164.89933 Z M -157.999,191.27956 H -153.09902 V 213.17952 H -157.999 Z M -151.09914,191.27956 H -146.19919 V 213.17952 H -151.09914 Z M -144.19931,191.27956 H -139.29936 V 213.17952 H -144.19931 Z M -137.29895,191.27956 H -132.399 V 213.17952 H -137.29895 Z M -130.39912,191.27956 H -125.49917 V 213.17952 H -130.39912 Z M -123.49929,191.27956 H -118.59931 V 213.17952 H -123.49929 Z M -116.59893,191.27956 H -111.69896 V 213.17952 H -116.59893 Z M -109.6991,191.27956 H -104.79912 V 213.17952 H -109.6991 Z M -102.79924,191.27956 H -97.899292 V 213.17952 H -102.79924 Z M -95.898893,191.27956 H -90.998932 V 213.17952 H -95.898893 Z M -88.999052,191.27956 H -84.099101 V 213.17952 H -88.999052 Z M -82.099222,191.27956 H -77.199273 V 213.17952 H -82.099222 Z M -75.198862,191.27956 H -70.298913 V 213.17952 H -75.198862 Z M -68.299031,191.27956 H -63.399083 V 213.17952 H -68.299031 Z M -61.399203,191.27956 H -56.499231 V 213.17952 H -61.399203 Z M -54.499373,191.27956 H -49.598892 V 213.17952 H -54.499373 Z M -47.599013,191.27956 H -42.699033 V 213.17952 H -47.599013 Z M -40.699161,191.27956 H -35.799202 V 213.17952 H -40.699161 Z M -33.799322,191.27956 H -28.898842 V 213.17952 H -33.799322 Z M -26.898963,191.27956 H -21.999012 V 213.17952 H -26.898963 Z M -19.999132,191.27956 H -15.099184 V 213.17952 H -19.999132 Z M -13.099304,191.27956 H -8.1993337 V 213.17952 H -13.099304 Z M -6.1989437,191.27956 H -1.2989937 V 213.17952 H -6.1989437 Z M 0.70088632,191.27956 H 5.6008563 V 213.17952 H 0.70088632 Z M 7.6007363,191.27956 H 12.500686 V 213.17952 H 7.6007363 Z M 14.501076,191.27956 H 19.401046 V 213.17952 H 14.501076 Z M 21.400926,191.27956 H 26.300886 V 213.17952 H 21.400926 Z M 28.300756,191.27956 H 33.200716 V 213.17952 H 28.300756 Z M 35.201116,191.27956 H 40.101076 V 213.17952 H 35.201116 Z"
       id="path4790-8-2-6"
       sodipodi:nodetypes="ccccccccccccccccccccccccccccccccccccccccccccccccccccccccccccccccccccccccccccccccccccccccccccccccccccccccccccccccccccccccccccccccccccccccccccccccccccccccccccccccccccccccccccccccccccccccccccccccccccccccccccccccccccccccccccccccccccccccccccccccccccccccccccccccccccccccccccccccccccccccccccccccc" />
    <path
       inkscape:connector-curvature="0"
       style="fill:none;fill-opacity:1;stroke:#ff0000;stroke-width:0.09999999;stroke-linecap:butt;stroke-linejoin:miter;stroke-miterlimit:4;stroke-dasharray:none;stroke-opacity:1"
       d="M -167.49969,139.37885 V 144.27881 H -170.39979 V 139.37885 M -195.89947,139.37885 V 144.27881 H -198.79957 V 139.37885 M -208.89975,139.37885 V 144.27881 H -211.79982 V 139.37885 M -219.09952,139.37885 -221.04939,141.3792 V 160.32899 179.2792 L -219.09952,181.27914 M -211.79982,181.27914 V 176.37866 H -208.89975 V 181.27914 M -198.79957,181.27914 V 176.37866 H -195.89947 V 181.27914 M -170.39979,181.27914 V 176.37866 H -167.49969 V 181.27914 M -157.39951,181.27914 V 176.37866 H -154.49944 V 181.27914 M -87.599623,181.27914 V 176.37866 H -84.699552 V 181.27914 M -74.599403,181.27914 V 176.37866 H -71.699332 V 181.27914 M -46.199581,181.27914 V 176.37866 H -43.299512 V 181.27914 M -33.199361,181.27914 V 176.37866 H -30.299261 V 181.27914 M -4.7995137,181.27914 V 176.37866 H -1.8994437 V 181.27914 M 8.2007063,181.27914 V 176.37866 H 11.100806 V 181.27914 M 36.600526,181.27914 V 176.37866 H 39.500626 V 181.27914 M 44.550416,181.27914 44.550936,171.27923 H 42.100976 V 160.32951 149.37927 H 44.550936 L 44.550416,139.37885 M 39.500626,139.37885 V 144.27881 H 36.600526 V 139.37885 M 11.100806,139.37885 V 144.27881 H 8.2007063 V 139.37885 M -1.8994437,139.37885 V 144.27881 H -4.7995137 V 139.37885 M -30.299261,139.37885 V 144.27881 H -33.199361 V 139.37885 M -43.299512,139.37885 V 144.27881 H -46.199581 V 139.37885 M -71.699332,139.37885 V 144.27881 H -74.599403 V 139.37885 M -84.699552,139.37885 V 144.27881 H -87.599623 V 139.37885 M -154.49944,139.37885 V 144.27881 H -157.39951 V 139.37885 M -206.29937,149.37927 H -201.39889 L -201.39942,171.27923 H -206.29987 Z M -199.39901,149.37927 H -194.49906 V 171.27923 H -199.39901 Z M -192.49918,149.37927 H -187.59924 V 171.27923 H -192.49918 Z M -185.59936,149.37927 H -180.69888 V 171.27923 H -185.59936 Z M -178.699,149.37927 H -173.79902 V 171.27923 H -178.699 Z M -171.79917,149.37927 H -166.89922 V 171.27923 H -171.79917 Z M -164.89931,149.37927 H -159.99936 V 171.27923 H -164.89931 Z M -157.99898,149.37927 H -153.099 V 171.27923 H -157.99898 Z M -151.09915,149.37927 H -146.19917 V 171.27923 H -151.09915 Z M -144.19929,149.37927 H -139.29934 V 171.27923 H -144.19929 Z M -137.29896,149.37927 H -132.39898 V 171.27923 H -137.29896 Z M -130.3991,149.37927 H -125.49915 V 171.27923 H -130.3991 Z M -123.49927,149.37927 H -118.59929 V 171.27923 H -123.49927 Z M -116.59891,149.37927 H -111.69893 V 171.27923 H -116.59891 Z M -109.69908,149.37927 H -104.7991 V 171.27923 H -109.69908 Z M -102.79922,149.37927 H -97.899273 V 171.27923 H -102.79922 Z M -95.898862,149.37927 H -90.998913 V 171.27923 H -95.898862 Z M -88.999034,149.37927 H -84.099083 V 171.27923 H -88.999034 Z M -82.099203,149.37927 H -77.199252 V 171.27923 H -82.099203 Z M -75.198843,149.37927 H -70.298892 V 171.27923 H -75.198843 Z M -68.299013,149.37927 H -63.399062 V 171.27923 H -68.299013 Z M -61.399182,149.37927 H -56.499202 V 171.27923 H -61.399182 Z M -54.499351,149.37927 H -49.598871 V 171.27923 H -54.499351 Z M -47.598992,149.37927 H -42.699012 V 171.27923 H -47.598992 Z M -40.699132,149.37927 H -35.799181 V 171.27923 H -40.699132 Z M -33.799301,149.37927 H -28.898821 V 171.27923 H -33.799301 Z M -26.898942,149.37927 H -21.998993 V 171.27923 H -26.898942 Z M -19.999111,149.37927 H -15.099164 V 171.27923 H -19.999111 Z M -13.099284,149.37927 H -8.1993037 V 171.27923 H -13.099284 Z M -6.1989237,149.37927 H -1.2989737 V 171.27923 H -6.1989237 Z M 0.70090632,149.37927 H 5.6008863 V 171.27923 H 0.70090632 Z M 7.6007663,149.37927 H 12.500716 V 171.27923 H 7.6007663 Z M 14.501096,149.37927 H 19.401076 V 171.27923 H 14.501096 Z M 21.400956,149.37927 H 26.300906 V 171.27923 H 21.400956 Z M 28.300786,149.37927 H 33.200736 V 171.27923 H 28.300786 Z M 35.201146,149.37927 H 40.101096 V 171.27923 H 35.201146 Z"
       id="path4790-8-2-5-7"
       sodipodi:nodetypes="cccccccccccccccccccccccccccccccccccccccccccccccccccccccccccccccccccccccccccccccccccccccccccccccccccccccccccccccccccccccccccccccccccccccccccccccccccccccccccccccccccccccccccccccccccccccccccccccccccccccccccccccccccccccccccccccccccccccccccccccccccccccccccccccccccccccccccccccccccccccc" />
    <path
       style="opacity:1;fill:none;fill-opacity:1;fill-rule:nonzero;stroke:#ff0000;stroke-width:0.1;stroke-linecap:butt;stroke-linejoin:miter;stroke-miterlimit:4;stroke-dasharray:none;stroke-opacity:1;paint-order:normal"
       d="M -80.149313,290.97918 H -86.148613 V 287.97918 H -99.099109 V 276.52962 H -100.59921 -102.09911 V 287.97918 H -115.04961 V 290.97918 H -121.04941"
       id="rect1925-7-9-9-2-5-3-5-3"
       inkscape:connector-curvature="0"
       sodipodi:nodetypes="ccccccccccc" />
    <path
       style="opacity:1;fill:none;fill-opacity:1;fill-rule:nonzero;stroke:#ff0000;stroke-width:0.09999999;stroke-linecap:butt;stroke-linejoin:miter;stroke-miterlimit:4;stroke-dasharray:none;stroke-opacity:1;paint-order:normal"
       d="M -208.0494,265.07927 V 276.52962 H -209.5494 -211.0494 V 265.07927 M -131.0494,265.07927 V 276.52962 H -132.5494 -134.0494 V 265.07927"
       id="rect1925-1-2-1-4-6-7-3"
       inkscape:connector-curvature="0"
       sodipodi:nodetypes="cccccccccc" />
    <path
       style="opacity:1;fill:none;fill-opacity:1;fill-rule:nonzero;stroke:#ff0000;stroke-width:0.1;stroke-linecap:butt;stroke-linejoin:miter;stroke-miterlimit:4;stroke-dasharray:none;stroke-opacity:1;paint-order:normal"
       d="M -39.249211,265.07927 V 290.97918 H -45.248511 V 287.97918 H -58.199011 V 276.52962 H -59.699111 -61.19901 V 287.97918 H -74.149512 V 290.97918 H -80.149313 V 265.07927"
       id="rect1925-7-9-9-2-5-3-5-7-2"
       inkscape:connector-curvature="0"
       sodipodi:nodetypes="ccccccccccccc" />
  </g>
</svg>
