EESchema Schematic File Version 4
LIBS:ws2812b_esp-cache
EELAYER 26 0
EELAYER END
$Descr User 8268 5906
encoding utf-8
Sheet 1 1
Title "Clock - ws2812b"
Date ""
Rev ""
Comp ""
Comment1 ""
Comment2 ""
Comment3 ""
Comment4 ""
$EndDescr
NoConn ~ 3650 2200
NoConn ~ 2600 2200
NoConn ~ 2600 2100
NoConn ~ 2600 2000
NoConn ~ 2600 1900
NoConn ~ 2600 1700
$Comp
L crafting_labs:ESP12 U2
U 1 1 59D4C5FA
P 3300 3200
F 0 "U2" H 3350 3950 60  0000 C CNN
F 1 "ESP12" H 2950 3950 60  0000 C CNN
F 2 "Crafting labs:ESP12-breakout_board" H 3300 3200 60  0001 C CNN
F 3 "" H 3300 3200 60  0000 C CNN
	1    3300 3200
	1    0    0    -1  
$EndComp
$Comp
L crafting_labs:HT7333 U1
U 1 1 59D4E4CD
P 3000 3550
F 0 "U1" H 2450 4400 60  0000 C CNN
F 1 "HT7333" V 2500 4100 60  0000 C CNN
F 2 "Package_TO_SOT_THT:TO-92_Wide" H 3000 3550 60  0001 C CNN
F 3 "" H 3000 3550 60  0000 C CNN
	1    3000 3550
	0    -1   -1   0   
$EndComp
Wire Wire Line
	2300 3350 2300 3600
Wire Wire Line
	2450 3600 2450 3350
Wire Wire Line
	3650 2300 3850 2300
Wire Wire Line
	3850 1600 3650 1600
Wire Wire Line
	3850 1150 3850 1600
Wire Wire Line
	3950 1700 3650 1700
Wire Wire Line
	3950 1150 3950 1700
Wire Wire Line
	4050 1150 4150 1150
Wire Wire Line
	2400 2300 2600 2300
Wire Wire Line
	2400 1800 2400 2300
Wire Wire Line
	2600 1800 2400 1800
Wire Wire Line
	2600 2300 2600 2800
$Comp
L power:GND #PWR0101
U 1 1 5C2A37E3
P 2300 3350
F 0 "#PWR0101" H 2300 3100 50  0001 C CNN
F 1 "GND" H 2305 3177 50  0000 C CNN
F 2 "" H 2300 3350 50  0001 C CNN
F 3 "" H 2300 3350 50  0001 C CNN
	1    2300 3350
	-1   0    0    1   
$EndComp
$Comp
L power:+5V #PWR0102
U 1 1 5C2A3852
P 2450 3350
F 0 "#PWR0102" H 2450 3200 50  0001 C CNN
F 1 "+5V" H 2465 3523 50  0000 C CNN
F 2 "" H 2450 3350 50  0001 C CNN
F 3 "" H 2450 3350 50  0001 C CNN
	1    2450 3350
	1    0    0    -1  
$EndComp
$Comp
L Connector:USB_B_Micro J1
U 1 1 5C2A3F14
P 3550 3500
F 0 "J1" V 3276 3445 50  0000 C CNN
F 1 "USB_B_Micro" V 3185 3445 50  0000 C CNN
F 2 "Connector_PinHeader_2.54mm:PinHeader_1x05_P2.54mm_Vertical" H 3700 3450 50  0001 C CNN
F 3 "~" H 3700 3450 50  0001 C CNN
	1    3550 3500
	0    -1   -1   0   
$EndComp
$Comp
L power:GND #PWR0103
U 1 1 5C2A4A94
P 4100 3500
F 0 "#PWR0103" H 4100 3250 50  0001 C CNN
F 1 "GND" V 4105 3372 50  0000 R CNN
F 2 "" H 4100 3500 50  0001 C CNN
F 3 "" H 4100 3500 50  0001 C CNN
	1    4100 3500
	0    -1   -1   0   
$EndComp
$Comp
L power:+5V #PWR0104
U 1 1 5C2A501B
P 3350 3050
F 0 "#PWR0104" H 3350 2900 50  0001 C CNN
F 1 "+5V" H 3365 3223 50  0000 C CNN
F 2 "" H 3350 3050 50  0001 C CNN
F 3 "" H 3350 3050 50  0001 C CNN
	1    3350 3050
	1    0    0    -1  
$EndComp
Wire Wire Line
	3350 3050 3350 3200
Wire Wire Line
	3950 3500 4100 3500
NoConn ~ 3950 3600
NoConn ~ 3750 3200
NoConn ~ 3650 3200
NoConn ~ 3550 3200
$Comp
L power:GND #PWR0106
U 1 1 5C2A63FB
P 3850 2300
F 0 "#PWR0106" H 3850 2050 50  0001 C CNN
F 1 "GND" V 3855 2172 50  0000 R CNN
F 2 "" H 3850 2300 50  0001 C CNN
F 3 "" H 3850 2300 50  0001 C CNN
	1    3850 2300
	0    -1   -1   0   
$EndComp
$Comp
L power:GND #PWR0107
U 1 1 5C2A6BFD
P 4850 2000
F 0 "#PWR0107" H 4850 1750 50  0001 C CNN
F 1 "GND" H 4855 1827 50  0000 C CNN
F 2 "" H 4850 2000 50  0001 C CNN
F 3 "" H 4850 2000 50  0001 C CNN
	1    4850 2000
	0    -1   -1   0   
$EndComp
$Comp
L power:GND #PWR0108
U 1 1 5C2A794B
P 4150 1150
F 0 "#PWR0108" H 4150 900 50  0001 C CNN
F 1 "GND" H 4155 977 50  0000 C CNN
F 2 "" H 4150 1150 50  0001 C CNN
F 3 "" H 4150 1150 50  0001 C CNN
	1    4150 1150
	1    0    0    -1  
$EndComp
$Comp
L power:GND #PWR0109
U 1 1 5C2A7E0B
P 3900 2600
F 0 "#PWR0109" H 3900 2350 50  0001 C CNN
F 1 "GND" H 3905 2427 50  0000 C CNN
F 2 "" H 3900 2600 50  0001 C CNN
F 3 "" H 3900 2600 50  0001 C CNN
	1    3900 2600
	1    0    0    -1  
$EndComp
$Comp
L power:+5V #PWR0110
U 1 1 5C2A7EEF
P 4550 2600
F 0 "#PWR0110" H 4550 2450 50  0001 C CNN
F 1 "+5V" H 4565 2773 50  0000 C CNN
F 2 "" H 4550 2600 50  0001 C CNN
F 3 "" H 4550 2600 50  0001 C CNN
	1    4550 2600
	-1   0    0    1   
$EndComp
$Comp
L Device:CP C1
U 1 1 5C2A85C5
P 2450 2800
F 0 "C1" V 2195 2800 50  0000 C CNN
F 1 "CP" V 2286 2800 50  0000 C CNN
F 2 "Capacitor_THT:CP_Radial_D5.0mm_P2.50mm" H 2488 2650 50  0001 C CNN
F 3 "~" H 2450 2800 50  0001 C CNN
	1    2450 2800
	0    1    1    0   
$EndComp
Connection ~ 2600 2800
Wire Wire Line
	2600 2800 2600 3600
$Comp
L power:GND #PWR0111
U 1 1 5C2A867F
P 2150 2800
F 0 "#PWR0111" H 2150 2550 50  0001 C CNN
F 1 "GND" V 2155 2672 50  0000 R CNN
F 2 "" H 2150 2800 50  0001 C CNN
F 3 "" H 2150 2800 50  0001 C CNN
	1    2150 2800
	0    1    1    0   
$EndComp
Wire Wire Line
	2150 2800 2300 2800
$Comp
L Switch:SW_Push SW2
U 1 1 5C2AA5DD
P 2250 1600
F 0 "SW2" H 2250 1885 50  0000 C CNN
F 1 "Reset" H 2250 1794 50  0000 C CNN
F 2 "Button_Switch_SMD:SW_SPST_TL3305A" H 2250 1800 50  0001 C CNN
F 3 "" H 2250 1800 50  0001 C CNN
	1    2250 1600
	1    0    0    -1  
$EndComp
Wire Wire Line
	2600 1600 2550 1600
$Comp
L power:GND #PWR01
U 1 1 5C2AAD67
P 1950 1600
F 0 "#PWR01" H 1950 1350 50  0001 C CNN
F 1 "GND" V 1955 1472 50  0000 R CNN
F 2 "" H 1950 1600 50  0001 C CNN
F 3 "" H 1950 1600 50  0001 C CNN
	1    1950 1600
	0    1    1    0   
$EndComp
Wire Wire Line
	2050 1600 1950 1600
$Comp
L Connector:Conn_01x03_Male J3
U 1 1 5C2CB051
P 4250 2850
F 0 "J3" V 4178 2827 50  0000 C CNN
F 1 "WS2812" V 4087 2827 50  0000 C CNN
F 2 "Connector_PinHeader_2.54mm:PinHeader_1x03_P2.54mm_Vertical" H 4250 2850 50  0001 C CNN
F 3 "~" H 4250 2850 50  0001 C CNN
	1    4250 2850
	0    -1   -1   0   
$EndComp
Wire Wire Line
	4350 2600 4350 2650
Wire Wire Line
	4350 2600 4550 2600
Wire Wire Line
	4150 2650 4150 2600
Wire Wire Line
	4150 2600 4050 2600
Wire Wire Line
	3650 2100 4250 2100
Wire Wire Line
	4250 2100 4250 2650
NoConn ~ 3650 1800
NoConn ~ 3650 1900
$Comp
L Switch:SW_Push SW1
U 1 1 5E1FB21F
P 4400 2000
F 0 "SW1" H 4400 2285 50  0000 C CNN
F 1 "Flash" H 4400 2194 50  0000 C CNN
F 2 "Button_Switch_SMD:SW_SPST_TL3305A" H 4400 2200 50  0001 C CNN
F 3 "" H 4400 2200 50  0001 C CNN
	1    4400 2000
	1    0    0    -1  
$EndComp
Wire Wire Line
	3650 2000 3750 2000
Wire Wire Line
	4600 2000 4850 2000
$Comp
L Connector:Conn_01x05_Male J2
U 1 1 5E3D79F9
P 3850 950
F 0 "J2" V 3910 1190 50  0000 L CNN
F 1 "Conn_01x05_Male" V 4001 1190 50  0000 L CNN
F 2 "Connector_PinHeader_2.54mm:PinHeader_1x05_P2.54mm_Vertical" H 3850 950 50  0001 C CNN
F 3 "~" H 3850 950 50  0001 C CNN
	1    3850 950 
	0    1    1    0   
$EndComp
Wire Wire Line
	3750 1150 3750 2000
Connection ~ 3750 2000
Wire Wire Line
	3750 2000 4200 2000
Wire Wire Line
	3650 1150 3650 1450
Wire Wire Line
	3650 1450 2550 1450
Wire Wire Line
	2550 1450 2550 1600
Connection ~ 2550 1600
Wire Wire Line
	2550 1600 2450 1600
$Comp
L Device:CP C2
U 1 1 5EE24383
P 4200 2450
F 0 "C2" V 3945 2450 50  0000 C CNN
F 1 "CP" V 4036 2450 50  0000 C CNN
F 2 "Capacitor_THT:CP_Radial_D5.0mm_P2.50mm" H 4238 2300 50  0001 C CNN
F 3 "~" H 4200 2450 50  0001 C CNN
	1    4200 2450
	0    1    1    0   
$EndComp
Wire Wire Line
	4050 2450 4050 2600
Connection ~ 4050 2600
Wire Wire Line
	4050 2600 3900 2600
Wire Wire Line
	4350 2450 4350 2600
Connection ~ 4350 2600
$EndSCHEMATC
